VHDL/HW3/ej1/ej1d/simulation/qsim/ej1d.msim.vcd
$comment
	File created using the following command:
		vcd file ej1d.msim.vcd -direction
$end
$date
	Thu Apr 29 10:02:45 2021
$end
$version
	ModelSim Version 2020.1
$end
$timescale
	1ps
$end

$scope module ej1d_vlg_vec_tst $end
$var reg 3 ! entradas [0:2] $end
$var wire 1 " salidas [0] $end
$var wire 1 # salidas [1] $end

$scope module i1 $end
$var wire 1 $ gnd $end
$var wire 1 % vcc $end
$var wire 1 & unknown $end
$var tri1 1 ' devclrn $end
$var tri1 1 ( devpor $end
$var tri1 1 ) devoe $end
$var wire 1 * salidas[1]~output_o $end
$var wire 1 + salidas[0]~output_o $end
$var wire 1 , entradas[0]~input_o $end
$var wire 1 - entradas[1]~input_o $end
$var wire 1 . entradas[2]~input_o $end
$var wire 1 / Mux1~0_combout $end
$var wire 1 0 Mux0~0_combout $end
$upscope $end
$upscope $end
$enddefinitions $end
#0
$dumpvars
b0 !
0#
0"
0$
1%
x&
1'
1(
1)
0*
0+
0,
0-
0.
0/
00
$end
#25000
b100 !
1,
1/
1*
1#
#50000
b110 !
b10 !
1-
0,
#75000
b110 !
1,
10
0/
0*
1+
1"
0#
#100000
b111 !
b101 !
b1 !
1.
0-
0,
00
1/
1*
0+
0"
1#
#125000
b101 !
1,
10
0/
0*
1+
1"
0#
#150000
b111 !
b11 !
1-
0,
#175000
b111 !
1,
1/
1*
1#
#200000
b110 !
b100 !
b0 !
0.
0-
0,
00
0/
0*
0+
0"
0#
#225000
b100 !
1,
1/
1*
1#
#250000
b110 !
b10 !
1-
0,
#275000
b110 !
1,
10
0/
0*
1+
1"
0#
#300000
b111 !
b101 !
b1 !
1.
0-
0,
00
1/
1*
0+
0"
1#
#325000
b101 !
1,
10
0/
0*
1+
1"
0#
#350000
b111 !
b11 !
1-
0,
#375000
b111 !
1,
1/
1*
1#
#400000
b110 !
b100 !
b0 !
0.
0-
0,
00
0/
0*
0+
0"
0#
#425000
b100 !
1,
1/
1*
1#
#450000
b110 !
b10 !
1-
0,
#475000
b110 !
1,
10
0/
0*
1+
1"
0#
#500000
b111 !
b101 !
b1 !
1.
0-
0,
00
1/
1*
0+
0"
1#
#525000
b101 !
1,
10
0/
0*
1+
1"
0#
#550000
b111 !
b11 !
1-
0,
#575000
b111 !
1,
1/
1*
1#
#600000
b110 !
b100 !
b0 !
0.
0-
0,
00
0/
0*
0+
0"
0#
#625000
b100 !
1,
1/
1*
1#
#650000
b110 !
b10 !
1-
0,
#675000
b110 !
1,
10
0/
0*
1+
1"
0#
#700000
b111 !
b101 !
b1 !
1.
0-
0,
00
1/
1*
0+
0"
1#
#725000
b101 !
1,
10
0/
0*
1+
1"
0#
#750000
b111 !
b11 !
1-
0,
#775000
b111 !
1,
1/
1*
1#
#800000
b110 !
b100 !
b0 !
0.
0-
0,
00
0/
0*
0+
0"
0#
#825000
b100 !
1,
1/
1*
1#
#850000
b110 !
b10 !
1-
0,
#875000
b110 !
1,
10
0/
0*
1+
1"
0#
#900000
b111 !
b101 !
b1 !
1.
0-
0,
00
1/
1*
0+
0"
1#
#925000
b101 !
1,
10
0/
0*
1+
1"
0#
#950000
b111 !
b11 !
1-
0,
#975000
b111 !
1,
1/
1*
1#
