VHDL/Proyecto_2/codigo/simulation/qsim/bin2bcd.msim.vcd
$comment
	File created using the following command:
		vcd file bin2bcd.msim.vcd -direction
$end
$date
	Sun Jun 13 20:14:49 2021
$end
$version
	ModelSim Version 2020.1
$end
$timescale
	1ps
$end

$scope module bin2bcd_vlg_vec_tst $end
$var reg 8 ! bin [7:0] $end
$var reg 1 " ninicio $end
$var reg 1 # reloj $end
$var wire 1 $ bcd [11] $end
$var wire 1 % bcd [10] $end
$var wire 1 & bcd [9] $end
$var wire 1 ' bcd [8] $end
$var wire 1 ( bcd [7] $end
$var wire 1 ) bcd [6] $end
$var wire 1 * bcd [5] $end
$var wire 1 + bcd [4] $end
$var wire 1 , bcd [3] $end
$var wire 1 - bcd [2] $end
$var wire 1 . bcd [1] $end
$var wire 1 / bcd [0] $end
$var wire 1 0 fin $end

$scope module i1 $end
$var wire 1 1 gnd $end
$var wire 1 2 vcc $end
$var wire 1 3 unknown $end
$var tri1 1 4 devclrn $end
$var tri1 1 5 devpor $end
$var tri1 1 6 devoe $end
$var wire 1 7 fin~output_o $end
$var wire 1 8 bcd[0]~output_o $end
$var wire 1 9 bcd[1]~output_o $end
$var wire 1 : bcd[2]~output_o $end
$var wire 1 ; bcd[3]~output_o $end
$var wire 1 < bcd[4]~output_o $end
$var wire 1 = bcd[5]~output_o $end
$var wire 1 > bcd[6]~output_o $end
$var wire 1 ? bcd[7]~output_o $end
$var wire 1 @ bcd[8]~output_o $end
$var wire 1 A bcd[9]~output_o $end
$var wire 1 B bcd[10]~output_o $end
$var wire 1 C bcd[11]~output_o $end
$var wire 1 D reloj~input_o $end
$var wire 1 E reloj~inputclkctrl_outclk $end
$var wire 1 F i[2]~1_combout $end
$var wire 1 G ninicio~input_o $end
$var wire 1 H ninicio~inputclkctrl_outclk $end
$var wire 1 I i[1]~2_combout $end
$var wire 1 J i[0]~3_combout $end
$var wire 1 K i[2]~0_combout $end
$var wire 1 L elfin~q $end
$var wire 1 M bin[7]~input_o $end
$var wire 1 N bin[6]~input_o $end
$var wire 1 O bin[5]~input_o $end
$var wire 1 P bin[4]~input_o $end
$var wire 1 Q datobin[4]~13_combout $end
$var wire 1 R bin[3]~input_o $end
$var wire 1 S datobin[3]~17_combout $end
$var wire 1 T bin[1]~input_o $end
$var wire 1 U bin[0]~input_o $end
$var wire 1 V datobin[0]~29_combout $end
$var wire 1 W datobin[0]~_emulated_q $end
$var wire 1 X datobin[0]~30_combout $end
$var wire 1 Y datobin[1]~25_combout $end
$var wire 1 Z datobin[1]~27_combout $end
$var wire 1 [ datobin[1]~_emulated_q $end
$var wire 1 \ datobin[1]~26_combout $end
$var wire 1 ] bin[2]~input_o $end
$var wire 1 ^ datobin[2]~21_combout $end
$var wire 1 _ datobin[2]~23_combout $end
$var wire 1 ` datobin[2]~_emulated_q $end
$var wire 1 a datobin[2]~22_combout $end
$var wire 1 b datobin[3]~19_combout $end
$var wire 1 c datobin[3]~_emulated_q $end
$var wire 1 d datobin[3]~18_combout $end
$var wire 1 e datobin[4]~15_combout $end
$var wire 1 f datobin[4]~_emulated_q $end
$var wire 1 g datobin[4]~14_combout $end
$var wire 1 h datobin[5]~9_combout $end
$var wire 1 i datobin[5]~11_combout $end
$var wire 1 j datobin[5]~_emulated_q $end
$var wire 1 k datobin[5]~10_combout $end
$var wire 1 l datobin[6]~5_combout $end
$var wire 1 m datobin[6]~7_combout $end
$var wire 1 n datobin[6]~_emulated_q $end
$var wire 1 o datobin[6]~6_combout $end
$var wire 1 p datobin[7]~1_combout $end
$var wire 1 q datobin[7]~3_combout $end
$var wire 1 r datobin[7]~_emulated_q $end
$var wire 1 s datobin[7]~2_combout $end
$var wire 1 t bcd[0]~reg0feeder_combout $end
$var wire 1 u LessThan0~0_combout $end
$var wire 1 v bcd[0]~0_combout $end
$var wire 1 w bcd[0]~reg0_q $end
$var wire 1 x datobcd~2_combout $end
$var wire 1 y datobcd~3_combout $end
$var wire 1 z datobcd~4_combout $end
$var wire 1 { datobcd~0_combout $end
$var wire 1 | datobcd~1_combout $end
$var wire 1 } bcd[1]~reg0feeder_combout $end
$var wire 1 ~ bcd[1]~reg0_q $end
$var wire 1 !! bcd[2]~reg0feeder_combout $end
$var wire 1 "! bcd[2]~reg0_q $end
$var wire 1 #! bcd[3]~reg0_q $end
$var wire 1 $! Add0~0_combout $end
$var wire 1 %! datobcd~5_combout $end
$var wire 1 &! bcd[4]~reg0feeder_combout $end
$var wire 1 '! bcd[4]~reg0_q $end
$var wire 1 (! LessThan2~0_combout $end
$var wire 1 )! datobcd~7_combout $end
$var wire 1 *! datobcd~8_combout $end
$var wire 1 +! datobcd~9_combout $end
$var wire 1 ,! datobcd~6_combout $end
$var wire 1 -! bcd[5]~reg0feeder_combout $end
$var wire 1 .! bcd[5]~reg0_q $end
$var wire 1 /! bcd[6]~reg0feeder_combout $end
$var wire 1 0! bcd[6]~reg0_q $end
$var wire 1 1! bcd[7]~reg0feeder_combout $end
$var wire 1 2! bcd[7]~reg0_q $end
$var wire 1 3! datobcd~10_combout $end
$var wire 1 4! bcd[8]~reg0feeder_combout $end
$var wire 1 5! bcd[8]~reg0_q $end
$var wire 1 6! datobcd~13_combout $end
$var wire 1 7! LessThan3~0_combout $end
$var wire 1 8! datobcd~14_combout $end
$var wire 1 9! datobcd~11_combout $end
$var wire 1 :! datobcd~12_combout $end
$var wire 1 ;! bcd[9]~reg0feeder_combout $end
$var wire 1 <! bcd[9]~reg0_q $end
$var wire 1 =! bcd[10]~reg0feeder_combout $end
$var wire 1 >! bcd[10]~reg0_q $end
$var wire 1 ?! bcd[11]~reg0_q $end
$var wire 1 @! datobcd [11] $end
$var wire 1 A! datobcd [10] $end
$var wire 1 B! datobcd [9] $end
$var wire 1 C! datobcd [8] $end
$var wire 1 D! datobcd [7] $end
$var wire 1 E! datobcd [6] $end
$var wire 1 F! datobcd [5] $end
$var wire 1 G! datobcd [4] $end
$var wire 1 H! datobcd [3] $end
$var wire 1 I! datobcd [2] $end
$var wire 1 J! datobcd [1] $end
$var wire 1 K! datobcd [0] $end
$var wire 1 L! i [2] $end
$var wire 1 M! i [1] $end
$var wire 1 N! i [0] $end
$upscope $end
$upscope $end
$enddefinitions $end
#0
$dumpvars
b10111001 !
0"
0#
0/
0.
0-
0,
0+
0*
0)
0(
0'
0&
0%
0$
00
01
12
x3
14
15
16
07
08
09
0:
0;
0<
0=
0>
0?
0@
0A
0B
0C
0D
0E
0F
0G
0H
0I
1J
0K
0L
1M
0N
1O
1P
1Q
1R
1S
0T
1U
1V
0W
1X
0Y
1Z
0[
0\
0]
0^
0_
0`
0a
1b
0c
1d
0e
0f
1g
1h
0i
0j
1k
0l
1m
0n
0o
1p
1q
0r
1s
1t
1u
0v
0w
0x
0y
0z
0{
1|
0}
0~
0!!
0"!
0#!
0$!
0%!
0&!
0'!
1(!
0)!
0*!
0+!
0,!
0-!
0.!
0/!
00!
01!
02!
03!
04!
05!
06!
07!
08!
09!
0:!
0;!
0<!
0=!
0>!
0?!
0K!
0J!
0I!
0H!
0G!
0F!
0E!
0D!
0C!
0B!
0A!
z@!
0N!
0M!
0L!
$end
#2500
1#
1D
1E
#5000
0#
0D
0E
#7500
1#
1D
1E
#10000
0#
0D
0E
#12500
1#
1D
1E
#15000
0#
0D
0E
#17500
1#
1D
1E
#20000
0#
0D
0E
#22500
1#
1D
1E
#25000
0#
0D
0E
#27500
1#
1D
1E
#30000
0#
0D
0E
#32500
1#
1D
1E
#35000
0#
0D
0E
#37500
1#
1D
1E
#40000
1"
0#
1G
0D
1H
0E
#42500
1#
1D
1E
1K!
1r
1n
1c
1[
1W
1N!
0s
1o
0d
1\
0X
1}
1x
0J
1I
0|
0t
0q
1e
1_
0Z
#45000
0#
0D
0E
#47500
1#
1D
1E
0K!
1J!
0r
1f
1`
0[
0N!
1M!
1y
1s
0g
1a
0\
0}
0x
1!!
1J
1$!
1{
0y
1z
1|
1t
1i
0b
0_
1%!
0|
0z
#50000
0#
0D
0E
#52500
1#
1D
1E
1H!
0J!
1j
0c
0`
1N!
0$!
0{
0k
1d
0a
1,!
1&!
0!!
0J
0I
1F
0%!
1|
0m
0e
1b
#55000
0#
0D
0E
#57500
1#
1D
1E
1G!
0H!
1K!
0n
0f
1c
0N!
0M!
1L!
0o
1g
0d
1-!
1*!
0,!
0&!
1}
1x
1J
1q
0i
1e
#60000
0#
0D
0E
#62500
1#
1D
1E
0G!
1F!
1J!
1r
0j
1f
1N!
1$!
1{
0s
1k
0g
0-!
1+!
0*!
1/!
1!!
0J
1I
1%!
0x
0t
1m
1i
#65000
0#
0D
0E
#67500
1#
1D
1E
1E!
0F!
1H!
0J!
1n
1j
0N!
1M!
1)!
0$!
0{
1o
0k
13!
11!
0/!
0+!
1&!
0!!
1J
1+!
0%!
0|
1x
0q
0m
#70000
0#
0D
0E
#72500
1#
1D
1E
1D!
0H!
0K!
1J!
0r
0n
1N!
17!
1y
1s
0o
0u
1:!
14!
1,!
0+!
1*!
0&!
0}
0x
1!!
1K
1$!
1{
0y
0)!
1v
1z
1|
1t
1q
0,!
0*!
#75000
0#
0D
0E
#77500
1#
1D
1E
1C!
0E!
1K!
1I!
0J!
1r
15!
12!
1"!
1w
1L
17
18
1:
1?
1@
0s
0v
1'
1(
1-
1/
10
1;!
16!
03!
01!
1}
1x
1%!
0z
0!!
0|
0t
#80000
0#
0D
0E
#82500
1#
1D
1E
#85000
0#
0D
0E
#87500
1#
1D
1E
#90000
0#
0D
0E
#92500
1#
1D
1E
#95000
0#
0D
0E
#97500
1#
1D
1E
#100000
0#
0D
0E
#102500
1#
1D
1E
#105000
0#
0D
0E
#107500
1#
1D
1E
#110000
0#
0D
0E
#112500
1#
1D
1E
#115000
0#
0D
0E
#117500
1#
1D
1E
#120000
0#
0D
0E
#122500
1#
1D
1E
#125000
0#
0D
0E
#127500
1#
1D
1E
#130000
0#
0D
0E
#132500
1#
1D
1E
#135000
0#
0D
0E
#137500
1#
1D
1E
#140000
0#
0D
0E
#142500
1#
1D
1E
#145000
0#
0D
0E
#147500
1#
1D
1E
#150000
0#
0D
0E
#152500
1#
1D
1E
#155000
0#
0D
0E
#157500
1#
1D
1E
#160000
0#
0D
0E
#162500
1#
1D
1E
#165000
0#
0D
0E
#167500
1#
1D
1E
#170000
0#
0D
0E
#172500
1#
1D
1E
#175000
0#
0D
0E
#177500
1#
1D
1E
#180000
0#
0D
0E
#182500
1#
1D
1E
#185000
0#
0D
0E
#187500
1#
1D
1E
#190000
0#
0D
0E
#192500
1#
1D
1E
#195000
0#
0D
0E
#197500
1#
1D
1E
#200000
0#
0D
0E
#202500
1#
1D
1E
#205000
0#
0D
0E
#207500
1#
1D
1E
#210000
0#
0D
0E
#212500
1#
1D
1E
#215000
0#
0D
0E
#217500
1#
1D
1E
#220000
0#
0D
0E
#222500
1#
1D
1E
#225000
0#
0D
0E
#227500
1#
1D
1E
#230000
0#
0D
0E
#232500
1#
1D
1E
#235000
0#
0D
0E
#237500
1#
1D
1E
#240000
0#
0D
0E
#242500
1#
1D
1E
#245000
0#
0D
0E
#247500
1#
1D
1E
#250000
0#
0D
0E
#252500
1#
1D
1E
#255000
0#
0D
0E
#257500
1#
1D
1E
#260000
0#
0D
0E
#262500
1#
1D
1E
#265000
0#
0D
0E
#267500
1#
1D
1E
#270000
0#
0D
0E
#272500
1#
1D
1E
#275000
0#
0D
0E
#277500
1#
1D
1E
#280000
0#
0D
0E
#282500
1#
1D
1E
#285000
0#
0D
0E
#287500
1#
1D
1E
#290000
b10011001 !
b10001001 !
b10000001 !
b10000101 !
b10000111 !
0#
1T
1]
0R
0P
0O
0D
0E
#292500
1#
1D
1E
#295000
0#
0D
0E
#297500
1#
1D
1E
#300000
0#
0D
0E
#302500
1#
1D
1E
#305000
0#
0D
0E
#307500
1#
1D
1E
#310000
0"
0#
0G
0D
0H
0E
1s
1a
1\
1X
0h
1^
1Y
0S
0Q
1|
1t
0i
0e
0L!
0M!
0N!
0W
0c
0f
0j
0r
0I!
0K!
0D!
0C!
0L
07
1u
0$!
0{
07!
00
0K
0I
0F
0%!
0}
0x
0:!
06!
04!
0;!
#312500
1#
1D
1E
#315000
0#
0D
0E
#317500
1#
1D
1E
#320000
0#
0D
0E
#322500
1#
1D
1E
#325000
0#
0D
0E
#327500
1#
1D
1E
#330000
1"
0#
1G
0D
1H
0E
#332500
1#
1D
1E
1K!
1r
1c
1W
1N!
0s
1d
0X
1}
1x
0J
1I
0|
0t
1e
1Z
#335000
0#
0D
0E
#337500
1#
1D
1E
0K!
1J!
1f
1[
0N!
1M!
1y
1g
0\
0}
0x
1!!
1J
1z
1i
1_
#340000
0#
0D
0E
#342500
1#
1D
1E
1I!
0J!
1j
1`
1N!
1$!
1{
1k
0a
1%!
0z
0!!
0J
0I
1F
1|
1x
1m
0b
#345000
0#
0D
0E
#347500
1#
1D
1E
1H!
1K!
0I!
1J!
1n
0c
0N!
0M!
1L!
0y
1o
0d
1,!
1&!
1}
0x
1z
1!!
1J
0z
0q
0e
#350000
0#
0D
0E
#352500
1#
1D
1E
1G!
0J!
0r
0f
1N!
0$!
0{
1s
0g
1-!
1*!
0!!
0J
1I
0%!
1x
1t
0i
#355000
0#
0D
0E
#357500
1#
1D
1E
1F!
0H!
1J!
0j
0N!
1M!
0(!
1$!
1{
0k
1/!
1+!
0,!
0&!
1!!
1J
1)!
13!
1,!
1%!
0|
0m
0+!
0*!
#360000
0#
0D
0E
#362500
1#
1D
1E
1D!
0F!
1H!
0K!
0n
1N!
17!
1(!
0o
0u
1:!
14!
0/!
1+!
0,!
1*!
1&!
0}
0x
1K
0)!
1v
03!
1,!
1q
0%!
1|
1z
0+!
#365000
0#
0D
0E
#367500
1#
1D
1E
1C!
0D!
1F!
0H!
1K!
1I!
0J!
1r
02!
1.!
1'!
1L
17
1<
1=
0?
0(!
0s
0v
0(
1*
1+
10
1;!
16!
0:!
04!
1/!
1+!
0,!
0&!
1}
1x
1%!
0z
0!!
0|
0t
#370000
0#
0D
0E
#372500
1#
1D
1E
#375000
0#
0D
0E
#377500
1#
1D
1E
#380000
0#
0D
0E
#382500
1#
1D
1E
#385000
0#
0D
0E
#387500
1#
1D
1E
#390000
0#
0D
0E
#392500
1#
1D
1E
#395000
0#
0D
0E
#397500
1#
1D
1E
#400000
0#
0D
0E
#402500
1#
1D
1E
#405000
0#
0D
0E
#407500
1#
1D
1E
#410000
0#
0D
0E
#412500
1#
1D
1E
#415000
0#
0D
0E
#417500
1#
1D
1E
#420000
0#
0D
0E
#422500
1#
1D
1E
#425000
0#
0D
0E
#427500
1#
1D
1E
#430000
0#
0D
0E
#432500
1#
1D
1E
#435000
0#
0D
0E
#437500
1#
1D
1E
#440000
0#
0D
0E
#442500
1#
1D
1E
#445000
0#
0D
0E
#447500
1#
1D
1E
#450000
0#
0D
0E
#452500
1#
1D
1E
#455000
0#
0D
0E
#457500
1#
1D
1E
#460000
0#
0D
0E
#462500
1#
1D
1E
#465000
0#
0D
0E
#467500
1#
1D
1E
#470000
0#
0D
0E
#472500
1#
1D
1E
#475000
0#
0D
0E
#477500
1#
1D
1E
#480000
0#
0D
0E
#482500
1#
1D
1E
#485000
0#
0D
0E
#487500
1#
1D
1E
#490000
0#
0D
0E
#492500
1#
1D
1E
#495000
0#
0D
0E
#497500
1#
1D
1E
#500000
0#
0D
0E
#502500
1#
1D
1E
#505000
0#
0D
0E
#507500
1#
1D
1E
#510000
0#
0D
0E
#512500
1#
1D
1E
#515000
0#
0D
0E
#517500
1#
1D
1E
#520000
0#
0D
0E
#522500
1#
1D
1E
#525000
0#
0D
0E
#527500
1#
1D
1E
#530000
0#
0D
0E
#532500
1#
1D
1E
#535000
0#
0D
0E
#537500
1#
1D
1E
#540000
0#
0D
0E
#542500
1#
1D
1E
#545000
0#
0D
0E
#547500
1#
1D
1E
#550000
0#
0D
0E
#552500
1#
1D
1E
#555000
0#
0D
0E
#557500
1#
1D
1E
#560000
0#
0D
0E
#562500
1#
1D
1E
#565000
0#
0D
0E
#567500
1#
1D
1E
#570000
0#
0D
0E
#572500
1#
1D
1E
#575000
0#
0D
0E
#577500
1#
1D
1E
#580000
0#
0D
0E
#582500
1#
1D
1E
#585000
0#
0D
0E
#587500
1#
1D
1E
#590000
0#
0D
0E
#592500
1#
1D
1E
#595000
0#
0D
0E
#597500
1#
1D
1E
#600000
b111 !
b100111 !
b100101 !
0#
0T
1O
0M
0D
0E
#602500
1#
1D
1E
#605000
0#
0D
0E
#607500
1#
1D
1E
#610000
0#
0D
0E
#612500
1#
1D
1E
#615000
0#
0D
0E
#617500
1#
1D
1E
#620000
0#
0D
0E
#622500
1#
1D
1E
#625000
0#
0D
0E
#627500
1#
1D
1E
#630000
0#
0D
0E
#632500
1#
1D
1E
#635000
0#
0D
0E
#637500
1#
1D
1E
#640000
0#
0D
0E
#642500
1#
1D
1E
#645000
0#
0D
0E
#647500
1#
1D
1E
#650000
0#
0D
0E
#652500
1#
1D
1E
#655000
0#
0D
0E
#657500
1#
1D
1E
#660000
0"
0#
0G
0D
0H
0E
1k
1a
1X
0p
1h
0Y
1m
1b
0q
1i
0L!
0M!
0N!
0W
0[
0`
0r
0I!
0K!
0F!
0G!
0C!
0L
07
1u
0$!
0{
1y
1(!
07!
00
0K
0I
0F
0%!
0}
0x
0/!
0+!
0-!
0*!
0;!
06!
#662500
1#
1D
1E
#665000
0#
0D
0E
#667500
1#
1D
1E
#670000
0#
0D
0E
#672500
1#
1D
1E
#675000
0#
0D
0E
#677500
1#
1D
1E
#680000
1"
0#
1G
0D
1H
0E
#682500
1#
1D
1E
1n
1j
1c
1`
1[
1W
1N!
1o
0k
1d
0a
1\
0X
0J
1I
1q
0m
1e
0b
0_
0Z
#685000
0#
0D
0E
#687500
1#
1D
1E
1r
0n
1f
0c
0`
0[
0N!
1M!
1s
0o
1g
0d
1a
0\
1J
0y
1|
1t
0q
0i
0e
1b
1_
#690000
0#
0D
0E
#692500
1#
1D
1E
1K!
0r
0j
0f
1c
1`
1N!
0s
1k
0g
1d
0a
1}
1x
0J
0I
1F
0|
0t
1m
1i
1e
0b
#695000
0#
0D
0E
#697500
1#
1D
1E
0K!
1J!
1n
1j
1f
0c
0N!
0M!
1L!
1y
1o
0k
1g
0d
0}
0x
1!!
1J
1z
1q
0m
0i
0e
#700000
0#
0D
0E
#702500
1#
1D
1E
1I!
0J!
1r
0n
0j
0f
1N!
1$!
1{
1s
0o
1k
0g
1%!
0z
0!!
0J
1I
0y
1t
0q
1m
1i
1z
#705000
0#
0D
0E
#707500
1#
1D
1E
1H!
0r
1n
1j
0N!
1M!
0s
1o
0k
1,!
1&!
1J
1y
1|
1x
0t
1q
0m
0z
#710000
0#
0D
0E
#712500
1#
1D
1E
1G!
1K!
0I!
1J!
1r
0n
1N!
0y
1s
0o
0u
1-!
1*!
1}
0x
1z
1!!
1K
1v
1x
1t
0q
0%!
#715000
0#
0D
0E
#717500
1#
1D
1E
1F!
0H!
1I!
0r
05!
1~
1L
17
19
0@
0(!
0$!
0s
0v
0'
1.
10
1/!
1+!
0,!
0&!
1%!
0|
0t
#720000
0#
0D
0E
#722500
1#
1D
1E
#725000
0#
0D
0E
#727500
1#
1D
1E
#730000
0#
0D
0E
#732500
1#
1D
1E
#735000
0#
0D
0E
#737500
1#
1D
1E
#740000
0#
0D
0E
#742500
1#
1D
1E
#745000
0#
0D
0E
#747500
1#
1D
1E
#750000
0#
0D
0E
#752500
1#
1D
1E
#755000
0#
0D
0E
#757500
1#
1D
1E
#760000
0#
0D
0E
#762500
1#
1D
1E
#765000
0#
0D
0E
#767500
1#
1D
1E
#770000
0#
0D
0E
#772500
1#
1D
1E
#775000
0#
0D
0E
#777500
1#
1D
1E
#780000
0#
0D
0E
#782500
1#
1D
1E
#785000
0#
0D
0E
#787500
1#
1D
1E
#790000
0#
0D
0E
#792500
1#
1D
1E
#795000
0#
0D
0E
#797500
1#
1D
1E
#800000
0#
0D
0E
#802500
1#
1D
1E
#805000
0#
0D
0E
#807500
1#
1D
1E
#810000
0#
0D
0E
#812500
1#
1D
1E
#815000
0#
0D
0E
#817500
1#
1D
1E
#820000
0#
0D
0E
#822500
1#
1D
1E
#825000
0#
0D
0E
#827500
1#
1D
1E
#830000
0#
0D
0E
#832500
1#
1D
1E
#835000
0#
0D
0E
#837500
1#
1D
1E
#840000
0#
0D
0E
#842500
1#
1D
1E
#845000
0#
0D
0E
#847500
1#
1D
1E
#850000
0#
0D
0E
#852500
1#
1D
1E
#855000
0#
0D
0E
#857500
1#
1D
1E
#860000
0#
0D
0E
#862500
1#
1D
1E
#865000
0#
0D
0E
#867500
1#
1D
1E
#870000
0#
0D
0E
#872500
1#
1D
1E
#875000
0#
0D
0E
#877500
1#
1D
1E
#880000
0#
0D
0E
#882500
1#
1D
1E
#885000
0#
0D
0E
#887500
1#
1D
1E
#890000
0#
0D
0E
#892500
1#
1D
1E
#895000
0#
0D
0E
#897500
1#
1D
1E
#900000
0#
0D
0E
#902500
1#
1D
1E
#905000
0#
0D
0E
#907500
1#
1D
1E
#910000
0#
0D
0E
#912500
1#
1D
1E
#915000
0#
0D
0E
#917500
1#
1D
1E
#920000
0#
0D
0E
#922500
1#
1D
1E
#925000
0#
0D
0E
#927500
1#
1D
1E
#930000
0#
0D
0E
#932500
1#
1D
1E
#935000
0#
0D
0E
#937500
1#
1D
1E
#940000
0#
0D
0E
#942500
1#
1D
1E
#945000
0#
0D
0E
#947500
1#
1D
1E
#950000
0#
0D
0E
#952500
1#
1D
1E
#955000
0#
0D
0E
#957500
1#
1D
1E
#960000
0#
0D
0E
#962500
1#
1D
1E
#965000
0#
0D
0E
#967500
1#
1D
1E
#970000
0#
0D
0E
#972500
1#
1D
1E
#975000
0#
0D
0E
#977500
1#
1D
1E
#980000
0#
0D
0E
#982500
1#
1D
1E
#985000
0#
0D
0E
#987500
1#
1D
1E
#990000
0#
0D
0E
#992500
1#
1D
1E
#995000
0#
0D
0E
#997500
1#
1D
1E
