VHDL/Proyecto_2/codigo/simulation/qsim/bin2bcd.msim.vcd
$comment
	File created using the following command:
		vcd file bin2bcd.msim.vcd -direction
$end
$date
	Tue Jun 15 16:23:54 2021
$end
$version
	ModelSim Version 2020.1
$end
$timescale
	1ps
$end

$scope module bin2bcd_vlg_vec_tst $end
$var reg 8 ! bin [7:0] $end
$var reg 1 " ninicio $end
$var reg 1 # reloj $end
$var wire 1 $ bcd_sal [11] $end
$var wire 1 % bcd_sal [10] $end
$var wire 1 & bcd_sal [9] $end
$var wire 1 ' bcd_sal [8] $end
$var wire 1 ( bcd_sal [7] $end
$var wire 1 ) bcd_sal [6] $end
$var wire 1 * bcd_sal [5] $end
$var wire 1 + bcd_sal [4] $end
$var wire 1 , bcd_sal [3] $end
$var wire 1 - bcd_sal [2] $end
$var wire 1 . bcd_sal [1] $end
$var wire 1 / bcd_sal [0] $end
$var wire 1 0 fin $end
$var wire 1 1 salida7c [6] $end
$var wire 1 2 salida7c [5] $end
$var wire 1 3 salida7c [4] $end
$var wire 1 4 salida7c [3] $end
$var wire 1 5 salida7c [2] $end
$var wire 1 6 salida7c [1] $end
$var wire 1 7 salida7c [0] $end
$var wire 1 8 salida7d [6] $end
$var wire 1 9 salida7d [5] $end
$var wire 1 : salida7d [4] $end
$var wire 1 ; salida7d [3] $end
$var wire 1 < salida7d [2] $end
$var wire 1 = salida7d [1] $end
$var wire 1 > salida7d [0] $end
$var wire 1 ? salida7u [6] $end
$var wire 1 @ salida7u [5] $end
$var wire 1 A salida7u [4] $end
$var wire 1 B salida7u [3] $end
$var wire 1 C salida7u [2] $end
$var wire 1 D salida7u [1] $end
$var wire 1 E salida7u [0] $end

$scope module i1 $end
$var wire 1 F gnd $end
$var wire 1 G vcc $end
$var wire 1 H unknown $end
$var tri1 1 I devclrn $end
$var tri1 1 J devpor $end
$var tri1 1 K devoe $end
$var wire 1 L fin~output_o $end
$var wire 1 M bcd_sal[0]~output_o $end
$var wire 1 N bcd_sal[1]~output_o $end
$var wire 1 O bcd_sal[2]~output_o $end
$var wire 1 P bcd_sal[3]~output_o $end
$var wire 1 Q bcd_sal[4]~output_o $end
$var wire 1 R bcd_sal[5]~output_o $end
$var wire 1 S bcd_sal[6]~output_o $end
$var wire 1 T bcd_sal[7]~output_o $end
$var wire 1 U bcd_sal[8]~output_o $end
$var wire 1 V bcd_sal[9]~output_o $end
$var wire 1 W bcd_sal[10]~output_o $end
$var wire 1 X bcd_sal[11]~output_o $end
$var wire 1 Y salida7u[0]~output_o $end
$var wire 1 Z salida7u[1]~output_o $end
$var wire 1 [ salida7u[2]~output_o $end
$var wire 1 \ salida7u[3]~output_o $end
$var wire 1 ] salida7u[4]~output_o $end
$var wire 1 ^ salida7u[5]~output_o $end
$var wire 1 _ salida7u[6]~output_o $end
$var wire 1 ` salida7d[0]~output_o $end
$var wire 1 a salida7d[1]~output_o $end
$var wire 1 b salida7d[2]~output_o $end
$var wire 1 c salida7d[3]~output_o $end
$var wire 1 d salida7d[4]~output_o $end
$var wire 1 e salida7d[5]~output_o $end
$var wire 1 f salida7d[6]~output_o $end
$var wire 1 g salida7c[0]~output_o $end
$var wire 1 h salida7c[1]~output_o $end
$var wire 1 i salida7c[2]~output_o $end
$var wire 1 j salida7c[3]~output_o $end
$var wire 1 k salida7c[4]~output_o $end
$var wire 1 l salida7c[5]~output_o $end
$var wire 1 m salida7c[6]~output_o $end
$var wire 1 n reloj~input_o $end
$var wire 1 o reloj~inputclkctrl_outclk $end
$var wire 1 p i[0]~3_combout $end
$var wire 1 q ninicio~input_o $end
$var wire 1 r ninicio~inputclkctrl_outclk $end
$var wire 1 s i[1]~2_combout $end
$var wire 1 t i[2]~1_combout $end
$var wire 1 u i[2]~0_combout $end
$var wire 1 v elfin~q $end
$var wire 1 w bin[7]~input_o $end
$var wire 1 x datobin[7]~1_combout $end
$var wire 1 y bin[6]~input_o $end
$var wire 1 z datobin[6]~5_combout $end
$var wire 1 { bin[5]~input_o $end
$var wire 1 | datobin[5]~9_combout $end
$var wire 1 } bin[4]~input_o $end
$var wire 1 ~ bin[2]~input_o $end
$var wire 1 !! datobin[2]~21_combout $end
$var wire 1 "! bin[1]~input_o $end
$var wire 1 #! datobin[1]~25_combout $end
$var wire 1 $! bin[0]~input_o $end
$var wire 1 %! datobin[0]~29_combout $end
$var wire 1 &! datobin[0]~_emulated_q $end
$var wire 1 '! datobin[0]~30_combout $end
$var wire 1 (! datobin[1]~27_combout $end
$var wire 1 )! datobin[1]~_emulated_q $end
$var wire 1 *! datobin[1]~26_combout $end
$var wire 1 +! datobin[2]~23_combout $end
$var wire 1 ,! datobin[2]~_emulated_q $end
$var wire 1 -! datobin[2]~22_combout $end
$var wire 1 .! bin[3]~input_o $end
$var wire 1 /! datobin[3]~17_combout $end
$var wire 1 0! datobin[3]~19_combout $end
$var wire 1 1! datobin[3]~_emulated_q $end
$var wire 1 2! datobin[3]~18_combout $end
$var wire 1 3! datobin[4]~13_combout $end
$var wire 1 4! datobin[4]~15_combout $end
$var wire 1 5! datobin[4]~_emulated_q $end
$var wire 1 6! datobin[4]~14_combout $end
$var wire 1 7! datobin[5]~11_combout $end
$var wire 1 8! datobin[5]~_emulated_q $end
$var wire 1 9! datobin[5]~10_combout $end
$var wire 1 :! datobin[6]~7_combout $end
$var wire 1 ;! datobin[6]~_emulated_q $end
$var wire 1 <! datobin[6]~6_combout $end
$var wire 1 =! datobin[7]~3_combout $end
$var wire 1 >! datobin[7]~_emulated_q $end
$var wire 1 ?! datobin[7]~2_combout $end
$var wire 1 @! LessThan0~0_combout $end
$var wire 1 A! bcd[0]~0_combout $end
$var wire 1 B! datobcd~2_combout $end
$var wire 1 C! datobcd~3_combout $end
$var wire 1 D! datobcd~4_combout $end
$var wire 1 E! datobcd~0_combout $end
$var wire 1 F! datobcd~1_combout $end
$var wire 1 G! Add0~0_combout $end
$var wire 1 H! datobcd~5_combout $end
$var wire 1 I! datobcd~9_combout $end
$var wire 1 J! datobcd~7_combout $end
$var wire 1 K! datobcd~8_combout $end
$var wire 1 L! LessThan2~0_combout $end
$var wire 1 M! datobcd~6_combout $end
$var wire 1 N! bcd[7]~feeder_combout $end
$var wire 1 O! datobcd~10_combout $end
$var wire 1 P! LessThan3~0_combout $end
$var wire 1 Q! datobcd~13_combout $end
$var wire 1 R! datobcd~14_combout $end
$var wire 1 S! datobcd[10]~feeder_combout $end
$var wire 1 T! datobcd~11_combout $end
$var wire 1 U! datobcd~12_combout $end
$var wire 1 V! sietesal~0_combout $end
$var wire 1 W! sietesal~1_combout $end
$var wire 1 X! sietesal~2_combout $end
$var wire 1 Y! sietesal~3_combout $end
$var wire 1 Z! sietesal~4_combout $end
$var wire 1 [! sietesal~5_combout $end
$var wire 1 \! sietesal~6_combout $end
$var wire 1 ]! salida7d~26_combout $end
$var wire 1 ^! salida7d~23_combout $end
$var wire 1 _! salida7d~25_combout $end
$var wire 1 `! salida7d~24_combout $end
$var wire 1 a! salida7d~27_combout $end
$var wire 1 b! salida7d~28_combout $end
$var wire 1 c! salida7d~29_combout $end
$var wire 1 d! sietesal~7_combout $end
$var wire 1 e! Equal0~0_combout $end
$var wire 1 f! Equal0~0clkctrl_outclk $end
$var wire 1 g! salida7c[0]$latch~combout $end
$var wire 1 h! sietesal~8_combout $end
$var wire 1 i! salida7c[1]$latch~combout $end
$var wire 1 j! sietesal~9_combout $end
$var wire 1 k! salida7c[2]$latch~combout $end
$var wire 1 l! sietesal~10_combout $end
$var wire 1 m! salida7c[3]$latch~combout $end
$var wire 1 n! sietesal~11_combout $end
$var wire 1 o! salida7c[4]$latch~combout $end
$var wire 1 p! sietesal~12_combout $end
$var wire 1 q! salida7c[5]$latch~combout $end
$var wire 1 r! sietesal~13_combout $end
$var wire 1 s! salida7c[6]$latch~combout $end
$var wire 1 t! datobcd [11] $end
$var wire 1 u! datobcd [10] $end
$var wire 1 v! datobcd [9] $end
$var wire 1 w! datobcd [8] $end
$var wire 1 x! datobcd [7] $end
$var wire 1 y! datobcd [6] $end
$var wire 1 z! datobcd [5] $end
$var wire 1 {! datobcd [4] $end
$var wire 1 |! datobcd [3] $end
$var wire 1 }! datobcd [2] $end
$var wire 1 ~! datobcd [1] $end
$var wire 1 !" datobcd [0] $end
$var wire 1 "" i [2] $end
$var wire 1 #" i [1] $end
$var wire 1 $" i [0] $end
$var wire 1 %" bcd [11] $end
$var wire 1 &" bcd [10] $end
$var wire 1 '" bcd [9] $end
$var wire 1 (" bcd [8] $end
$var wire 1 )" bcd [7] $end
$var wire 1 *" bcd [6] $end
$var wire 1 +" bcd [5] $end
$var wire 1 ," bcd [4] $end
$var wire 1 -" bcd [3] $end
$var wire 1 ." bcd [2] $end
$var wire 1 /" bcd [1] $end
$var wire 1 0" bcd [0] $end
$upscope $end
$upscope $end
$enddefinitions $end
#0
$dumpvars
b10111001 !
0"
0#
0/
0.
0-
0,
0+
0*
0)
0(
0'
0&
0%
0$
00
x7
x6
x5
x4
x3
x2
x1
1>
1=
1<
1;
1:
19
18
0E
0D
0C
0B
0A
0@
1?
0F
1G
xH
1I
1J
1K
0L
0M
0N
0O
0P
0Q
0R
0S
0T
0U
0V
0W
0X
0Y
0Z
0[
0\
0]
0^
1_
1`
1a
1b
1c
1d
1e
1f
xg
xh
xi
xj
xk
xl
xm
0n
0o
1p
0q
0r
0s
0t
0u
0v
1w
1x
0y
0z
1{
1|
1}
0~
0!!
0"!
0#!
1$!
1%!
0&!
1'!
1(!
0)!
0*!
0+!
0,!
0-!
1.!
1/!
10!
01!
12!
13!
04!
05!
16!
07!
08!
19!
1:!
0;!
0<!
1=!
0>!
1?!
1@!
0A!
0B!
0C!
0D!
0E!
1F!
0G!
0H!
0I!
0J!
0K!
1L!
0M!
0N!
0O!
0P!
0Q!
0R!
0S!
0T!
0U!
0V!
0W!
1X!
0Y!
0Z!
0[!
1\!
1]!
0^!
1_!
0`!
1a!
1b!
1c!
0d!
1e!
1f!
xg!
0h!
xi!
1j!
xk!
0l!
xm!
0n!
xo!
1p!
xq!
1r!
xs!
0!"
0~!
0}!
0|!
0{!
0z!
0y!
0x!
0w!
0v!
0u!
zt!
0$"
0#"
0""
00"
0/"
0."
0-"
0,"
0+"
0*"
0)"
0("
0'"
0&"
0%"
$end
#2500
1#
1n
1o
#5000
0#
0n
0o
#7500
1#
1n
1o
#10000
0#
0n
0o
#12500
1#
1n
1o
#15000
0#
0n
0o
#17500
1#
1n
1o
#20000
0#
0n
0o
#22500
1#
1n
1o
#25000
0#
0n
0o
#27500
1#
1n
1o
#30000
0#
0n
0o
#32500
1#
1n
1o
#35000
0#
0n
0o
#37500
1#
1n
1o
#40000
1"
0#
1q
1r
0n
0o
#42500
1#
1n
1o
1!"
1>!
1;!
11!
1)!
1&!
1$"
0?!
1<!
02!
1*!
0'!
1B!
1s
0p
0F!
0=!
14!
1+!
0(!
#45000
0#
0n
0o
#47500
1#
1n
1o
0!"
1~!
0>!
15!
1,!
0)!
1#"
0$"
1C!
1?!
06!
1-!
0*!
0B!
1p
1G!
1E!
0C!
1D!
1F!
17!
00!
0+!
1H!
0F!
0D!
#50000
0#
0n
0o
#52500
1#
1n
1o
1|!
0~!
18!
01!
0,!
1$"
0G!
0E!
09!
12!
0-!
1M!
1t
0s
0p
0H!
1F!
0:!
04!
10!
#55000
0#
0n
0o
#57500
1#
1n
1o
1{!
0|!
1!"
0;!
05!
11!
1""
0#"
0$"
0<!
16!
02!
1K!
0M!
1B!
1p
1=!
07!
14!
#60000
0#
0n
0o
#62500
1#
1n
1o
0{!
1z!
1~!
1>!
08!
15!
1$"
1G!
1E!
0?!
19!
06!
0K!
1I!
1s
0p
1H!
0B!
1:!
17!
#65000
0#
0n
0o
#67500
1#
1n
1o
0z!
1y!
1|!
0~!
1;!
18!
1#"
0$"
1J!
0G!
0E!
1<!
09!
0I!
1O!
1N!
1p
1I!
0H!
0F!
1B!
0=!
0:!
#70000
0#
0n
0o
#72500
1#
1n
1o
1x!
0|!
0!"
1~!
0>!
0;!
1$"
1P!
1C!
1?!
0<!
0@!
1U!
1M!
1K!
0I!
0B!
1u
1G!
1E!
0C!
0J!
1A!
1D!
1F!
1=!
0M!
0K!
#75000
0#
0n
0o
#77500
1#
1n
1o
1w!
0y!
1!"
1}!
0~!
1>!
1("
1)"
1."
10"
1v
1L
1M
1O
1T
1U
0?!
1n!
1l!
0e!
1d!
1`!
1^!
0A!
1'
1(
1-
1/
10
0f!
1Q!
0O!
0N!
1B!
1H!
0D!
0c!
0b!
0a!
0_!
0]!
0\!
1Z!
1W!
1Z
1]
0_
0`
0b
0d
0e
0f
0a
0c
0;
0=
08
09
0:
0<
0>
0?
1A
1D
0F!
1o!
1m!
1g!
1s!
1q!
0k!
0i!
0h
0i
1l
1m
1g
1j
1k
13
14
17
11
12
05
06
#80000
0#
0n
0o
#82500
1#
1n
1o
#85000
0#
0n
0o
#87500
1#
1n
1o
#90000
0#
0n
0o
#92500
1#
1n
1o
#95000
0#
0n
0o
#97500
1#
1n
1o
#100000
0#
0n
0o
#102500
1#
1n
1o
#105000
0#
0n
0o
#107500
1#
1n
1o
#110000
0#
0n
0o
#112500
1#
1n
1o
#115000
0#
0n
0o
#117500
1#
1n
1o
#120000
0#
0n
0o
#122500
1#
1n
1o
#125000
0#
0n
0o
#127500
1#
1n
1o
#130000
0#
0n
0o
#132500
1#
1n
1o
#135000
0#
0n
0o
#137500
1#
1n
1o
#140000
0#
0n
0o
#142500
1#
1n
1o
#145000
0#
0n
0o
#147500
1#
1n
1o
#150000
0#
0n
0o
#152500
1#
1n
1o
#155000
0#
0n
0o
#157500
1#
1n
1o
#160000
0#
0n
0o
#162500
1#
1n
1o
#165000
0#
0n
0o
#167500
1#
1n
1o
#170000
0#
0n
0o
#172500
1#
1n
1o
#175000
0#
0n
0o
#177500
1#
1n
1o
#180000
0#
0n
0o
#182500
1#
1n
1o
#185000
0#
0n
0o
#187500
1#
1n
1o
#190000
0#
0n
0o
#192500
1#
1n
1o
#195000
0#
0n
0o
#197500
1#
1n
1o
#200000
0#
0n
0o
#202500
1#
1n
1o
#205000
0#
0n
0o
#207500
1#
1n
1o
#210000
0#
0n
0o
#212500
1#
1n
1o
#215000
0#
0n
0o
#217500
1#
1n
1o
#220000
0#
0n
0o
#222500
1#
1n
1o
#225000
0#
0n
0o
#227500
1#
1n
1o
#230000
0#
0n
0o
#232500
1#
1n
1o
#235000
0#
0n
0o
#237500
1#
1n
1o
#240000
0#
0n
0o
#242500
1#
1n
1o
#245000
0#
0n
0o
#247500
1#
1n
1o
#250000
0#
0n
0o
#252500
1#
1n
1o
#255000
0#
0n
0o
#257500
1#
1n
1o
#260000
0#
0n
0o
#262500
1#
1n
1o
#265000
0#
0n
0o
#267500
1#
1n
1o
#270000
0#
0n
0o
#272500
1#
1n
1o
#275000
0#
0n
0o
#277500
1#
1n
1o
#280000
0#
0n
0o
#282500
1#
1n
1o
#285000
0#
0n
0o
#287500
1#
1n
1o
#290000
b10011001 !
b10001001 !
b10000001 !
b10000101 !
b10000111 !
0#
1"!
1~
0.!
0}
0{
0n
0o
#292500
1#
1n
1o
#295000
0#
0n
0o
#297500
1#
1n
1o
#300000
0#
0n
0o
#302500
1#
1n
1o
#305000
0#
0n
0o
#307500
1#
1n
1o
#310000
0"
0#
0q
0r
0n
0o
1?!
1-!
1*!
1'!
03!
0/!
1#!
1!!
0|
1F!
04!
07!
0$"
0#"
0""
0&!
01!
05!
08!
0>!
0}!
0!"
0x!
0w!
0v
0L
1@!
0G!
0E!
0P!
00
0u
0t
0s
0H!
0B!
0U!
0Q!
#312500
1#
1n
1o
#315000
0#
0n
0o
#317500
1#
1n
1o
#320000
0#
0n
0o
#322500
1#
1n
1o
#325000
0#
0n
0o
#327500
1#
1n
1o
#330000
1"
0#
1q
1r
0n
0o
#332500
1#
1n
1o
1!"
1>!
11!
1&!
1$"
0?!
12!
0'!
1B!
1s
0p
0F!
14!
1(!
#335000
0#
0n
0o
#337500
1#
1n
1o
0!"
1~!
15!
1)!
1#"
0$"
1C!
16!
0*!
0B!
1p
1D!
17!
1+!
#340000
0#
0n
0o
#342500
1#
1n
1o
1}!
0~!
18!
1,!
1$"
1G!
1E!
19!
0-!
1H!
0D!
1t
0s
0p
1F!
1B!
1:!
00!
#345000
0#
0n
0o
#347500
1#
1n
1o
1|!
1!"
0}!
1~!
1;!
01!
1""
0#"
0$"
0C!
1<!
02!
1M!
0B!
1D!
1p
0D!
0=!
04!
#350000
0#
0n
0o
#352500
1#
1n
1o
1{!
0~!
0>!
05!
1$"
0G!
0E!
1?!
06!
1K!
1s
0p
0H!
1B!
07!
#355000
0#
0n
0o
#357500
1#
1n
1o
1z!
0|!
1~!
08!
1#"
0$"
0L!
1G!
1E!
09!
1I!
0M!
1p
1J!
1O!
1M!
1H!
0F!
0:!
0K!
0I!
#360000
0#
0n
0o
#362500
1#
1n
1o
1x!
0z!
1|!
0!"
0;!
1$"
1P!
1L!
0<!
0@!
1U!
1I!
0M!
1K!
0B!
1u
0J!
1A!
0O!
1M!
1=!
0H!
1F!
1D!
0I!
#365000
0#
0n
0o
#367500
1#
1n
1o
1w!
0x!
1z!
0|!
1!"
1}!
0~!
1>!
0)"
1+"
1,"
1v
1L
1Q
1R
0T
0L!
0?!
0A!
0(
1*
1+
10
1Q!
0U!
1I!
0M!
1B!
1H!
0D!
1b!
1a!
1d
1e
19
1:
0F!
#370000
0#
0n
0o
#372500
1#
1n
1o
#375000
0#
0n
0o
#377500
1#
1n
1o
#380000
0#
0n
0o
#382500
1#
1n
1o
#385000
0#
0n
0o
#387500
1#
1n
1o
#390000
0#
0n
0o
#392500
1#
1n
1o
#395000
0#
0n
0o
#397500
1#
1n
1o
#400000
0#
0n
0o
#402500
1#
1n
1o
#405000
0#
0n
0o
#407500
1#
1n
1o
#410000
0#
0n
0o
#412500
1#
1n
1o
#415000
0#
0n
0o
#417500
1#
1n
1o
#420000
0#
0n
0o
#422500
1#
1n
1o
#425000
0#
0n
0o
#427500
1#
1n
1o
#430000
0#
0n
0o
#432500
1#
1n
1o
#435000
0#
0n
0o
#437500
1#
1n
1o
#440000
0#
0n
0o
#442500
1#
1n
1o
#445000
0#
0n
0o
#447500
1#
1n
1o
#450000
0#
0n
0o
#452500
1#
1n
1o
#455000
0#
0n
0o
#457500
1#
1n
1o
#460000
0#
0n
0o
#462500
1#
1n
1o
#465000
0#
0n
0o
#467500
1#
1n
1o
#470000
0#
0n
0o
#472500
1#
1n
1o
#475000
0#
0n
0o
#477500
1#
1n
1o
#480000
0#
0n
0o
#482500
1#
1n
1o
#485000
0#
0n
0o
#487500
1#
1n
1o
#490000
0#
0n
0o
#492500
1#
1n
1o
#495000
0#
0n
0o
#497500
1#
1n
1o
#500000
0#
0n
0o
#502500
1#
1n
1o
#505000
0#
0n
0o
#507500
1#
1n
1o
#510000
0#
0n
0o
#512500
1#
1n
1o
#515000
0#
0n
0o
#517500
1#
1n
1o
#520000
0#
0n
0o
#522500
1#
1n
1o
#525000
0#
0n
0o
#527500
1#
1n
1o
#530000
0#
0n
0o
#532500
1#
1n
1o
#535000
0#
0n
0o
#537500
1#
1n
1o
#540000
0#
0n
0o
#542500
1#
1n
1o
#545000
0#
0n
0o
#547500
1#
1n
1o
#550000
0#
0n
0o
#552500
1#
1n
1o
#555000
0#
0n
0o
#557500
1#
1n
1o
#560000
0#
0n
0o
#562500
1#
1n
1o
#565000
0#
0n
0o
#567500
1#
1n
1o
#570000
0#
0n
0o
#572500
1#
1n
1o
#575000
0#
0n
0o
#577500
1#
1n
1o
#580000
0#
0n
0o
#582500
1#
1n
1o
#585000
0#
0n
0o
#587500
1#
1n
1o
#590000
0#
0n
0o
#592500
1#
1n
1o
#595000
0#
0n
0o
#597500
1#
1n
1o
#600000
b111 !
b100111 !
b100101 !
0#
0"!
1{
0w
0n
0o
#602500
1#
1n
1o
#605000
0#
0n
0o
#607500
1#
1n
1o
#610000
0#
0n
0o
#612500
1#
1n
1o
#615000
0#
0n
0o
#617500
1#
1n
1o
#620000
0#
0n
0o
#622500
1#
1n
1o
#625000
0#
0n
0o
#627500
1#
1n
1o
#630000
0#
0n
0o
#632500
1#
1n
1o
#635000
0#
0n
0o
#637500
1#
1n
1o
#640000
0#
0n
0o
#642500
1#
1n
1o
#645000
0#
0n
0o
#647500
1#
1n
1o
#650000
0#
0n
0o
#652500
1#
1n
1o
#655000
0#
0n
0o
#657500
1#
1n
1o
#660000
0"
0#
0q
0r
0n
0o
19!
1-!
1'!
0#!
1|
0x
1:!
10!
17!
0=!
0$"
0#"
0""
0&!
0)!
0,!
0>!
0}!
0!"
0z!
0{!
0w!
0v
0L
1@!
0G!
0E!
1C!
1L!
0P!
00
0u
0t
0s
0H!
0B!
0I!
0K!
0Q!
#662500
1#
1n
1o
#665000
0#
0n
0o
#667500
1#
1n
1o
#670000
0#
0n
0o
#672500
1#
1n
1o
#675000
0#
0n
0o
#677500
1#
1n
1o
#680000
1"
0#
1q
1r
0n
0o
#682500
1#
1n
1o
1;!
18!
11!
1,!
1)!
1&!
1$"
1<!
09!
12!
0-!
1*!
0'!
1s
0p
1=!
0:!
14!
00!
0+!
0(!
#685000
0#
0n
0o
#687500
1#
1n
1o
1>!
0;!
15!
01!
0,!
0)!
1#"
0$"
1?!
0<!
16!
02!
1-!
0*!
1p
0C!
1F!
0=!
07!
04!
10!
1+!
#690000
0#
0n
0o
#692500
1#
1n
1o
1!"
0>!
08!
05!
11!
1,!
1$"
0?!
19!
06!
12!
0-!
1B!
1t
0s
0p
0F!
1:!
17!
14!
00!
#695000
0#
0n
0o
#697500
1#
1n
1o
0!"
1~!
1;!
18!
15!
01!
1""
0#"
0$"
1C!
1<!
09!
16!
02!
0B!
1p
1D!
1=!
0:!
07!
04!
#700000
0#
0n
0o
#702500
1#
1n
1o
1}!
0~!
1>!
0;!
08!
05!
1$"
1G!
1E!
1?!
0<!
19!
06!
1H!
0D!
1s
0p
0C!
0=!
1:!
17!
1D!
#705000
0#
0n
0o
#707500
1#
1n
1o
1|!
0>!
1;!
18!
1#"
0$"
0?!
1<!
09!
1M!
1p
1C!
1F!
1B!
1=!
0:!
0D!
#710000
0#
0n
0o
#712500
1#
1n
1o
1{!
1!"
0}!
1~!
1>!
0;!
1$"
0C!
1?!
0<!
0@!
1K!
0B!
1D!
1u
1A!
1B!
0=!
0H!
#715000
0#
0n
0o
#717500
1#
1n
1o
1z!
0|!
1}!
0>!
0("
1/"
1v
1L
1N
0U
0L!
0G!
0?!
0n!
0l!
1e!
0d!
0A!
0'
1.
10
1f!
1I!
0M!
1H!
1\!
1[!
1Y!
0W!
0Z
1\
1^
1_
1?
1@
1B
0D
0F!
#720000
0#
0n
0o
#722500
1#
1n
1o
#725000
0#
0n
0o
#727500
1#
1n
1o
#730000
0#
0n
0o
#732500
1#
1n
1o
#735000
0#
0n
0o
#737500
1#
1n
1o
#740000
0#
0n
0o
#742500
1#
1n
1o
#745000
0#
0n
0o
#747500
1#
1n
1o
#750000
0#
0n
0o
#752500
1#
1n
1o
#755000
0#
0n
0o
#757500
1#
1n
1o
#760000
0#
0n
0o
#762500
1#
1n
1o
#765000
0#
0n
0o
#767500
1#
1n
1o
#770000
0#
0n
0o
#772500
1#
1n
1o
#775000
0#
0n
0o
#777500
1#
1n
1o
#780000
0#
0n
0o
#782500
1#
1n
1o
#785000
0#
0n
0o
#787500
1#
1n
1o
#790000
0#
0n
0o
#792500
1#
1n
1o
#795000
0#
0n
0o
#797500
1#
1n
1o
#800000
0#
0n
0o
#802500
1#
1n
1o
#805000
0#
0n
0o
#807500
1#
1n
1o
#810000
0#
0n
0o
#812500
1#
1n
1o
#815000
0#
0n
0o
#817500
1#
1n
1o
#820000
0#
0n
0o
#822500
1#
1n
1o
#825000
0#
0n
0o
#827500
1#
1n
1o
#830000
0#
0n
0o
#832500
1#
1n
1o
#835000
0#
0n
0o
#837500
1#
1n
1o
#840000
0#
0n
0o
#842500
1#
1n
1o
#845000
0#
0n
0o
#847500
1#
1n
1o
#850000
0#
0n
0o
#852500
1#
1n
1o
#855000
0#
0n
0o
#857500
1#
1n
1o
#860000
0#
0n
0o
#862500
1#
1n
1o
#865000
0#
0n
0o
#867500
1#
1n
1o
#870000
0#
0n
0o
#872500
1#
1n
1o
#875000
0#
0n
0o
#877500
1#
1n
1o
#880000
0#
0n
0o
#882500
1#
1n
1o
#885000
0#
0n
0o
#887500
1#
1n
1o
#890000
0#
0n
0o
#892500
1#
1n
1o
#895000
0#
0n
0o
#897500
1#
1n
1o
#900000
0#
0n
0o
#902500
1#
1n
1o
#905000
0#
0n
0o
#907500
1#
1n
1o
#910000
0#
0n
0o
#912500
1#
1n
1o
#915000
0#
0n
0o
#917500
1#
1n
1o
#920000
0#
0n
0o
#922500
1#
1n
1o
#925000
0#
0n
0o
#927500
1#
1n
1o
#930000
0#
0n
0o
#932500
1#
1n
1o
#935000
0#
0n
0o
#937500
1#
1n
1o
#940000
0#
0n
0o
#942500
1#
1n
1o
#945000
0#
0n
0o
#947500
1#
1n
1o
#950000
0#
0n
0o
#952500
1#
1n
1o
#955000
0#
0n
0o
#957500
1#
1n
1o
#960000
0#
0n
0o
#962500
1#
1n
1o
#965000
0#
0n
0o
#967500
1#
1n
1o
#970000
0#
0n
0o
#972500
1#
1n
1o
#975000
0#
0n
0o
#977500
1#
1n
1o
#980000
0#
0n
0o
#982500
1#
1n
1o
#985000
0#
0n
0o
#987500
1#
1n
1o
#990000
0#
0n
0o
#992500
1#
1n
1o
#995000
0#
0n
0o
#997500
1#
1n
1o
