VHDL/HW3/ej5/ej5c/simulation/qsim/ej5c.msim.vcd
$comment
	File created using the following command:
		vcd file ej5c.msim.vcd -direction
$end
$date
	Sat May  1 21:12:14 2021
$end
$version
	ModelSim Version 2020.1
$end
$timescale
	1ps
$end

$scope module ej5c_vlg_vec_tst $end
$var reg 8 ! a [7:0] $end
$var wire 1 " s [2] $end
$var wire 1 # s [1] $end
$var wire 1 $ s [0] $end

$scope module i1 $end
$var wire 1 % gnd $end
$var wire 1 & vcc $end
$var wire 1 ' unknown $end
$var tri1 1 ( devclrn $end
$var tri1 1 ) devpor $end
$var tri1 1 * devoe $end
$var wire 1 + s[0]~output_o $end
$var wire 1 , s[1]~output_o $end
$var wire 1 - s[2]~output_o $end
$var wire 1 . a[4]~input_o $end
$var wire 1 / a[5]~input_o $end
$var wire 1 0 a[7]~input_o $end
$var wire 1 1 a[6]~input_o $end
$var wire 1 2 comb~4_combout $end
$var wire 1 3 a[3]~input_o $end
$var wire 1 4 a[2]~input_o $end
$var wire 1 5 a[1]~input_o $end
$var wire 1 6 v[0]~2_combout $end
$var wire 1 7 v[0]~3_combout $end
$var wire 1 8 a[0]~input_o $end
$var wire 1 9 v[2]~0_combout $end
$var wire 1 : comb~8_combout $end
$var wire 1 ; comb~9_combout $end
$var wire 1 < v[1]~4_combout $end
$var wire 1 = v[2]~1_combout $end
$var wire 1 > comb~6_combout $end
$var wire 1 ? comb~5_combout $end
$var wire 1 @ comb~7_combout $end
$var wire 1 A v [2] $end
$var wire 1 B v [1] $end
$var wire 1 C v [0] $end
$upscope $end
$upscope $end
$enddefinitions $end
#0
$dumpvars
b0 !
x$
x#
x"
0%
1&
x'
1(
1)
1*
x+
x,
x-
0.
0/
00
01
12
03
04
05
06
07
08
09
0:
0;
0<
0=
0>
0?
0@
xC
xB
xA
$end
#25000
b1 !
18
19
1@
1=
1:
1?
0A
0C
0+
0-
0"
0$
0B
0,
0#
#50000
b11 !
b10 !
08
15
16
17
1;
0:
1C
1+
1$
#75000
b110 !
b111 !
18
14
1<
06
0?
1>
07
0;
1:
1B
1,
1#
0C
0+
0$
#100000
b1111 !
b1101 !
b1100 !
08
05
13
16
17
1;
0:
1C
1+
1$
#125000
b11100 !
b11101 !
18
1.
0<
06
02
1?
0>
07
0@
0;
1:
0B
1A
1-
0,
0#
1"
0C
0+
0$
#150000
b111101 !
b111001 !
b111011 !
b111010 !
08
15
04
1/
17
1;
0:
1C
1+
1$
#175000
b1111010 !
b1111011 !
18
11
0?
1>
07
0;
1:
1B
1,
1#
0C
0+
0$
#200000
b11111011 !
b11110011 !
b11110001 !
b11110000 !
08
05
03
10
09
17
1;
0:
1C
1+
1$
#225000
b11110100 !
b11110101 !
18
14
19
#250000
b11100101 !
b11100111 !
b11100110 !
08
15
0.
#275000
b11100111 !
18
#300000
b11000111 !
b11001111 !
b11001011 !
b11001001 !
b11001000 !
08
05
04
13
0/
16
1<
#325000
b11001001 !
18
#350000
b10001001 !
b10001011 !
b10001010 !
08
15
01
#375000
b10011010 !
b10011110 !
b10011111 !
18
14
1.
0<
06
#400000
b11111 !
b10111 !
b10101 !
b10100 !
08
05
03
00
1?
0>
07
0;
1:
0B
0,
0#
0C
0+
0$
#425000
b10101 !
18
#450000
b110101 !
b110001 !
b110011 !
b110010 !
08
15
04
1/
17
1;
0:
1C
1+
1$
#475000
b110011 !
18
#500000
b100011 !
b101011 !
b101001 !
b101000 !
08
05
13
0.
16
#525000
b1101000 !
b1101100 !
b1101101 !
18
14
11
0?
1>
07
0;
1:
1B
1,
1#
0C
0+
0$
#550000
b1101111 !
b1101110 !
08
15
#575000
b1101111 !
18
#600000
b11101111 !
b11001111 !
b11000111 !
b11000011 !
b11000001 !
b11000000 !
08
05
04
03
0/
10
09
06
17
1;
0:
1C
1+
1$
#625000
b11010000 !
b11010001 !
18
1.
19
#650000
b11010011 !
b11010010 !
08
15
#675000
b11010110 !
b11010111 !
18
14
#700000
b10010111 !
b10011111 !
b10011101 !
b10011100 !
08
05
13
01
#725000
b10011101 !
18
#750000
b10111101 !
b10101101 !
b10101001 !
b10101011 !
b10101010 !
08
15
04
0.
1/
16
#775000
b10101011 !
18
#800000
b101011 !
b100011 !
b100001 !
b100000 !
08
05
03
00
09
06
1?
0>
0B
0,
0#
#825000
b100100 !
b100101 !
18
14
19
#850000
b100111 !
b100110 !
08
15
#875000
b1100110 !
b1110110 !
b1110111 !
18
1.
11
0?
1>
07
0;
1:
1B
1,
1#
0C
0+
0$
#900000
b1010111 !
b1011111 !
b1011011 !
b1011001 !
b1011000 !
08
05
04
13
0/
#925000
b1011001 !
18
#950000
b1011011 !
b1011010 !
08
15
#975000
b1011110 !
b1011111 !
18
14
