VHDL/HW2/ej2/simulation/qsim/ej2.msim.vcd
$comment
	File created using the following command:
		vcd file ej2.msim.vcd -direction
$end
$date
	Wed Apr 21 12:29:08 2021
$end
$version
	ModelSim Version 2020.1
$end
$timescale
	1ps
$end

$scope module ej2_vlg_vec_tst $end
$var reg 8 ! op1 [7:0] $end
$var reg 8 " op2 [7:0] $end
$var wire 1 # result [31] $end
$var wire 1 $ result [30] $end
$var wire 1 % result [29] $end
$var wire 1 & result [28] $end
$var wire 1 ' result [27] $end
$var wire 1 ( result [26] $end
$var wire 1 ) result [25] $end
$var wire 1 * result [24] $end
$var wire 1 + result [23] $end
$var wire 1 , result [22] $end
$var wire 1 - result [21] $end
$var wire 1 . result [20] $end
$var wire 1 / result [19] $end
$var wire 1 0 result [18] $end
$var wire 1 1 result [17] $end
$var wire 1 2 result [16] $end
$var wire 1 3 result [15] $end
$var wire 1 4 result [14] $end
$var wire 1 5 result [13] $end
$var wire 1 6 result [12] $end
$var wire 1 7 result [11] $end
$var wire 1 8 result [10] $end
$var wire 1 9 result [9] $end
$var wire 1 : result [8] $end
$var wire 1 ; result [7] $end
$var wire 1 < result [6] $end
$var wire 1 = result [5] $end
$var wire 1 > result [4] $end
$var wire 1 ? result [3] $end
$var wire 1 @ result [2] $end
$var wire 1 A result [1] $end
$var wire 1 B result [0] $end

$scope module i1 $end
$var wire 1 C gnd $end
$var wire 1 D vcc $end
$var wire 1 E unknown $end
$var tri1 1 F devclrn $end
$var tri1 1 G devpor $end
$var tri1 1 H devoe $end
$var wire 1 I result[0]~output_o $end
$var wire 1 J result[1]~output_o $end
$var wire 1 K result[2]~output_o $end
$var wire 1 L result[3]~output_o $end
$var wire 1 M result[4]~output_o $end
$var wire 1 N result[5]~output_o $end
$var wire 1 O result[6]~output_o $end
$var wire 1 P result[7]~output_o $end
$var wire 1 Q result[8]~output_o $end
$var wire 1 R result[9]~output_o $end
$var wire 1 S result[10]~output_o $end
$var wire 1 T result[11]~output_o $end
$var wire 1 U result[12]~output_o $end
$var wire 1 V result[13]~output_o $end
$var wire 1 W result[14]~output_o $end
$var wire 1 X result[15]~output_o $end
$var wire 1 Y result[16]~output_o $end
$var wire 1 Z result[17]~output_o $end
$var wire 1 [ result[18]~output_o $end
$var wire 1 \ result[19]~output_o $end
$var wire 1 ] result[20]~output_o $end
$var wire 1 ^ result[21]~output_o $end
$var wire 1 _ result[22]~output_o $end
$var wire 1 ` result[23]~output_o $end
$var wire 1 a result[24]~output_o $end
$var wire 1 b result[25]~output_o $end
$var wire 1 c result[26]~output_o $end
$var wire 1 d result[27]~output_o $end
$var wire 1 e result[28]~output_o $end
$var wire 1 f result[29]~output_o $end
$var wire 1 g result[30]~output_o $end
$var wire 1 h result[31]~output_o $end
$var wire 1 i op2[0]~input_o $end
$var wire 1 j op1[0]~input_o $end
$var wire 1 k Add0~0_combout $end
$var wire 1 l op1[1]~input_o $end
$var wire 1 m op2[1]~input_o $end
$var wire 1 n Add0~1 $end
$var wire 1 o Add0~2_combout $end
$var wire 1 p op2[2]~input_o $end
$var wire 1 q op1[2]~input_o $end
$var wire 1 r Add0~3 $end
$var wire 1 s Add0~4_combout $end
$var wire 1 t op1[3]~input_o $end
$var wire 1 u op2[3]~input_o $end
$var wire 1 v Add0~5 $end
$var wire 1 w Add0~6_combout $end
$var wire 1 x op2[4]~input_o $end
$var wire 1 y op1[4]~input_o $end
$var wire 1 z Add0~7 $end
$var wire 1 { Add0~8_combout $end
$var wire 1 | op1[5]~input_o $end
$var wire 1 } op2[5]~input_o $end
$var wire 1 ~ Add0~9 $end
$var wire 1 !! Add0~10_combout $end
$var wire 1 "! op2[6]~input_o $end
$var wire 1 #! op1[6]~input_o $end
$var wire 1 $! Add0~11 $end
$var wire 1 %! Add0~12_combout $end
$var wire 1 &! op2[7]~input_o $end
$var wire 1 '! op1[7]~input_o $end
$var wire 1 (! Add0~13 $end
$var wire 1 )! Add0~14_combout $end
$upscope $end
$upscope $end
$enddefinitions $end
#0
$dumpvars
b0 !
b0 "
xB
xA
x@
x?
x>
x=
x<
x;
0:
09
08
07
06
05
04
03
02
01
00
0/
0.
0-
0,
0+
0*
0)
0(
0'
0&
0%
0$
0#
0C
1D
xE
1F
1G
1H
xI
xJ
xK
xL
xM
xN
xO
xP
0Q
0R
0S
0T
0U
0V
0W
0X
0Y
0Z
0[
0\
0]
0^
0_
0`
0a
0b
0c
0d
0e
0f
0g
0h
0i
0j
xk
0l
0m
xn
xo
0p
0q
xr
xs
0t
0u
xv
xw
0x
0y
xz
x{
0|
0}
x~
x!!
0"!
0#!
x$!
x%!
0&!
0'!
x(!
x)!
$end
#3541
0n
#3639
0v
#3790
0(!
#3829
1$!
#3850
1r
#3966
0~
#3978
0o
#4053
0k
#4056
1z
#4076
0w
#4227
0)!
#4266
0%!
#4287
0s
#4403
0!!
#4493
0{
#7062
0I
0B
#7373
0J
0A
#7460
0L
0?
#7563
0N
0=
#7574
0P
0;
#7638
0K
0@
#7658
0O
0<
#7916
0M
0>
#20000
b1 !
#20514
1j
#23832
1k
#26888
1I
1B
#40000
b11 !
b1 "
b10 !
#40514
1l
1i
#40679
0j
#44063
1o
#47526
1J
1A
#60000
b11 !
#60514
1j
#63857
0k
#63934
1n
#63992
0r
#64371
0o
#64447
1s
#66866
0I
0B
#67766
0J
0A
#67865
1K
1@
#80000
b111 !
b11 "
b101 !
b10 "
b100 !
#80514
1q
1m
#80679
0l
0j
0i
#83825
0s
#83829
1o
#83922
1v
#84220
0n
#84246
1k
#84278
1r
#84336
0v
#84732
0k
#84733
1s
#87292
1J
1A
#100000
b101 !
#100514
1j
#103832
1k
#106888
1I
1B
#120000
b111 !
b11 "
b110 !
#120514
1l
1i
#120679
0j
#124007
0r
#124065
1v
#124068
0o
#124444
0s
#124520
1w
#127463
0J
0A
#127795
0K
0@
#127967
1L
1?
#140000
b111 !
#140514
1j
#143857
0k
#143934
1n
#144389
1o
#146866
0I
0B
#147852
1J
1A
#160000
b1111 !
b111 "
b1011 !
b101 "
b1001 !
b100 "
b1000 !
#160514
1t
#160516
1p
#160679
0q
0l
0j
0m
0i
#163747
0z
#163808
0w
#164202
1{
#164220
0n
#164246
1k
#164529
1r
#164587
0v
#164645
1z
#164657
0o
#164732
0k
#164984
1s
#165042
1w
#165082
0{
#168052
0J
0A
#168402
1K
1@
#180000
b1001 !
#180514
1j
#183832
1k
#186888
1I
1B
#200000
b1011 !
b101 "
b1010 !
#200514
1l
1i
#200679
0j
#204063
1o
#207526
1J
1A
#220000
b1011 !
#220514
1j
#223857
0k
#223934
1n
#223992
0r
#224050
1v
#224108
0z
#224371
0o
#224429
0s
#224487
0w
#224563
1{
#226866
0I
0B
#227766
0J
0A
#227780
0K
0@
#227871
0L
0?
#228056
1M
1>
#240000
b1111 !
b111 "
b1101 !
b110 "
b1100 !
#240514
1q
1m
#240679
0l
0j
0i
#243829
1o
#243831
1s
#244220
0n
#244246
1k
#244278
1r
#244715
0s
#244732
0k
#247292
1J
1A
#260000
b1101 !
#260514
1j
#263832
1k
#266888
1I
1B
#280000
b1111 !
b111 "
b1110 !
#280514
1l
1i
#280679
0j
#284007
0r
#284068
0o
#284462
1s
#287463
0J
0A
#287880
1K
1@
#300000
b1111 !
#300514
1j
#303857
0k
#303934
1n
#304389
1o
#306866
0I
0B
#307852
1J
1A
#320000
b11111 !
b1111 "
b10111 !
b1011 "
b10011 !
b1001 "
b10001 !
b1000 "
b10000 !
#320514
1u
#320516
1y
#320679
0t
0q
0l
0j
0m
0i
#320681
0p
#323904
0{
#324001
1~
#324220
0n
#324246
1k
#324320
0v
#324378
1z
#324436
0~
#324529
1r
#324657
0o
#324732
0k
#324775
1w
#324833
1{
#324966
0s
#328052
0J
0A
#328222
1L
1?
#328317
0K
0@
#340000
b10001 !
#340514
1j
#343832
1k
#346888
1I
1B
#360000
b10011 !
b1001 "
b10010 !
#360514
1l
1i
#360679
0j
#364063
1o
#367526
1J
1A
#380000
b10011 !
#380514
1j
#383857
0k
#383934
1n
#383992
0r
#384371
0o
#384447
1s
#386866
0I
0B
#387766
0J
0A
#387865
1K
1@
#400000
b10111 !
b1011 "
b10101 !
b1010 "
b10100 !
#400514
1q
1m
#400679
0l
0j
0i
#403825
0s
#403829
1o
#403922
1v
#403980
0z
#404038
1~
#404220
0n
#404246
1k
#404278
1r
#404336
0v
#404394
1z
#404452
0~
#404732
0k
#404733
1s
#407292
1J
1A
#420000
b10101 !
#420514
1j
#423832
1k
#426888
1I
1B
#440000
b10111 !
b1011 "
b10110 !
#440514
1l
1i
#440679
0j
#444007
0r
#444065
1v
#444068
0o
#444123
0z
#444181
1~
#444444
0s
#444502
0w
#444560
0{
#444636
1!!
#447463
0J
0A
#447795
0K
0@
#447852
1N
1=
#447886
0L
0?
#447983
0M
0>
#460000
b10111 !
#460514
1j
#463857
0k
#463934
1n
#464389
1o
#466866
0I
0B
#467852
1J
1A
#480000
b11111 !
b1111 "
b11011 !
b1101 "
b11001 !
b1100 "
b11000 !
#480514
1t
#480516
1p
#480679
0q
0l
0j
0m
0i
#483803
1w
#484220
0n
#484246
1k
#484529
1r
#484587
0v
#484657
0o
#484732
0k
#484984
1s
#485024
0w
#488052
0J
0A
#488402
1K
1@
#500000
b11001 !
#500514
1j
#503832
1k
#506888
1I
1B
#520000
b11011 !
b1101 "
b11010 !
#520514
1l
1i
#520679
0j
#524063
1o
#527526
1J
1A
#540000
b11011 !
#540514
1j
#543857
0k
#543934
1n
#543992
0r
#544050
1v
#544371
0o
#544429
0s
#544505
1w
#546866
0I
0B
#547766
0J
0A
#547780
0K
0@
#547952
1L
1?
#560000
b11111 !
b1111 "
b11101 !
b1110 "
b11100 !
#560514
1q
1m
#560679
0l
0j
0i
#563829
1o
#563831
1s
#564220
0n
#564246
1k
#564278
1r
#564715
0s
#564732
0k
#567292
1J
1A
#580000
b11101 !
#580514
1j
#583832
1k
#586888
1I
1B
#600000
b11111 !
b1111 "
b11110 !
#600514
1l
1i
#600679
0j
#604007
0r
#604068
0o
#604462
1s
#607463
0J
0A
#607880
1K
1@
#620000
b11111 !
#620514
1j
#623857
0k
#623934
1n
#624389
1o
#626866
0I
0B
#627852
1J
1A
#640000
b111111 !
b11111 "
b101111 !
b10111 "
b100111 !
b10011 "
b100011 !
b10001 "
b100001 !
b10000 "
b100000 !
#640514
1x
#640516
1|
#640679
0t
0q
0l
0j
0u
0m
0i
#640681
0y
0p
#643940
0$!
#644001
0!!
#644220
0n
#644238
0w
#644246
1k
#644320
0v
#644395
1%!
#644529
1r
#644657
0o
#644732
0k
#644735
1z
#644793
0~
#644851
1$!
#644966
0s
#645190
1{
#645248
1!!
#645288
0%!
#647622
0L
0?
#648052
0J
0A
#648317
0K
0@
#648683
1M
1>
#660000
b100001 !
#660514
1j
#663832
1k
#666888
1I
1B
#680000
b100011 !
b10001 "
b100010 !
#680514
1l
1i
#680679
0j
#684063
1o
#687526
1J
1A
#700000
b100011 !
#700514
1j
#703857
0k
#703934
1n
#703992
0r
#704371
0o
#704447
1s
#706866
0I
0B
#707766
0J
0A
#707865
1K
1@
#720000
b100111 !
b10011 "
b100101 !
b10010 "
b100100 !
#720514
1q
1m
#720679
0l
0j
0i
#723825
0s
#723829
1o
#723922
1v
#724220
0n
#724246
1k
#724278
1r
#724336
0v
#724732
0k
#724733
1s
#727292
1J
1A
#740000
b100101 !
#740514
1j
#743832
1k
#746888
1I
1B
#760000
b100111 !
b10011 "
b100110 !
#760514
1l
1i
#760679
0j
#764007
0r
#764065
1v
#764068
0o
#764444
0s
#764520
1w
#767463
0J
0A
#767795
0K
0@
#767967
1L
1?
#780000
b100111 !
#780514
1j
#783857
0k
#783934
1n
#784389
1o
#786866
0I
0B
#787852
1J
1A
#800000
b101111 !
b10111 "
b101011 !
b10101 "
b101001 !
b10100 "
b101000 !
#800514
1t
#800516
1p
#800679
0q
0l
0j
0m
0i
#803747
0z
#803805
1~
#803808
0w
#803863
0$!
#804184
0{
#804220
0n
#804242
0!!
#804246
1k
#804318
1%!
#804529
1r
#804587
0v
#804645
1z
#804657
0o
#804703
0~
#804732
0k
#804761
1$!
#804984
1s
#805042
1w
#805100
1{
#805158
1!!
#805198
0%!
#808052
0J
0A
#808402
1K
1@
#820000
b101001 !
#820514
1j
#823832
1k
#826888
1I
1B
#840000
b101011 !
b10101 "
b101010 !
#840514
1l
1i
#840679
0j
#844063
1o
#847526
1J
1A
#860000
b101011 !
#860514
1j
#863857
0k
#863934
1n
#863992
0r
#864050
1v
#864108
0z
#864166
1~
#864224
0$!
#864371
0o
#864429
0s
#864487
0w
#864545
0{
#864603
0!!
#864679
1%!
#866866
0I
0B
#867763
0N
0=
#867766
0J
0A
#867780
0K
0@
#867871
0L
0?
#867968
0M
0>
#868142
1O
1<
#880000
b101111 !
b10111 "
b101101 !
b10110 "
b101100 !
#880514
1q
1m
#880679
0l
0j
0i
#883829
1o
#883831
1s
#884220
0n
#884246
1k
#884278
1r
#884715
0s
#884732
0k
#887292
1J
1A
#900000
b101101 !
#900514
1j
#903832
1k
#906888
1I
1B
#920000
b101111 !
b10111 "
b101110 !
#920514
1l
1i
#920679
0j
#924007
0r
#924068
0o
#924462
1s
#927463
0J
0A
#927880
1K
1@
#940000
b101111 !
#940514
1j
#943857
0k
#943934
1n
#944389
1o
#946866
0I
0B
#947852
1J
1A
#960000
b111111 !
b11111 "
b110111 !
b11011 "
b110011 !
b11001 "
b110001 !
b11000 "
b110000 !
#960514
1u
#960516
1y
#960679
0t
0q
0l
0j
0m
0i
#960681
0p
#963910
1{
#964220
0n
#964246
1k
#964320
0v
#964378
1z
#964529
1r
#964657
0o
#964732
0k
#964775
1w
#964815
0{
#964966
0s
#968052
0J
0A
#968222
1L
1?
#968317
0K
0@
#980000
b110001 !
#980514
1j
#983832
1k
#986888
1I
1B
