VHDL/HW3/ej6/ej6c/simulation/qsim/ej6c.msim.vcd
$comment
	File created using the following command:
		vcd file ej6c.msim.vcd -direction
$end
$date
	Mon May  3 10:20:05 2021
$end
$version
	ModelSim Version 2020.1
$end
$timescale
	1ps
$end

$scope module ej6c_vlg_vec_tst $end
$var reg 1 ! areset $end
$var reg 4 " carga [3:0] $end
$var reg 1 # ce $end
$var reg 1 $ clk $end
$var reg 1 % l $end
$var wire 1 & salida [3] $end
$var wire 1 ' salida [2] $end
$var wire 1 ( salida [1] $end
$var wire 1 ) salida [0] $end

$scope module i1 $end
$var wire 1 * gnd $end
$var wire 1 + vcc $end
$var wire 1 , unknown $end
$var tri1 1 - devclrn $end
$var tri1 1 . devpor $end
$var tri1 1 / devoe $end
$var wire 1 0 salida[0]~output_o $end
$var wire 1 1 salida[1]~output_o $end
$var wire 1 2 salida[2]~output_o $end
$var wire 1 3 salida[3]~output_o $end
$var wire 1 4 clk~input_o $end
$var wire 1 5 clk~inputclkctrl_outclk $end
$var wire 1 6 carga[0]~input_o $end
$var wire 1 7 l~input_o $end
$var wire 1 8 cuenta~0_combout $end
$var wire 1 9 areset~input_o $end
$var wire 1 : areset~inputclkctrl_outclk $end
$var wire 1 ; ce~input_o $end
$var wire 1 < cuenta[0]~1_combout $end
$var wire 1 = carga[1]~input_o $end
$var wire 1 > cuenta~2_combout $end
$var wire 1 ? carga[2]~input_o $end
$var wire 1 @ cuenta~3_combout $end
$var wire 1 A cuenta~4_combout $end
$var wire 1 B carga[3]~input_o $end
$var wire 1 C cuenta~5_combout $end
$var wire 1 D cuenta~6_combout $end
$var wire 1 E cuenta [3] $end
$var wire 1 F cuenta [2] $end
$var wire 1 G cuenta [1] $end
$var wire 1 H cuenta [0] $end
$upscope $end
$upscope $end
$enddefinitions $end
#0
$dumpvars
0!
b0 "
0#
0$
0%
0)
0(
0'
0&
0*
1+
x,
1-
1.
1/
00
01
02
03
04
05
06
07
18
09
0:
0;
0<
0=
0>
0?
0@
0A
0B
1C
0D
0H
0G
0F
0E
$end
#12500
1$
14
15
#25000
0$
04
05
#37500
1$
14
15
#50000
0$
04
05
#62500
1$
14
15
#75000
0$
04
05
#87500
1$
14
15
#100000
0$
04
05
#112500
1$
14
15
#125000
0$
04
05
#137500
1$
14
15
#150000
0$
04
05
#162500
1$
14
15
#175000
0$
04
05
#187500
1$
14
15
#200000
0$
04
05
#212500
1$
14
15
#225000
0$
04
05
#237500
1$
14
15
#250000
1#
0$
1;
04
05
1<
#262500
1$
14
15
#275000
0$
04
05
1H
10
1)
1>
08
#287500
1$
14
15
#300000
0$
04
05
0H
1G
11
00
0)
1(
18
#312500
1$
14
15
#325000
0$
04
05
1H
10
1@
1)
0>
08
1A
#337500
1$
14
15
#340000
1!
19
1:
0H
0G
01
00
0@
0)
0(
18
0A
#350000
0$
04
05
#362500
1$
14
15
#375000
0$
04
05
#387500
1$
14
15
#390000
0!
09
0:
#400000
0$
04
05
1H
10
1)
1>
08
#412500
1$
14
15
#425000
0$
04
05
0H
1G
11
00
0)
1(
18
#437500
1$
14
15
#450000
0$
04
05
1H
10
1@
1)
0>
08
1A
#462500
1$
14
15
#475000
0$
04
05
0H
0G
1F
12
01
00
0)
0(
1'
18
#487500
1$
14
15
#500000
0#
0$
0;
04
05
0<
1H
10
0C
1)
1>
08
#512500
1$
14
15
#525000
0$
04
05
#537500
1$
14
15
#550000
0$
04
05
#562500
1$
14
15
#575000
0$
04
05
#587500
1$
14
15
#600000
0$
04
05
#612500
1$
14
15
#625000
0$
04
05
#637500
1$
14
15
#650000
0$
04
05
#662500
1$
14
15
#675000
0$
04
05
#687500
1$
14
15
#700000
0$
04
05
#712500
1$
14
15
#725000
0$
04
05
#737500
1$
14
15
#750000
1#
0$
1;
04
05
1<
#762500
1$
14
15
#775000
0$
04
05
0H
1G
11
00
1C
0)
1(
18
1D
0D
#787500
1$
14
15
#800000
0$
04
05
1H
10
0C
0@
1)
0>
08
1D
0A
#812500
1$
14
15
#825000
0$
04
05
0H
0G
0F
1E
13
02
01
00
1C
0)
0(
0'
1&
18
#837500
1$
14
15
#850000
0$
04
05
1H
10
1)
1>
08
#862500
1$
14
15
#875000
0$
04
05
0H
1G
11
00
0)
1(
18
#887500
1$
14
15
#900000
0$
04
05
1H
10
1@
1)
0>
08
1A
#912500
1$
14
15
#925000
0$
04
05
0H
0G
1F
12
01
00
0)
0(
1'
18
#937500
1$
14
15
#950000
0$
04
05
1H
10
0C
1)
1>
08
#962500
1$
14
15
#975000
0$
04
05
0H
1G
11
00
1C
0)
1(
18
0D
1D
#987500
1$
14
15
