VHDL/HW3/ej6/ej6a/simulation/qsim/ej6a.msim.vcd
$comment
	File created using the following command:
		vcd file ej6a.msim.vcd -direction
$end
$date
	Thu May 13 11:34:22 2021
$end
$version
	ModelSim Version 2020.1
$end
$timescale
	1ps
$end

$scope module ej6a_vhd_vec_tst $end
$var wire 1 ! areset $end
$var wire 1 " clk $end
$var wire 1 # salida [3] $end
$var wire 1 $ salida [2] $end
$var wire 1 % salida [1] $end
$var wire 1 & salida [0] $end

$scope module i1 $end
$var wire 1 ' gnd $end
$var wire 1 ( vcc $end
$var wire 1 ) unknown $end
$var wire 1 * devoe $end
$var wire 1 + devclrn $end
$var wire 1 , devpor $end
$var wire 1 - ww_devoe $end
$var wire 1 . ww_devclrn $end
$var wire 1 / ww_devpor $end
$var wire 1 0 ww_clk $end
$var wire 1 1 ww_areset $end
$var wire 1 2 ww_salida [3] $end
$var wire 1 3 ww_salida [2] $end
$var wire 1 4 ww_salida [1] $end
$var wire 1 5 ww_salida [0] $end
$var wire 1 6 \areset~inputclkctrl_INCLK_bus\ [3] $end
$var wire 1 7 \areset~inputclkctrl_INCLK_bus\ [2] $end
$var wire 1 8 \areset~inputclkctrl_INCLK_bus\ [1] $end
$var wire 1 9 \areset~inputclkctrl_INCLK_bus\ [0] $end
$var wire 1 : \clk~inputclkctrl_INCLK_bus\ [3] $end
$var wire 1 ; \clk~inputclkctrl_INCLK_bus\ [2] $end
$var wire 1 < \clk~inputclkctrl_INCLK_bus\ [1] $end
$var wire 1 = \clk~inputclkctrl_INCLK_bus\ [0] $end
$var wire 1 > \salida[0]~output_o\ $end
$var wire 1 ? \salida[1]~output_o\ $end
$var wire 1 @ \salida[2]~output_o\ $end
$var wire 1 A \salida[3]~output_o\ $end
$var wire 1 B \clk~input_o\ $end
$var wire 1 C \clk~inputclkctrl_outclk\ $end
$var wire 1 D \cuenta[0]~3_combout\ $end
$var wire 1 E \areset~input_o\ $end
$var wire 1 F \areset~inputclkctrl_outclk\ $end
$var wire 1 G \cuenta[1]~0_combout\ $end
$var wire 1 H \cuenta[2]~1_combout\ $end
$var wire 1 I \cuenta[3]~2_combout\ $end
$var wire 1 J cuenta [3] $end
$var wire 1 K cuenta [2] $end
$var wire 1 L cuenta [1] $end
$var wire 1 M cuenta [0] $end
$var wire 1 N \ALT_INV_clk~inputclkctrl_outclk\ $end
$var wire 1 O \ALT_INV_areset~inputclkctrl_outclk\ $end
$upscope $end
$upscope $end
$enddefinitions $end
#0
$dumpvars
0!
0"
0'
1(
x)
1*
1+
1,
1-
1.
1/
00
01
0>
0?
0@
0A
0B
0C
1D
0E
0F
0G
0H
0I
1N
1O
02
03
04
05
0J
0K
0L
0M
1:
1;
1<
0=
16
17
18
09
0#
0$
0%
0&
$end
#12500
1"
10
1B
1=
1C
0N
#25000
0"
00
0B
0=
0C
1N
1M
0D
1G
1>
15
1&
#37500
1"
10
1B
1=
1C
0N
#50000
0"
00
0B
0=
0C
1N
0M
1L
1D
1?
0>
14
05
0&
1%
#62500
1"
10
1B
1=
1C
0N
#75000
0"
00
0B
0=
0C
1N
1M
0D
0G
1H
1>
15
1&
#87500
1"
10
1B
1=
1C
0N
#100000
0"
00
0B
0=
0C
1N
0M
0L
1K
1D
1@
0?
0>
13
04
05
0&
0%
1$
#112500
1"
10
1B
1=
1C
0N
#125000
0"
00
0B
0=
0C
1N
1M
0D
1G
1>
15
1&
#137500
1"
10
1B
1=
1C
0N
#150000
0"
00
0B
0=
0C
1N
0M
1L
1D
1?
0>
14
05
0&
1%
#162500
1"
10
1B
1=
1C
0N
#175000
0"
00
0B
0=
0C
1N
1M
0D
0G
0H
1I
1>
15
1&
#187500
1"
10
1B
1=
1C
0N
#200000
0"
00
0B
0=
0C
1N
0M
0L
0K
1J
1D
1A
0@
0?
0>
12
03
04
05
0&
0%
0$
1#
#212500
1"
10
1B
1=
1C
0N
#225000
0"
00
0B
0=
0C
1N
1M
0D
1G
1>
15
1&
#237500
1"
10
1B
1=
1C
0N
#250000
0"
00
0B
0=
0C
1N
0M
1L
1D
1?
0>
14
05
0&
1%
#262500
1"
10
1B
1=
1C
0N
#275000
0"
00
0B
0=
0C
1N
1M
0D
0G
1H
1>
15
1&
#287500
1"
10
1B
1=
1C
0N
#300000
0"
00
0B
0=
0C
1N
0M
0L
1K
1D
1@
0?
0>
13
04
05
0&
0%
1$
#312500
1"
10
1B
1=
1C
0N
#325000
0"
00
0B
0=
0C
1N
1M
0D
1G
1>
15
1&
#337500
1"
10
1B
1=
1C
0N
#350000
0"
00
0B
0=
0C
1N
0M
1L
1D
1?
0>
14
05
0&
1%
#362500
1"
10
1B
1=
1C
0N
#375000
0"
00
0B
0=
0C
1N
1M
0D
0G
0H
0I
1>
15
1&
#387500
1"
10
1B
1=
1C
0N
#400000
0"
00
0B
0=
0C
1N
0M
0L
0K
0J
1D
0A
0@
0?
0>
02
03
04
05
0&
0%
0$
0#
#412500
1"
10
1B
1=
1C
0N
#425000
0"
00
0B
0=
0C
1N
1M
0D
1G
1>
15
1&
#437500
1"
10
1B
1=
1C
0N
#450000
0"
00
0B
0=
0C
1N
0M
1L
1D
1?
0>
14
05
0&
1%
#462500
1"
10
1B
1=
1C
0N
#475000
0"
00
0B
0=
0C
1N
1M
0D
0G
1H
1>
15
1&
#487500
1"
10
1B
1=
1C
0N
#500000
0"
00
0B
0=
0C
1N
0M
0L
1K
1D
1@
0?
0>
13
04
05
0&
0%
1$
#512500
1"
10
1B
1=
1C
0N
#525000
0"
00
0B
0=
0C
1N
1M
0D
1G
1>
15
1&
#537500
1"
10
1B
1=
1C
0N
#550000
0"
00
0B
0=
0C
1N
0M
1L
1D
1?
0>
14
05
0&
1%
#562500
1"
10
1B
1=
1C
0N
#575000
0"
00
0B
0=
0C
1N
1M
0D
0G
0H
1I
1>
15
1&
#587500
1"
10
1B
1=
1C
0N
#600000
0"
00
0B
0=
0C
1N
0M
0L
0K
1J
1D
1A
0@
0?
0>
12
03
04
05
0&
0%
0$
1#
#612500
1"
10
1B
1=
1C
0N
#625000
0"
00
0B
0=
0C
1N
1M
0D
1G
1>
15
1&
#637500
1"
10
1B
1=
1C
0N
#650000
0"
00
0B
0=
0C
1N
0M
1L
1D
1?
0>
14
05
0&
1%
#662500
1"
10
1B
1=
1C
0N
#675000
0"
00
0B
0=
0C
1N
1M
0D
0G
1H
1>
15
1&
#687500
1"
10
1B
1=
1C
0N
#700000
0"
00
0B
0=
0C
1N
0M
0L
1K
1D
1@
0?
0>
13
04
05
0&
0%
1$
#712500
1"
10
1B
1=
1C
0N
#725000
0"
00
0B
0=
0C
1N
1M
0D
1G
1>
15
1&
#737500
1"
10
1B
1=
1C
0N
#750000
0"
00
0B
0=
0C
1N
0M
1L
1D
1?
0>
14
05
0&
1%
#762500
1"
10
1B
1=
1C
0N
#775000
0"
00
0B
0=
0C
1N
1M
0D
0G
0H
0I
1>
15
1&
#787500
1"
10
1B
1=
1C
0N
#800000
0"
00
0B
0=
0C
1N
0M
0L
0K
0J
1D
0A
0@
0?
0>
02
03
04
05
0&
0%
0$
0#
#812500
1"
10
1B
1=
1C
0N
#825000
0"
00
0B
0=
0C
1N
1M
0D
1G
1>
15
1&
#837500
1"
10
1B
1=
1C
0N
#850000
0"
00
0B
0=
0C
1N
0M
1L
1D
1?
0>
14
05
0&
1%
#862500
1"
10
1B
1=
1C
0N
#875000
0"
00
0B
0=
0C
1N
1M
0D
0G
1H
1>
15
1&
#887500
1"
10
1B
1=
1C
0N
#900000
0"
00
0B
0=
0C
1N
0M
0L
1K
1D
1@
0?
0>
13
04
05
0&
0%
1$
#912500
1"
10
1B
1=
1C
0N
#925000
0"
00
0B
0=
0C
1N
1M
0D
1G
1>
15
1&
#937500
1"
10
1B
1=
1C
0N
#950000
0"
00
0B
0=
0C
1N
0M
1L
1D
1?
0>
14
05
0&
1%
#962500
1"
10
1B
1=
1C
0N
#975000
0"
00
0B
0=
0C
1N
1M
0D
0G
0H
1I
1>
15
1&
#987500
1"
10
1B
1=
1C
0N
