VHDL/HW2/ej3/simulation/qsim/ej3.msim.vcd
$comment
	File created using the following command:
		vcd file ej3.msim.vcd -direction
$end
$date
	Tue Apr 20 10:23:14 2021
$end
$version
	ModelSim Version 2020.1
$end
$timescale
	1ps
$end

$scope module ej3_vlg_vec_tst $end
$var reg 1 ! a $end
$var reg 1 " b $end
$var reg 1 # c $end
$var reg 1 $ clearn $end
$var reg 1 % clock $end
$var reg 1 & d0 $end
$var reg 1 ' d1 $end
$var reg 1 ( d2 $end
$var reg 1 ) d3 $end
$var reg 1 * d4 $end
$var reg 1 + d5 $end
$var reg 1 , d6 $end
$var reg 1 - d7 $end
$var reg 1 . data $end
$var reg 1 / gn $end
$var reg 1 0 presetn $end
$var wire 1 1 q_out $end
$var wire 1 2 wn $end
$var wire 1 3 y $end

$scope module i1 $end
$var wire 1 4 gnd $end
$var wire 1 5 vcc $end
$var wire 1 6 unknown $end
$var tri1 1 7 devclrn $end
$var tri1 1 8 devpor $end
$var tri1 1 9 devoe $end
$var wire 1 : q_out~output_o $end
$var wire 1 ; y~output_o $end
$var wire 1 < wn~output_o $end
$var wire 1 = presetn~input_o $end
$var wire 1 > clearn~input_o $end
$var wire 1 ? dff1~1_combout $end
$var wire 1 @ clock~input_o $end
$var wire 1 A data~input_o $end
$var wire 1 B dff1~3_combout $end
$var wire 1 C dff1~0_combout $end
$var wire 1 D dff1~_emulated_q $end
$var wire 1 E dff1~2_combout $end
$var wire 1 F a~input_o $end
$var wire 1 G b~input_o $end
$var wire 1 H d0~input_o $end
$var wire 1 I d1~input_o $end
$var wire 1 J mux1|sub|78~2_combout $end
$var wire 1 K d3~input_o $end
$var wire 1 L d2~input_o $end
$var wire 1 M mux1|sub|78~3_combout $end
$var wire 1 N gn~input_o $end
$var wire 1 O d5~input_o $end
$var wire 1 P d7~input_o $end
$var wire 1 Q d4~input_o $end
$var wire 1 R d6~input_o $end
$var wire 1 S mux1|sub|78~0_combout $end
$var wire 1 T mux1|sub|78~1_combout $end
$var wire 1 U c~input_o $end
$var wire 1 V mux1|sub|85~0_combout $end
$upscope $end
$upscope $end
$enddefinitions $end
#0
$dumpvars
0!
0"
0#
0$
0%
0&
0'
0(
0)
0*
0+
0,
0-
0.
0/
00
x1
x2
x3
04
15
x6
17
18
19
x:
x;
x<
0=
0>
x?
0@
0A
xB
xC
0D
xE
0F
0G
0H
0I
xJ
0K
0L
xM
0N
0O
0P
0Q
0R
xS
xT
0U
xV
$end
#3171
1C
#3315
0?
#3318
0E
#3435
0J
#3781
0S
#3953
0B
#4030
0M
#4104
0T
#5198
0V
#6489
0:
01
#8325
0;
03
#8340
1<
12
#25000
1%
#25516
1@
#50000
0%
#50681
0@
#75000
1%
#75516
1@
#100000
0%
#100681
0@
#125000
1%
#125516
1@
#150000
0%
#150681
0@
#175000
1%
#175516
1@
#200000
0%
#200681
0@
#225000
1%
#225516
1@
#250000
0%
#250681
0@
#275000
1%
#275516
1@
#300000
0%
#300681
0@
#325000
1%
#325516
1@
#350000
0%
#350681
0@
#375000
1%
#375516
1@
#400000
0%
#400681
0@
#425000
1%
#425516
1@
#450000
0%
#450681
0@
#475000
1%
#475516
1@
#500000
0%
#500681
0@
#525000
1%
#525516
1@
#550000
0%
#550681
0@
#575000
1%
#575516
1@
#600000
0%
#600681
0@
#625000
1%
#625516
1@
#650000
0%
#650681
0@
#675000
1%
#675516
1@
#700000
0%
#700681
0@
#725000
1%
#725516
1@
#750000
0%
#750681
0@
#775000
1%
#775516
1@
#800000
0%
#800681
0@
#825000
1%
#825516
1@
#850000
0%
#850681
0@
#875000
1%
#875516
1@
#900000
0%
#900681
0@
#925000
1%
#925516
1@
#950000
0%
#950681
0@
#975000
1%
#975516
1@
