VHDL/HW3/ej5/ej5a/simulation/qsim/ej5a.msim.vcd
$comment
	File created using the following command:
		vcd file ej5a.msim.vcd -direction
$end
$date
	Thu May 13 11:33:37 2021
$end
$version
	ModelSim Version 2020.1
$end
$timescale
	1ps
$end

$scope module ej5a_vlg_vec_tst $end
$var reg 8 ! a [7:0] $end
$var wire 1 " s [2] $end
$var wire 1 # s [1] $end
$var wire 1 $ s [0] $end

$scope module i1 $end
$var wire 1 % gnd $end
$var wire 1 & vcc $end
$var wire 1 ' unknown $end
$var tri1 1 ( devclrn $end
$var tri1 1 ) devpor $end
$var tri1 1 * devoe $end
$var wire 1 + a[0]~input_o $end
$var wire 1 , s[0]~output_o $end
$var wire 1 - s[1]~output_o $end
$var wire 1 . s[2]~output_o $end
$var wire 1 / a[6]~input_o $end
$var wire 1 0 a[3]~input_o $end
$var wire 1 1 a[4]~input_o $end
$var wire 1 2 a[2]~input_o $end
$var wire 1 3 a[1]~input_o $end
$var wire 1 4 s~0_combout $end
$var wire 1 5 a[5]~input_o $end
$var wire 1 6 a[7]~input_o $end
$var wire 1 7 s~1_combout $end
$var wire 1 8 s~2_combout $end
$var wire 1 9 s~3_combout $end
$var wire 1 : s~4_combout $end
$upscope $end
$upscope $end
$enddefinitions $end
#0
$dumpvars
b0 !
0$
0#
0"
0%
1&
x'
1(
1)
1*
0+
0,
0-
0.
0/
00
01
02
03
04
05
06
07
08
09
0:
$end
#25000
b1 !
1+
#50000
b11 !
b10 !
0+
13
14
17
1,
1$
#75000
b110 !
b111 !
1+
12
18
04
19
07
0,
1-
1#
0$
#100000
b1111 !
b1101 !
b1100 !
0+
03
10
14
17
1,
1$
#125000
b11100 !
b11101 !
1+
11
08
04
1:
1.
1"
09
07
0,
0-
0#
0$
#150000
b111101 !
b111001 !
b111011 !
b111010 !
0+
13
02
15
17
1,
1$
#175000
b1111010 !
b1111011 !
1+
1/
19
07
0,
1-
1#
0$
#200000
b11111011 !
b11110011 !
b11110001 !
b11110000 !
0+
03
00
16
17
1,
1$
#225000
b11110100 !
b11110101 !
1+
12
#250000
b11100101 !
b11100111 !
b11100110 !
0+
13
01
#275000
b11100111 !
1+
#300000
b11000111 !
b11001111 !
b11001011 !
b11001001 !
b11001000 !
0+
03
02
10
05
14
18
#325000
b11001001 !
1+
#350000
b10001001 !
b10001011 !
b10001010 !
0+
13
0/
#375000
b10011010 !
b10011110 !
b10011111 !
1+
12
11
08
04
#400000
b11111 !
b10111 !
b10101 !
b10100 !
0+
03
00
06
09
07
0,
0-
0#
0$
#425000
b10101 !
1+
#450000
b110101 !
b110001 !
b110011 !
b110010 !
0+
13
02
15
17
1,
1$
#475000
b110011 !
1+
#500000
b100011 !
b101011 !
b101001 !
b101000 !
0+
03
10
01
14
#525000
b1101000 !
b1101100 !
b1101101 !
1+
12
1/
19
07
0,
1-
1#
0$
#550000
b1101111 !
b1101110 !
0+
13
#575000
b1101111 !
1+
#600000
b11101111 !
b11001111 !
b11000111 !
b11000011 !
b11000001 !
b11000000 !
0+
03
02
00
05
16
04
17
1,
1$
#625000
b11010000 !
b11010001 !
1+
11
#650000
b11010011 !
b11010010 !
0+
13
#675000
b11010110 !
b11010111 !
1+
12
#700000
b10010111 !
b10011111 !
b10011101 !
b10011100 !
0+
03
10
0/
#725000
b10011101 !
1+
#750000
b10111101 !
b10101101 !
b10101001 !
b10101011 !
b10101010 !
0+
13
02
01
15
14
#775000
b10101011 !
1+
#800000
b101011 !
b100011 !
b100001 !
b100000 !
0+
03
00
06
04
09
0-
0#
#825000
b100100 !
b100101 !
1+
12
#850000
b100111 !
b100110 !
0+
13
#875000
b1100110 !
b1110110 !
b1110111 !
1+
11
1/
19
07
0,
1-
1#
0$
#900000
b1010111 !
b1011111 !
b1011011 !
b1011001 !
b1011000 !
0+
03
02
10
05
#925000
b1011001 !
1+
#950000
b1011011 !
b1011010 !
0+
13
#975000
b1011110 !
b1011111 !
1+
12
