VHDL/Proyecto_5/simulation/qsim/sqrt.msim.vcd
$comment
	File created using the following command:
		vcd file sqrt.msim.vcd -direction
$end
$date
	Thu Jul  1 15:58:02 2021
$end
$version
	ModelSim Version 2020.1
$end
$timescale
	1ps
$end

$scope module sqrt_vlg_vec_tst $end
$var reg 9 ! a [8:0] $end
$var reg 9 " b [8:0] $end
$var reg 1 # ninicio $end
$var reg 1 $ reloj $end
$var wire 1 % fin $end
$var wire 1 & salida [8] $end
$var wire 1 ' salida [7] $end
$var wire 1 ( salida [6] $end
$var wire 1 ) salida [5] $end
$var wire 1 * salida [4] $end
$var wire 1 + salida [3] $end
$var wire 1 , salida [2] $end
$var wire 1 - salida [1] $end
$var wire 1 . salida [0] $end

$scope module i1 $end
$var wire 1 / gnd $end
$var wire 1 0 vcc $end
$var wire 1 1 unknown $end
$var tri1 1 2 devclrn $end
$var tri1 1 3 devpor $end
$var tri1 1 4 devoe $end
$var wire 1 5 fin~output_o $end
$var wire 1 6 salida[0]~output_o $end
$var wire 1 7 salida[1]~output_o $end
$var wire 1 8 salida[2]~output_o $end
$var wire 1 9 salida[3]~output_o $end
$var wire 1 : salida[4]~output_o $end
$var wire 1 ; salida[5]~output_o $end
$var wire 1 < salida[6]~output_o $end
$var wire 1 = salida[7]~output_o $end
$var wire 1 > salida[8]~output_o $end
$var wire 1 ? reloj~input_o $end
$var wire 1 @ reloj~inputclkctrl_outclk $end
$var wire 1 A elfin~feeder_combout $end
$var wire 1 B ninicio~input_o $end
$var wire 1 C ninicio~inputclkctrl_outclk $end
$var wire 1 D elfin~q $end
$var wire 1 E a[3]~input_o $end
$var wire 1 F a[0]~input_o $end
$var wire 1 G Add0~0_combout $end
$var wire 1 H b[1]~input_o $end
$var wire 1 I Add1~0_combout $end
$var wire 1 J b[0]~input_o $end
$var wire 1 K b[3]~input_o $end
$var wire 1 L Add2~0_combout $end
$var wire 1 M a[1]~input_o $end
$var wire 1 N Add3~0_combout $end
$var wire 1 O a[8]~input_o $end
$var wire 1 P b[8]~input_o $end
$var wire 1 Q b[7]~input_o $end
$var wire 1 R a[7]~input_o $end
$var wire 1 S b[6]~input_o $end
$var wire 1 T a[6]~input_o $end
$var wire 1 U a[5]~input_o $end
$var wire 1 V b[5]~input_o $end
$var wire 1 W b[4]~input_o $end
$var wire 1 X a[4]~input_o $end
$var wire 1 Y b[2]~input_o $end
$var wire 1 Z a[2]~input_o $end
$var wire 1 [ LessThan0~1_cout $end
$var wire 1 \ LessThan0~3_cout $end
$var wire 1 ] LessThan0~5_cout $end
$var wire 1 ^ LessThan0~7_cout $end
$var wire 1 _ LessThan0~9_cout $end
$var wire 1 ` LessThan0~11_cout $end
$var wire 1 a LessThan0~13_cout $end
$var wire 1 b LessThan0~15_cout $end
$var wire 1 c LessThan0~16_combout $end
$var wire 1 d Add0~1 $end
$var wire 1 e Add0~3 $end
$var wire 1 f Add0~5 $end
$var wire 1 g Add0~7 $end
$var wire 1 h Add0~9 $end
$var wire 1 i Add0~11 $end
$var wire 1 j Add0~13 $end
$var wire 1 k Add0~15 $end
$var wire 1 l Add0~16_combout $end
$var wire 1 m Add0~14_combout $end
$var wire 1 n Add0~12_combout $end
$var wire 1 o Add0~10_combout $end
$var wire 1 p Add0~8_combout $end
$var wire 1 q Add0~6_combout $end
$var wire 1 r Add0~4_combout $end
$var wire 1 s Add0~2_combout $end
$var wire 1 t Add1~1 $end
$var wire 1 u Add1~3 $end
$var wire 1 v Add1~5 $end
$var wire 1 w Add1~7 $end
$var wire 1 x Add1~9 $end
$var wire 1 y Add1~11 $end
$var wire 1 z Add1~13 $end
$var wire 1 { Add1~15 $end
$var wire 1 | Add1~16_combout $end
$var wire 1 } Add1~14_combout $end
$var wire 1 ~ Add1~12_combout $end
$var wire 1 !! Add1~10_combout $end
$var wire 1 "! Add1~8_combout $end
$var wire 1 #! Add1~6_combout $end
$var wire 1 $! Add1~4_combout $end
$var wire 1 %! Add1~2_combout $end
$var wire 1 &! LessThan1~1_cout $end
$var wire 1 '! LessThan1~3_cout $end
$var wire 1 (! LessThan1~5_cout $end
$var wire 1 )! LessThan1~7_cout $end
$var wire 1 *! LessThan1~9_cout $end
$var wire 1 +! LessThan1~11_cout $end
$var wire 1 ,! LessThan1~13_cout $end
$var wire 1 -! LessThan1~15_cout $end
$var wire 1 .! LessThan1~16_combout $end
$var wire 1 /! Add2~1 $end
$var wire 1 0! Add2~3 $end
$var wire 1 1! Add2~5 $end
$var wire 1 2! Add2~7 $end
$var wire 1 3! Add2~9 $end
$var wire 1 4! Add2~11 $end
$var wire 1 5! Add2~13 $end
$var wire 1 6! Add2~15 $end
$var wire 1 7! Add2~16_combout $end
$var wire 1 8! Add2~14_combout $end
$var wire 1 9! Add2~12_combout $end
$var wire 1 :! Add2~10_combout $end
$var wire 1 ;! Add2~8_combout $end
$var wire 1 <! Add2~6_combout $end
$var wire 1 =! Add2~4_combout $end
$var wire 1 >! Add2~2_combout $end
$var wire 1 ?! Add3~1 $end
$var wire 1 @! Add3~3 $end
$var wire 1 A! Add3~5 $end
$var wire 1 B! Add3~7 $end
$var wire 1 C! Add3~9 $end
$var wire 1 D! Add3~11 $end
$var wire 1 E! Add3~13 $end
$var wire 1 F! Add3~15 $end
$var wire 1 G! Add3~16_combout $end
$var wire 1 H! Add3~14_combout $end
$var wire 1 I! Add3~12_combout $end
$var wire 1 J! Add3~10_combout $end
$var wire 1 K! Add3~8_combout $end
$var wire 1 L! Add3~6_combout $end
$var wire 1 M! Add3~4_combout $end
$var wire 1 N! Add3~2_combout $end
$var wire 1 O! LessThan2~1_cout $end
$var wire 1 P! LessThan2~3_cout $end
$var wire 1 Q! LessThan2~5_cout $end
$var wire 1 R! LessThan2~7_cout $end
$var wire 1 S! LessThan2~9_cout $end
$var wire 1 T! LessThan2~11_cout $end
$var wire 1 U! LessThan2~13_cout $end
$var wire 1 V! LessThan2~15_cout $end
$var wire 1 W! LessThan2~16_combout $end
$var wire 1 X! salida[0]~0_combout $end
$var wire 1 Y! salida~1_combout $end
$var wire 1 Z! salida~2_combout $end
$var wire 1 [! salida[0]~reg0_q $end
$var wire 1 \! salida~3_combout $end
$var wire 1 ]! salida~4_combout $end
$var wire 1 ^! salida[1]~reg0_q $end
$var wire 1 _! salida~5_combout $end
$var wire 1 `! salida~6_combout $end
$var wire 1 a! salida~7_combout $end
$var wire 1 b! salida[2]~reg0_q $end
$var wire 1 c! salida~8_combout $end
$var wire 1 d! salida~9_combout $end
$var wire 1 e! salida[3]~reg0_q $end
$var wire 1 f! salida~10_combout $end
$var wire 1 g! salida~11_combout $end
$var wire 1 h! salida[4]~reg0_q $end
$var wire 1 i! salida~12_combout $end
$var wire 1 j! salida~13_combout $end
$var wire 1 k! salida[5]~reg0_q $end
$var wire 1 l! salida~14_combout $end
$var wire 1 m! salida~15_combout $end
$var wire 1 n! salida[6]~reg0_q $end
$var wire 1 o! salida~16_combout $end
$var wire 1 p! salida~17_combout $end
$var wire 1 q! salida[7]~reg0_q $end
$var wire 1 r! salida~18_combout $end
$var wire 1 s! salida~19_combout $end
$var wire 1 t! salida[8]~reg0_q $end
$var wire 1 u! x [8] $end
$var wire 1 v! x [7] $end
$var wire 1 w! x [6] $end
$var wire 1 x! x [5] $end
$var wire 1 y! x [4] $end
$var wire 1 z! x [3] $end
$var wire 1 {! x [2] $end
$var wire 1 |! x [1] $end
$var wire 1 }! x [0] $end
$var wire 1 ~! y [8] $end
$var wire 1 !" y [7] $end
$var wire 1 "" y [6] $end
$var wire 1 #" y [5] $end
$var wire 1 $" y [4] $end
$var wire 1 %" y [3] $end
$var wire 1 &" y [2] $end
$var wire 1 '" y [1] $end
$var wire 1 (" y [0] $end
$upscope $end
$upscope $end
$enddefinitions $end
#0
$dumpvars
b1101001 !
b100000100 "
1#
0$
0%
0.
0-
0,
0+
0*
0)
0(
0'
0&
0/
10
x1
12
13
14
05
06
07
08
09
0:
0;
0<
0=
0>
0?
0@
1A
1B
1C
0D
1E
1F
xG
0H
xI
0J
0K
xL
0M
xN
0O
1P
0Q
0R
0S
1T
1U
0V
0W
0X
1Y
0Z
x[
x\
x]
x^
x_
x`
xa
xb
xc
xd
xe
xf
xg
xh
xi
xj
xk
xl
xm
xn
xo
xp
xq
xr
xs
xt
xu
xv
xw
xx
xy
xz
x{
x|
x}
x~
x!!
x"!
x#!
x$!
x%!
x&!
x'!
x(!
x)!
x*!
x+!
x,!
x-!
x.!
x/!
x0!
x1!
x2!
x3!
x4!
x5!
x6!
x7!
x8!
x9!
x:!
x;!
x<!
x=!
x>!
x?!
x@!
xA!
xB!
xC!
xD!
xE!
xF!
xG!
xH!
xI!
xJ!
xK!
xL!
xM!
xN!
xO!
xP!
xQ!
xR!
xS!
xT!
xU!
xV!
xW!
xX!
xY!
xZ!
0[!
x\!
x]!
0^!
x_!
x`!
xa!
0b!
xc!
xd!
0e!
xf!
xg!
0h!
xi!
xj!
0k!
xl!
xm!
0n!
xo!
xp!
0q!
xr!
xs!
0t!
x}!
x|!
x{!
xz!
xy!
xx!
xw!
xv!
xu!
x("
x'"
x&"
x%"
x$"
x#"
x""
x!"
x~!
$end
#2500
1$
1?
1@
xt!
xq!
xn!
xk!
xh!
xe!
xb!
x^!
x[!
1D
15
x6
x7
x8
x9
x:
x;
x<
x=
x>
x&
x'
x(
x)
x*
x+
x,
x-
x.
1%
#5000
0$
0?
0@
#7500
1$
1?
1@
#10000
0$
0?
0@
#12500
1$
1?
1@
#15000
0$
0?
0@
#17500
1$
1?
1@
#20000
0$
0?
0@
#22500
1$
1?
1@
#25000
0$
0?
0@
#27500
1$
1?
1@
#30000
0$
0?
0@
#32500
1$
1?
1@
#35000
0$
0?
0@
#37500
1$
1?
1@
#40000
0$
0?
0@
#42500
1$
1?
1@
#45000
0$
0?
0@
#47500
1$
1?
1@
#50000
0$
0?
0@
#52500
1$
1?
1@
#55000
0$
0?
0@
#57500
1$
1?
1@
#60000
0#
0$
0B
0?
0C
0@
0{!
1&"
0y!
0$"
0#"
1x!
1w!
0""
0v!
0!"
1~!
0u!
0|!
0%"
0("
0'"
1}!
1z!
0f
0]
11!
14!
0`
0i
1j
1a
0c
0?!
0^
1/!
0L
1[
0t
0&!
1d
0G
1g
1q
02!
0<!
05!
19!
1n
0k
0m
0b
0l!
0f!
1_!
0Y!
1@!
1_
00!
0>!
0N
0\
0e
0s
0I
0h
1p
13!
0;!
1B!
16!
18!
0l
1=!
0N!
0O!
1r
1u
1%!
0Z!
0o
1:!
0C!
1K!
07!
1A!
0M!
0\!
1P!
0v
1$!
0'!
1y
0D!
0J!
1S!
1L!
0Q!
1w
1#!
1(!
0]!
0z
1~
1E!
0I!
0i!
0T!
0R!
0x
1"!
0)!
1{
1}
0F!
0H!
1U!
0!!
1*!
0m!
0j!
0|
0-!
1G!
0o!
0V!
1+!
1.!
1W!
0,!
0p!
0`!
1X!
0r!
1c!
0a!
1g!
1s!
1d!
0D
05
0%
#62500
1$
1?
1@
#65000
0$
0?
0@
#67500
1$
1?
1@
#70000
0$
0?
0@
#72500
1$
1?
1@
#75000
0$
0?
0@
#77500
1$
1?
1@
#80000
1#
0$
1B
0?
1C
0@
#82500
1$
1?
1@
1t!
0q!
0n!
0k!
1h!
1e!
0b!
0^!
0[!
1D
15
06
07
08
19
1:
0;
0<
0=
1>
1&
0'
0(
0)
1*
1+
0,
0-
0.
1%
#85000
0$
0?
0@
#87500
1$
1?
1@
#90000
0$
0?
0@
#92500
1$
1?
1@
#95000
0$
0?
0@
#97500
1$
1?
1@
#100000
0$
0?
0@
#102500
1$
1?
1@
#105000
0$
0?
0@
#107500
1$
1?
1@
#110000
0$
0?
0@
#112500
1$
1?
1@
#115000
0$
0?
0@
#117500
1$
1?
1@
#120000
0$
0?
0@
#122500
1$
1?
1@
#125000
0$
0?
0@
#127500
1$
1?
1@
#130000
0$
0?
0@
#132500
1$
1?
1@
#135000
0$
0?
0@
#137500
1$
1?
1@
#140000
0$
0?
0@
#142500
1$
1?
1@
#145000
0$
0?
0@
#147500
1$
1?
1@
#150000
0$
0?
0@
#152500
1$
1?
1@
#155000
0$
0?
0@
#157500
1$
1?
1@
#160000
0$
0?
0@
#162500
1$
1?
1@
#165000
0$
0?
0@
#167500
1$
1?
1@
#170000
0$
0?
0@
#172500
1$
1?
1@
#175000
0$
0?
0@
#177500
1$
1?
1@
#180000
0$
0?
0@
#182500
1$
1?
1@
#185000
0$
0?
0@
#187500
1$
1?
1@
#190000
0$
0?
0@
#192500
1$
1?
1@
#195000
0$
0?
0@
#197500
1$
1?
1@
#200000
0$
0?
0@
#202500
1$
1?
1@
#205000
0$
0?
0@
#207500
1$
1?
1@
#210000
0$
0?
0@
#212500
1$
1?
1@
#215000
0$
0?
0@
#217500
1$
1?
1@
#220000
0$
0?
0@
#222500
1$
1?
1@
#225000
0$
0?
0@
#227500
1$
1?
1@
#230000
0$
0?
0@
#232500
1$
1?
1@
#235000
0$
0?
0@
#237500
1$
1?
1@
#240000
0$
0?
0@
#242500
1$
1?
1@
#245000
0$
0?
0@
#247500
1$
1?
1@
#250000
0$
0?
0@
#252500
1$
1?
1@
#255000
0$
0?
0@
#257500
1$
1?
1@
#260000
0$
0?
0@
#262500
1$
1?
1@
#265000
0$
0?
0@
#267500
1$
1?
1@
#270000
0$
0?
0@
#272500
1$
1?
1@
#275000
0$
0?
0@
#277500
1$
1?
1@
#280000
0$
0?
0@
#282500
1$
1?
1@
#285000
0$
0?
0@
#287500
1$
1?
1@
#290000
0$
0?
0@
#292500
1$
1?
1@
#295000
0$
0?
0@
#297500
1$
1?
1@
#300000
0$
0?
0@
#302500
1$
1?
1@
#305000
0$
0?
0@
#307500
1$
1?
1@
#310000
0$
0?
0@
#312500
1$
1?
1@
#315000
0$
0?
0@
#317500
1$
1?
1@
#320000
0$
0?
0@
#322500
1$
1?
1@
#325000
0$
0?
0@
#327500
1$
1?
1@
#330000
0$
0?
0@
#332500
1$
1?
1@
#335000
0$
0?
0@
#337500
1$
1?
1@
#340000
0$
0?
0@
#342500
1$
1?
1@
#345000
0$
0?
0@
#347500
1$
1?
1@
#350000
0$
0?
0@
#352500
1$
1?
1@
#355000
0$
0?
0@
#357500
1$
1?
1@
#360000
0$
0?
0@
#362500
1$
1?
1@
#365000
0$
0?
0@
#367500
1$
1?
1@
#370000
0$
0?
0@
#372500
1$
1?
1@
#375000
0$
0?
0@
#377500
1$
1?
1@
#380000
0$
0?
0@
#382500
1$
1?
1@
#385000
0$
0?
0@
#387500
1$
1?
1@
#390000
0$
0?
0@
#392500
1$
1?
1@
#395000
0$
0?
0@
#397500
1$
1?
1@
#400000
0$
0?
0@
#402500
1$
1?
1@
#405000
0$
0?
0@
#407500
1$
1?
1@
#410000
0$
0?
0@
#412500
1$
1?
1@
#415000
0$
0?
0@
#417500
1$
1?
1@
#420000
0$
0?
0@
#422500
1$
1?
1@
#425000
0$
0?
0@
#427500
1$
1?
1@
#430000
0$
0?
0@
#432500
1$
1?
1@
#435000
0$
0?
0@
#437500
1$
1?
1@
#440000
0$
0?
0@
#442500
1$
1?
1@
#445000
0$
0?
0@
#447500
1$
1?
1@
#450000
0$
0?
0@
#452500
1$
1?
1@
#455000
0$
0?
0@
#457500
1$
1?
1@
#460000
0$
0?
0@
#462500
1$
1?
1@
#465000
0$
0?
0@
#467500
1$
1?
1@
#470000
0$
0?
0@
#472500
1$
1?
1@
#475000
0$
0?
0@
#477500
1$
1?
1@
#480000
0$
0?
0@
#482500
1$
1?
1@
#485000
0$
0?
0@
#487500
1$
1?
1@
#490000
0$
0?
0@
#492500
1$
1?
1@
#495000
0$
0?
0@
#497500
1$
1?
1@
#500000
0$
0?
0@
#502500
1$
1?
1@
#505000
0$
0?
0@
#507500
1$
1?
1@
#510000
0$
0?
0@
#512500
1$
1?
1@
#515000
0$
0?
0@
#517500
1$
1?
1@
#520000
0$
0?
0@
#522500
1$
1?
1@
#525000
0$
0?
0@
#527500
1$
1?
1@
#530000
0$
0?
0@
#532500
1$
1?
1@
#535000
0$
0?
0@
#537500
1$
1?
1@
#540000
0$
0?
0@
#542500
1$
1?
1@
#545000
0$
0?
0@
#547500
1$
1?
1@
#550000
0$
0?
0@
#552500
1$
1?
1@
#555000
0$
0?
0@
#557500
1$
1?
1@
#560000
0$
0?
0@
#562500
1$
1?
1@
#565000
0$
0?
0@
#567500
1$
1?
1@
#570000
0$
0?
0@
#572500
1$
1?
1@
#575000
0$
0?
0@
#577500
1$
1?
1@
#580000
0$
0?
0@
#582500
1$
1?
1@
#585000
0$
0?
0@
#587500
1$
1?
1@
#590000
0$
0?
0@
#592500
1$
1?
1@
#595000
0$
0?
0@
#597500
1$
1?
1@
#600000
0$
0?
0@
#602500
1$
1?
1@
#605000
0$
0?
0@
#607500
1$
1?
1@
#610000
0$
0?
0@
#612500
1$
1?
1@
#615000
0$
0?
0@
#617500
1$
1?
1@
#620000
0$
0?
0@
#622500
1$
1?
1@
#625000
0$
0?
0@
#627500
1$
1?
1@
#630000
0$
0?
0@
#632500
1$
1?
1@
#635000
0$
0?
0@
#637500
1$
1?
1@
#640000
0$
0?
0@
#642500
1$
1?
1@
#645000
0$
0?
0@
#647500
1$
1?
1@
#650000
0$
0?
0@
#652500
1$
1?
1@
#655000
0$
0?
0@
#657500
1$
1?
1@
#660000
0$
0?
0@
#662500
1$
1?
1@
#665000
0$
0?
0@
#667500
1$
1?
1@
#670000
0$
0?
0@
#672500
1$
1?
1@
#675000
0$
0?
0@
#677500
1$
1?
1@
#680000
0$
0?
0@
#682500
1$
1?
1@
#685000
0$
0?
0@
#687500
1$
1?
1@
#690000
0$
0?
0@
#692500
1$
1?
1@
#695000
0$
0?
0@
#697500
1$
1?
1@
#700000
0$
0?
0@
#702500
1$
1?
1@
#705000
0$
0?
0@
#707500
1$
1?
1@
#710000
0$
0?
0@
#712500
1$
1?
1@
#715000
0$
0?
0@
#717500
1$
1?
1@
#720000
0$
0?
0@
#722500
1$
1?
1@
#725000
0$
0?
0@
#727500
1$
1?
1@
#730000
0$
0?
0@
#732500
1$
1?
1@
#735000
0$
0?
0@
#737500
1$
1?
1@
#740000
0$
0?
0@
#742500
1$
1?
1@
#745000
0$
0?
0@
#747500
1$
1?
1@
#750000
0$
0?
0@
#752500
1$
1?
1@
#755000
0$
0?
0@
#757500
1$
1?
1@
#760000
0$
0?
0@
#762500
1$
1?
1@
#765000
0$
0?
0@
#767500
1$
1?
1@
#770000
0$
0?
0@
#772500
1$
1?
1@
#775000
0$
0?
0@
#777500
1$
1?
1@
#780000
0$
0?
0@
#782500
1$
1?
1@
#785000
0$
0?
0@
#787500
1$
1?
1@
#790000
0$
0?
0@
#792500
1$
1?
1@
#795000
0$
0?
0@
#797500
1$
1?
1@
#800000
0$
0?
0@
#802500
1$
1?
1@
#805000
0$
0?
0@
#807500
1$
1?
1@
#810000
0$
0?
0@
#812500
1$
1?
1@
#815000
0$
0?
0@
#817500
1$
1?
1@
#820000
0$
0?
0@
#822500
1$
1?
1@
#825000
0$
0?
0@
#827500
1$
1?
1@
#830000
0$
0?
0@
#832500
1$
1?
1@
#835000
0$
0?
0@
#837500
1$
1?
1@
#840000
0$
0?
0@
#842500
1$
1?
1@
#845000
0$
0?
0@
#847500
1$
1?
1@
#850000
0$
0?
0@
#852500
1$
1?
1@
#855000
0$
0?
0@
#857500
1$
1?
1@
#860000
0$
0?
0@
#862500
1$
1?
1@
#865000
0$
0?
0@
#867500
1$
1?
1@
#870000
0$
0?
0@
#872500
1$
1?
1@
#875000
0$
0?
0@
#877500
1$
1?
1@
#880000
0$
0?
0@
#882500
1$
1?
1@
#885000
0$
0?
0@
#887500
1$
1?
1@
#890000
0$
0?
0@
#892500
1$
1?
1@
#895000
0$
0?
0@
#897500
1$
1?
1@
#900000
0$
0?
0@
#902500
1$
1?
1@
#905000
0$
0?
0@
#907500
1$
1?
1@
#910000
0$
0?
0@
#912500
1$
1?
1@
#915000
0$
0?
0@
#917500
1$
1?
1@
#920000
0$
0?
0@
#922500
1$
1?
1@
#925000
0$
0?
0@
#927500
1$
1?
1@
#930000
0$
0?
0@
#932500
1$
1?
1@
#935000
0$
0?
0@
#937500
1$
1?
1@
#940000
0$
0?
0@
#942500
1$
1?
1@
#945000
0$
0?
0@
#947500
1$
1?
1@
#950000
0$
0?
0@
#952500
1$
1?
1@
#955000
0$
0?
0@
#957500
1$
1?
1@
#960000
0$
0?
0@
#962500
1$
1?
1@
#965000
0$
0?
0@
#967500
1$
1?
1@
#970000
0$
0?
0@
#972500
1$
1?
1@
#975000
0$
0?
0@
#977500
1$
1?
1@
#980000
0$
0?
0@
#982500
1$
1?
1@
#985000
0$
0?
0@
#987500
1$
1?
1@
#990000
0$
0?
0@
#992500
1$
1?
1@
#995000
0$
0?
0@
#997500
1$
1?
1@
