VHDL/HW3/ej3/ej3b/simulation/qsim/ej3b.msim.vcd
$comment
	File created using the following command:
		vcd file ej3b.msim.vcd -direction
$end
$date
	Sat May  1 13:40:09 2021
$end
$version
	ModelSim Version 2020.1
$end
$timescale
	1ps
$end

$scope module ej3b_vlg_vec_tst $end
$var reg 8 ! a [7:0] $end
$var reg 8 " b [7:0] $end
$var reg 1 # sel $end
$var wire 1 $ y [7] $end
$var wire 1 % y [6] $end
$var wire 1 & y [5] $end
$var wire 1 ' y [4] $end
$var wire 1 ( y [3] $end
$var wire 1 ) y [2] $end
$var wire 1 * y [1] $end
$var wire 1 + y [0] $end

$scope module i1 $end
$var wire 1 , gnd $end
$var wire 1 - vcc $end
$var wire 1 . unknown $end
$var tri1 1 / devclrn $end
$var tri1 1 0 devpor $end
$var tri1 1 1 devoe $end
$var wire 1 2 y[0]~output_o $end
$var wire 1 3 y[1]~output_o $end
$var wire 1 4 y[2]~output_o $end
$var wire 1 5 y[3]~output_o $end
$var wire 1 6 y[4]~output_o $end
$var wire 1 7 y[5]~output_o $end
$var wire 1 8 y[6]~output_o $end
$var wire 1 9 y[7]~output_o $end
$var wire 1 : sel~input_o $end
$var wire 1 ; a[0]~input_o $end
$var wire 1 < b[0]~input_o $end
$var wire 1 = y~0_combout $end
$var wire 1 > b[1]~input_o $end
$var wire 1 ? a[1]~input_o $end
$var wire 1 @ y~1_combout $end
$var wire 1 A a[2]~input_o $end
$var wire 1 B b[2]~input_o $end
$var wire 1 C y~2_combout $end
$var wire 1 D b[3]~input_o $end
$var wire 1 E a[3]~input_o $end
$var wire 1 F y~3_combout $end
$var wire 1 G b[4]~input_o $end
$var wire 1 H a[4]~input_o $end
$var wire 1 I y~4_combout $end
$var wire 1 J a[5]~input_o $end
$var wire 1 K b[5]~input_o $end
$var wire 1 L y~5_combout $end
$var wire 1 M a[6]~input_o $end
$var wire 1 N b[6]~input_o $end
$var wire 1 O y~6_combout $end
$var wire 1 P b[7]~input_o $end
$var wire 1 Q a[7]~input_o $end
$var wire 1 R y~7_combout $end
$upscope $end
$upscope $end
$enddefinitions $end
#0
$dumpvars
b0 !
b0 "
0#
0+
0*
0)
0(
0'
0&
0%
0$
0,
1-
x.
1/
10
11
02
03
04
05
06
07
08
09
0:
0;
0<
0=
0>
0?
0@
0A
0B
0C
0D
0E
0F
0G
0H
0I
0J
0K
0L
0M
0N
0O
0P
0Q
0R
$end
#25000
1#
1:
#50000
b1 !
b10 "
0#
1>
1;
0:
1@
13
1*
#75000
1#
1:
0@
1=
12
03
0*
1+
#100000
b101 !
b1010 "
b100 !
b1000 "
0#
0>
1D
0;
1A
0:
1F
0=
02
15
1(
0+
#125000
1#
1:
0F
1C
14
05
0(
1)
#150000
b10100 !
b101000 "
b10101 !
b101010 "
0#
1>
1K
1;
1H
0:
1@
1L
1F
0C
04
15
17
13
1*
1&
1(
0)
#175000
1#
1:
0L
1I
0F
1C
0@
1=
12
03
14
05
16
07
0&
1'
0(
1)
0*
1+
#200000
b1010101 !
b10101010 "
b1010001 !
b10100010 "
b1010000 !
b10100000 "
0#
0>
0D
1P
0;
0A
1M
0:
1R
0=
0C
1L
0I
06
17
04
02
19
1$
0+
0)
1&
0'
#225000
1#
1:
0R
1O
0L
1I
16
07
18
09
0$
1%
0&
1'
#250000
b1010001 !
b10100010 "
0#
1>
1;
0:
1@
1R
0O
1L
0I
06
17
08
19
13
1*
1$
0%
1&
0'
#275000
1#
1:
0R
1O
0L
1I
0@
1=
12
03
16
07
18
09
0$
1%
0&
1'
0*
1+
#300000
b1000001 !
b10000010 "
b1000101 !
b10001010 "
b1000100 !
b10001000 "
0#
0>
1D
0K
0;
1A
0H
0:
1F
0=
0I
1R
0O
08
19
06
02
15
1(
0+
0'
1$
0%
#325000
1#
1:
0R
1O
0F
1C
14
05
18
09
0$
1%
0(
1)
#350000
b1000101 !
b10001010 "
0#
1>
1;
0:
1@
1R
0O
1F
0C
04
15
08
19
13
1*
1$
0%
1(
0)
#375000
1#
1:
0R
1O
0F
1C
0@
1=
12
03
14
05
18
09
0$
1%
0(
1)
0*
1+
#400000
b101 !
b1010 "
b1 !
b10 "
b0 !
b0 "
0#
0>
0D
0P
0;
0A
0M
0:
0=
0C
0O
08
04
02
0+
0)
0%
#425000
1#
1:
#450000
b10000 !
b100000 "
b10001 !
b100010 "
0#
1>
1K
1;
1H
0:
1@
1L
17
13
1*
1&
#475000
1#
1:
0L
1I
0@
1=
12
03
16
07
0&
1'
0*
1+
#500000
b10101 !
b101010 "
b10100 !
b101000 "
0#
0>
1D
0;
1A
0:
1F
0=
1L
0I
06
17
02
15
1(
0+
1&
0'
#525000
1#
1:
0L
1I
0F
1C
14
05
16
07
0&
1'
0(
1)
#550000
b10101 !
b101010 "
0#
1>
1;
0:
1@
1L
0I
1F
0C
04
15
06
17
13
1*
1&
0'
1(
0)
#575000
1#
1:
0L
1I
0F
1C
0@
1=
12
03
14
05
16
07
0&
1'
0(
1)
0*
1+
#600000
b1010101 !
b10101010 "
b1000101 !
b10001010 "
b1000001 !
b10000010 "
b1000000 !
b10000000 "
0#
0>
0D
0K
1P
0;
0A
0H
1M
0:
1R
0=
0C
0I
06
04
02
19
1$
0+
0)
0'
#625000
1#
1:
0R
1O
18
09
0$
1%
#650000
b1000001 !
b10000010 "
0#
1>
1;
0:
1@
1R
0O
08
19
13
1*
1$
0%
#675000
1#
1:
0R
1O
0@
1=
12
03
18
09
0$
1%
0*
1+
#700000
b1000101 !
b10001010 "
b1000100 !
b10001000 "
0#
0>
1D
0;
1A
0:
1F
0=
1R
0O
08
19
02
15
1(
0+
1$
0%
#725000
1#
1:
0R
1O
0F
1C
14
05
18
09
0$
1%
0(
1)
#750000
b1010100 !
b10101000 "
b1010101 !
b10101010 "
0#
1>
1K
1;
1H
0:
1@
1L
1R
0O
1F
0C
04
15
08
19
17
13
1*
1&
1$
0%
1(
0)
#775000
1#
1:
0R
1O
0L
1I
0F
1C
0@
1=
12
03
14
05
16
07
18
09
0$
1%
0&
1'
0(
1)
0*
1+
#800000
b10101 !
b101010 "
b10001 !
b100010 "
b10000 !
b100000 "
0#
0>
0D
0P
0;
0A
0M
0:
0=
0C
0O
1L
0I
06
17
08
04
02
0+
0)
0%
1&
0'
#825000
1#
1:
0L
1I
16
07
0&
1'
#850000
b10001 !
b100010 "
0#
1>
1;
0:
1@
1L
0I
06
17
13
1*
1&
0'
#875000
1#
1:
0L
1I
0@
1=
12
03
16
07
0&
1'
0*
1+
#900000
b1 !
b10 "
b101 !
b1010 "
b100 !
b1000 "
0#
0>
1D
0K
0;
1A
0H
0:
1F
0=
0I
06
02
15
1(
0+
0'
#925000
1#
1:
0F
1C
14
05
0(
1)
#950000
b101 !
b1010 "
0#
1>
1;
0:
1@
1F
0C
04
15
13
1*
1(
0)
#975000
1#
1:
0F
1C
0@
1=
12
03
14
05
0(
1)
0*
1+
