VHDL/HW3/ej3/ej3a/simulation/qsim/ej3a.msim.vcd
$comment
	File created using the following command:
		vcd file ej3a.msim.vcd -direction
$end
$date
	Thu May 13 11:32:02 2021
$end
$version
	ModelSim Version 2020.1
$end
$timescale
	1ps
$end

$scope module ej3a_vlg_vec_tst $end
$var reg 8 ! a [7:0] $end
$var reg 8 " b [7:0] $end
$var reg 1 # sel $end
$var wire 1 $ y [7] $end
$var wire 1 % y [6] $end
$var wire 1 & y [5] $end
$var wire 1 ' y [4] $end
$var wire 1 ( y [3] $end
$var wire 1 ) y [2] $end
$var wire 1 * y [1] $end
$var wire 1 + y [0] $end

$scope module i1 $end
$var wire 1 , gnd $end
$var wire 1 - vcc $end
$var wire 1 . unknown $end
$var tri1 1 / devclrn $end
$var tri1 1 0 devpor $end
$var tri1 1 1 devoe $end
$var wire 1 2 y[0]~output_o $end
$var wire 1 3 y[1]~output_o $end
$var wire 1 4 y[2]~output_o $end
$var wire 1 5 y[3]~output_o $end
$var wire 1 6 y[4]~output_o $end
$var wire 1 7 y[5]~output_o $end
$var wire 1 8 y[6]~output_o $end
$var wire 1 9 y[7]~output_o $end
$var wire 1 : sel~input_o $end
$var wire 1 ; b[0]~input_o $end
$var wire 1 < a[0]~input_o $end
$var wire 1 = y~0_combout $end
$var wire 1 > a[1]~input_o $end
$var wire 1 ? b[1]~input_o $end
$var wire 1 @ y~1_combout $end
$var wire 1 A b[2]~input_o $end
$var wire 1 B a[2]~input_o $end
$var wire 1 C y~2_combout $end
$var wire 1 D a[3]~input_o $end
$var wire 1 E b[3]~input_o $end
$var wire 1 F y~3_combout $end
$var wire 1 G a[4]~input_o $end
$var wire 1 H b[4]~input_o $end
$var wire 1 I y~4_combout $end
$var wire 1 J b[5]~input_o $end
$var wire 1 K a[5]~input_o $end
$var wire 1 L y~5_combout $end
$var wire 1 M b[6]~input_o $end
$var wire 1 N a[6]~input_o $end
$var wire 1 O y~6_combout $end
$var wire 1 P a[7]~input_o $end
$var wire 1 Q b[7]~input_o $end
$var wire 1 R y~7_combout $end
$upscope $end
$upscope $end
$enddefinitions $end
#0
$dumpvars
b0 !
b0 "
0#
0+
0*
0)
0(
0'
0&
0%
0$
0,
1-
x.
1/
10
11
02
03
04
05
06
07
08
09
0:
0;
0<
0=
0>
0?
0@
0A
0B
0C
0D
0E
0F
0G
0H
0I
0J
0K
0L
0M
0N
0O
0P
0Q
0R
$end
#25000
1#
1:
#50000
b1 !
b10 "
0#
1?
1<
0:
1=
12
1+
#75000
1#
1:
1@
0=
02
13
1*
0+
#100000
b101 !
b1010 "
b100 !
b1000 "
0#
0?
1E
0<
1B
0:
0@
1C
14
03
0*
1)
#125000
1#
1:
1F
0C
04
15
1(
0)
#150000
b10100 !
b101000 "
b10101 !
b101010 "
0#
1?
1J
1<
1G
0:
1=
1I
0F
1C
14
05
16
12
1+
1'
0(
1)
#175000
1#
1:
1L
0I
1F
0C
1@
0=
02
13
04
15
06
17
1&
0'
1(
0)
1*
0+
#200000
b1010101 !
b10101010 "
b1010001 !
b10100010 "
b1010000 !
b10100000 "
0#
0?
0E
1Q
0<
0B
1N
0:
0@
0F
1O
0L
1I
16
07
18
05
03
0*
0(
1%
0&
1'
#225000
1#
1:
1R
0O
1L
0I
06
17
08
19
1$
0%
1&
0'
#250000
b1010001 !
b10100010 "
0#
1?
1<
0:
1=
0R
1O
0L
1I
16
07
18
09
12
1+
0$
1%
0&
1'
#275000
1#
1:
1R
0O
1L
0I
1@
0=
02
13
06
17
08
19
1$
0%
1&
0'
1*
0+
#300000
b1000001 !
b10000010 "
b1000101 !
b10001010 "
b1000100 !
b10001000 "
0#
0?
1E
0J
0<
1B
0G
0:
0@
0L
1C
0R
1O
18
09
14
07
03
0*
0&
1)
0$
1%
#325000
1#
1:
1R
0O
1F
0C
04
15
08
19
1$
0%
1(
0)
#350000
b1000101 !
b10001010 "
0#
1?
1<
0:
1=
0R
1O
0F
1C
14
05
18
09
12
1+
0$
1%
0(
1)
#375000
1#
1:
1R
0O
1F
0C
1@
0=
02
13
04
15
08
19
1$
0%
1(
0)
1*
0+
#400000
b101 !
b1010 "
b1 !
b10 "
b0 !
b0 "
0#
0?
0E
0Q
0<
0B
0N
0:
0@
0F
0R
09
05
03
0*
0(
0$
#425000
1#
1:
#450000
b10000 !
b100000 "
b10001 !
b100010 "
0#
1?
1J
1<
1G
0:
1=
1I
16
12
1+
1'
#475000
1#
1:
1L
0I
1@
0=
02
13
06
17
1&
0'
1*
0+
#500000
b10101 !
b101010 "
b10100 !
b101000 "
0#
0?
1E
0<
1B
0:
0@
1C
0L
1I
16
07
14
03
0*
1)
0&
1'
#525000
1#
1:
1L
0I
1F
0C
04
15
06
17
1&
0'
1(
0)
#550000
b10101 !
b101010 "
0#
1?
1<
0:
1=
0L
1I
0F
1C
14
05
16
07
12
1+
0&
1'
0(
1)
#575000
1#
1:
1L
0I
1F
0C
1@
0=
02
13
04
15
06
17
1&
0'
1(
0)
1*
0+
#600000
b1010101 !
b10101010 "
b1000101 !
b10001010 "
b1000001 !
b10000010 "
b1000000 !
b10000000 "
0#
0?
0E
0J
1Q
0<
0B
0G
1N
0:
0@
0F
0L
1O
18
07
05
03
0*
0(
0&
1%
#625000
1#
1:
1R
0O
08
19
1$
0%
#650000
b1000001 !
b10000010 "
0#
1?
1<
0:
1=
0R
1O
18
09
12
1+
0$
1%
#675000
1#
1:
1R
0O
1@
0=
02
13
08
19
1$
0%
1*
0+
#700000
b1000101 !
b10001010 "
b1000100 !
b10001000 "
0#
0?
1E
0<
1B
0:
0@
1C
0R
1O
18
09
14
03
0*
1)
0$
1%
#725000
1#
1:
1R
0O
1F
0C
04
15
08
19
1$
0%
1(
0)
#750000
b1010100 !
b10101000 "
b1010101 !
b10101010 "
0#
1?
1J
1<
1G
0:
1=
1I
0R
1O
0F
1C
14
05
18
09
16
12
1+
1'
0$
1%
0(
1)
#775000
1#
1:
1R
0O
1L
0I
1F
0C
1@
0=
02
13
04
15
06
17
08
19
1$
0%
1&
0'
1(
0)
1*
0+
#800000
b10101 !
b101010 "
b10001 !
b100010 "
b10000 !
b100000 "
0#
0?
0E
0Q
0<
0B
0N
0:
0@
0F
0R
0L
1I
16
07
09
05
03
0*
0(
0$
0&
1'
#825000
1#
1:
1L
0I
06
17
1&
0'
#850000
b10001 !
b100010 "
0#
1?
1<
0:
1=
0L
1I
16
07
12
1+
0&
1'
#875000
1#
1:
1L
0I
1@
0=
02
13
06
17
1&
0'
1*
0+
#900000
b1 !
b10 "
b101 !
b1010 "
b100 !
b1000 "
0#
0?
1E
0J
0<
1B
0G
0:
0@
0L
1C
14
07
03
0*
0&
1)
#925000
1#
1:
1F
0C
04
15
1(
0)
#950000
b101 !
b1010 "
0#
1?
1<
0:
1=
0F
1C
14
05
12
1+
0(
1)
#975000
1#
1:
1F
0C
1@
0=
02
13
04
15
1(
0)
1*
0+
