VHDL/Proyecto_3/simulation/qsim/bcd2bin.msim.vcd
$comment
	File created using the following command:
		vcd file bcd2bin.msim.vcd -direction
$end
$date
	Thu Jul  1 15:13:11 2021
$end
$version
	ModelSim Version 2020.1
$end
$timescale
	1ps
$end

$scope module bcd2bin_vlg_vec_tst $end
$var reg 8 ! bcd [7:0] $end
$var reg 1 " c0 $end
$var reg 1 # c1 $end
$var reg 1 $ c2 $end
$var reg 1 % ninicio $end
$var reg 1 & reloj $end
$var wire 1 ' bin [7] $end
$var wire 1 ( bin [6] $end
$var wire 1 ) bin [5] $end
$var wire 1 * bin [4] $end
$var wire 1 + bin [3] $end
$var wire 1 , bin [2] $end
$var wire 1 - bin [1] $end
$var wire 1 . bin [0] $end
$var wire 1 / fin $end

$scope module i1 $end
$var wire 1 0 gnd $end
$var wire 1 1 vcc $end
$var wire 1 2 unknown $end
$var tri1 1 3 devclrn $end
$var tri1 1 4 devpor $end
$var tri1 1 5 devoe $end
$var wire 1 6 fin~output_o $end
$var wire 1 7 bin[0]~output_o $end
$var wire 1 8 bin[1]~output_o $end
$var wire 1 9 bin[2]~output_o $end
$var wire 1 : bin[3]~output_o $end
$var wire 1 ; bin[4]~output_o $end
$var wire 1 < bin[5]~output_o $end
$var wire 1 = bin[6]~output_o $end
$var wire 1 > bin[7]~output_o $end
$var wire 1 ? reloj~input_o $end
$var wire 1 @ reloj~inputclkctrl_outclk $end
$var wire 1 A i[1]~2_combout $end
$var wire 1 B ninicio~input_o $end
$var wire 1 C ninicio~inputclkctrl_outclk $end
$var wire 1 D i[0]~3_combout $end
$var wire 1 E i[2]~1_combout $end
$var wire 1 F i[2]~0_combout $end
$var wire 1 G elfin~q $end
$var wire 1 H bcd[0]~input_o $end
$var wire 1 I datobcd[0]~1_combout $end
$var wire 1 J LessThan0~0_combout $end
$var wire 1 K bcd[4]~input_o $end
$var wire 1 L datobcd[4]~9_combout $end
$var wire 1 M bcd[5]~input_o $end
$var wire 1 N datobcd[5]~21_combout $end
$var wire 1 O bcd[6]~input_o $end
$var wire 1 P datobcd[6]~33_combout $end
$var wire 1 Q Add1~0_combout $end
$var wire 1 R datobcd~57_combout $end
$var wire 1 S bcd[7]~input_o $end
$var wire 1 T c0~input_o $end
$var wire 1 U c2~input_o $end
$var wire 1 V c1~input_o $end
$var wire 1 W comb~0_combout $end
$var wire 1 X centenas[0]~0_combout $end
$var wire 1 Y datobcd[8]~25_combout $end
$var wire 1 Z process_0~0_combout $end
$var wire 1 [ comb~1_combout $end
$var wire 1 \ datobcd[9]~37_combout $end
$var wire 1 ] datobcd[9]~_emulated_q $end
$var wire 1 ^ datobcd[9]~38_combout $end
$var wire 1 _ datobcd[8]~27_combout $end
$var wire 1 ` datobcd[8]~_emulated_q $end
$var wire 1 a datobcd[8]~26_combout $end
$var wire 1 b datobcd[7]~29_combout $end
$var wire 1 c Add1~1_combout $end
$var wire 1 d datobcd[7]~31_combout $end
$var wire 1 e datobcd[7]~_emulated_q $end
$var wire 1 f datobcd[7]~30_combout $end
$var wire 1 g datobcd[6]~35_combout $end
$var wire 1 h datobcd[6]~_emulated_q $end
$var wire 1 i datobcd[6]~34_combout $end
$var wire 1 j LessThan2~0_combout $end
$var wire 1 k datobcd[5]~56_combout $end
$var wire 1 l datobcd[5]~23_combout $end
$var wire 1 m datobcd[5]~_emulated_q $end
$var wire 1 n datobcd[5]~22_combout $end
$var wire 1 o datobcd[4]~11_combout $end
$var wire 1 p datobcd[4]~_emulated_q $end
$var wire 1 q datobcd[4]~10_combout $end
$var wire 1 r bcd[1]~input_o $end
$var wire 1 s bcd[2]~input_o $end
$var wire 1 t datobcd[2]~17_combout $end
$var wire 1 u Add0~0_combout $end
$var wire 1 v datobcd~55_combout $end
$var wire 1 w bcd[3]~input_o $end
$var wire 1 x datobcd[3]~13_combout $end
$var wire 1 y Add0~1_combout $end
$var wire 1 z datobcd[3]~15_combout $end
$var wire 1 { datobcd[3]~_emulated_q $end
$var wire 1 | datobcd[3]~14_combout $end
$var wire 1 } datobcd[2]~19_combout $end
$var wire 1 ~ datobcd[2]~_emulated_q $end
$var wire 1 !! datobcd[2]~18_combout $end
$var wire 1 "! datobcd[1]~5_combout $end
$var wire 1 #! datobcd[1]~7_combout $end
$var wire 1 $! datobcd[1]~_emulated_q $end
$var wire 1 %! datobcd[1]~6_combout $end
$var wire 1 &! LessThan1~0_combout $end
$var wire 1 '! datobcd[0]~3_combout $end
$var wire 1 (! datobcd[0]~_emulated_q $end
$var wire 1 )! datobcd[0]~2_combout $end
$var wire 1 *! datobin[7]~feeder_combout $end
$var wire 1 +! datobin[6]~feeder_combout $end
$var wire 1 ,! datobin[5]~feeder_combout $end
$var wire 1 -! datobin[4]~feeder_combout $end
$var wire 1 .! datobin[3]~feeder_combout $end
$var wire 1 /! datobin[1]~feeder_combout $end
$var wire 1 0! bin[0]~reg0feeder_combout $end
$var wire 1 1! bin[0]~0_combout $end
$var wire 1 2! bin[0]~1_combout $end
$var wire 1 3! bin[0]~reg0_q $end
$var wire 1 4! bin[1]~reg0feeder_combout $end
$var wire 1 5! bin[1]~reg0_q $end
$var wire 1 6! bin[2]~reg0feeder_combout $end
$var wire 1 7! bin[2]~reg0_q $end
$var wire 1 8! bin[3]~reg0feeder_combout $end
$var wire 1 9! bin[3]~reg0_q $end
$var wire 1 :! bin[4]~reg0feeder_combout $end
$var wire 1 ;! bin[4]~reg0_q $end
$var wire 1 <! bin[5]~reg0feeder_combout $end
$var wire 1 =! bin[5]~reg0_q $end
$var wire 1 >! bin[6]~reg0feeder_combout $end
$var wire 1 ?! bin[6]~reg0_q $end
$var wire 1 @! bin[7]~reg0_q $end
$var wire 1 A! centenas [3] $end
$var wire 1 B! centenas [2] $end
$var wire 1 C! centenas [1] $end
$var wire 1 D! centenas [0] $end
$var wire 1 E! datobin [7] $end
$var wire 1 F! datobin [6] $end
$var wire 1 G! datobin [5] $end
$var wire 1 H! datobin [4] $end
$var wire 1 I! datobin [3] $end
$var wire 1 J! datobin [2] $end
$var wire 1 K! datobin [1] $end
$var wire 1 L! datobin [0] $end
$var wire 1 M! i [2] $end
$var wire 1 N! i [1] $end
$var wire 1 O! i [0] $end
$upscope $end
$upscope $end
$enddefinitions $end
#0
$dumpvars
b10000010 !
1"
1#
1$
1%
0&
0.
0-
0,
0+
0*
0)
0(
0'
0/
00
11
x2
13
14
15
06
07
08
09
0:
0;
0<
0=
0>
0?
0@
0A
1B
1C
1D
0E
0F
0G
0H
xI
1J
0K
xL
0M
xN
0O
xP
xQ
xR
1S
1T
1U
1V
0W
0X
xY
0Z
0[
x\
0]
x^
x_
0`
xa
xb
xc
xd
0e
xf
xg
0h
xi
xj
xk
xl
0m
xn
xo
0p
xq
1r
0s
xt
xu
xv
0w
xx
xy
xz
0{
x|
x}
0~
x!!
x"!
x#!
0$!
x%!
x&!
x'!
0(!
x)!
x*!
0+!
0,!
0-!
0.!
0/!
00!
01!
02!
03!
04!
05!
06!
07!
08!
09!
0:!
0;!
0<!
0=!
0>!
0?!
0@!
xD!
xC!
zB!
zA!
zL!
0K!
0J!
0I!
0H!
0G!
0F!
0E!
0O!
0N!
0M!
$end
#2500
1&
1?
1@
xE!
x(!
x$!
x~
x{
xp
xm
xh
xe
x`
x]
1O!
11!
x>!
x+!
0D
1A
#5000
0&
0?
0@
#7500
1&
1?
1@
xF!
0O!
1N!
01!
x<!
x,!
1D
#10000
0&
0?
0@
#12500
1&
1?
1@
xG!
1O!
11!
x:!
x-!
1E
0D
0A
#15000
0&
0?
0@
#17500
1&
1?
1@
xH!
1M!
0O!
0N!
01!
x8!
x.!
1D
#20000
0&
0?
0@
#22500
1&
1?
1@
xI!
1O!
11!
x6!
0D
1A
#25000
0&
0?
0@
#27500
1&
1?
1@
xJ!
0O!
1N!
01!
12!
x4!
x/!
1D
02!
#30000
0"
0&
0T
0?
0@
1[
1W
0C!
0D!
#32500
1&
1?
1@
xK!
1O!
11!
0v
0k
0R
0J
x0!
1F
12!
#35000
0&
0?
0@
#37500
1&
1?
1@
x@!
x?!
x=!
x;!
x9!
x7!
x5!
x3!
1G
16
x7
x8
x9
x:
x;
x<
x=
x>
01!
x'
x(
x)
x*
x+
x,
x-
x.
1/
02!
#40000
0&
0?
0@
#42500
1&
1?
1@
#45000
0&
0?
0@
#47500
1&
1?
1@
#50000
1"
0&
1T
0?
0@
0[
0W
#52500
1&
1?
1@
#55000
0&
0?
0@
#57500
1&
1?
1@
#60000
0&
0?
0@
#62500
1&
1?
1@
#65000
0&
0?
0@
#67500
1&
1?
1@
#70000
0&
0?
0@
#72500
1&
1?
1@
#75000
0&
0?
0@
#77500
1&
1?
1@
#80000
0%
0&
0B
0?
0C
0@
0)!
1%!
0!!
0|
0q
0n
0i
1f
0a
0^
1"!
0x
0t
1b
0\
0Y
0P
0N
0L
0I
1&!
0y
0u
1j
1c
0Q
0*!
1'!
1#!
0}
0z
0o
0l
1g
1d
0_
0N!
0O!
0M!
0]
0`
0e
0h
0m
0p
0{
0~
0$!
0(!
0E!
0F!
0G!
0H!
0I!
0J!
0K!
0G
06
1J
0/
0F
0E
0A
0>!
0+!
0<!
0,!
0:!
0-!
08!
0.!
06!
04!
0/!
00!
#82500
1&
1?
1@
#85000
0&
0?
0@
#87500
1&
1?
1@
#90000
0&
0?
0@
#92500
1&
1?
1@
#95000
0&
0?
0@
#97500
1&
1?
1@
#100000
0&
0?
0@
#102500
1&
1?
1@
#105000
0&
0?
0@
#107500
1&
1?
1@
#110000
1%
0&
1B
0?
1C
0@
#112500
1&
1?
1@
1(!
1$!
1h
1e
1O!
1)!
0%!
1i
0f
11!
0D
1A
0c
1*!
0'!
1l
0g
#115000
0&
0?
0@
#117500
1&
1?
1@
1E!
0(!
1m
0h
0O!
1N!
0)!
1n
0i
01!
1>!
1+!
1D
1k
0*!
1o
0l
#120000
0&
0?
0@
#122500
1&
1?
1@
1F!
0E!
1p
0m
1O!
1q
0n
11!
1<!
1,!
0>!
0+!
1E
0D
0A
0&!
0k
1z
0o
1v
1'!
1}
0z
#125000
0&
0?
0@
#127500
1&
1?
1@
1G!
0F!
1(!
1~
0p
1M!
0O!
0N!
1)!
1!!
0q
01!
1:!
1-!
0<!
0,!
1D
1&!
1*!
0#!
1z
0v
0'!
0}
0z
#130000
0&
0?
0@
#132500
1&
1?
1@
1H!
0G!
1E!
0(!
0$!
0~
1O!
0)!
1%!
0!!
11!
18!
1.!
0:!
0-!
1>!
1+!
0D
1A
0*!
1'!
1#!
#135000
0&
0?
0@
#137500
1&
1?
1@
1I!
0H!
1F!
0E!
1(!
1$!
0O!
1N!
1)!
0%!
01!
12!
16!
08!
0.!
1<!
1,!
0>!
0+!
1D
02!
1*!
0'!
#140000
0&
0?
0@
#142500
1&
1?
1@
1J!
0I!
1G!
0F!
1E!
0(!
1O!
0)!
11!
0J
14!
1/!
06!
1:!
1-!
0<!
0,!
1>!
1+!
1F
12!
0*!
#145000
0&
0?
0@
#147500
1&
1?
1@
1K!
0J!
1H!
0G!
1F!
0E!
0@!
1?!
0=!
1;!
09!
07!
15!
03!
1G
16
07
18
09
0:
1;
0<
1=
0>
01!
0'
1(
0)
1*
0+
0,
1-
0.
1/
10!
04!
0/!
18!
1.!
0:!
0-!
1<!
1,!
0>!
0+!
02!
#150000
0&
0?
0@
#152500
1&
1?
1@
#155000
0&
0?
0@
#157500
1&
1?
1@
#160000
0&
0?
0@
#162500
1&
1?
1@
#165000
0&
0?
0@
#167500
1&
1?
1@
#170000
0&
0?
0@
#172500
1&
1?
1@
#175000
0&
0?
0@
#177500
1&
1?
1@
#180000
0&
0?
0@
#182500
1&
1?
1@
#185000
0&
0?
0@
#187500
1&
1?
1@
#190000
0#
0&
0V
0?
0@
1[
1X
1D!
#192500
1&
1?
1@
#195000
0&
0?
0@
#197500
1&
1?
1@
#200000
0&
0?
0@
#202500
1&
1?
1@
#205000
0&
0?
0@
#207500
1&
1?
1@
#210000
1#
0&
1V
0?
0@
0[
0X
#212500
1&
1?
1@
#215000
0&
0?
0@
#217500
1&
1?
1@
#220000
0&
0?
0@
#222500
1&
1?
1@
#225000
0&
0?
0@
#227500
1&
1?
1@
#230000
b10 !
b1000010 !
b1010010 !
b1010011 !
0&
1H
1K
1O
0S
0?
0@
#232500
1&
1?
1@
#235000
0&
0?
0@
#237500
1&
1?
1@
#240000
0&
0?
0@
#242500
1&
1?
1@
#245000
0&
0?
0@
#247500
1&
1?
1@
#250000
0&
0?
0@
#252500
1&
1?
1@
#255000
0&
0?
0@
#257500
1&
1?
1@
#260000
0&
0?
0@
#262500
1&
1?
1@
#265000
0&
0?
0@
#267500
1&
1?
1@
#270000
0&
0?
0@
#272500
1&
1?
1@
#275000
0&
0?
0@
#277500
1&
1?
1@
#280000
0&
0?
0@
#282500
1&
1?
1@
#285000
0&
0?
0@
#287500
1&
1?
1@
#290000
0%
0&
0B
0?
0C
0@
1)!
1%!
1q
1i
1a
0b
1Y
1P
1L
1I
0&!
0j
1*!
1z
1l
1_
1g
1o
0N!
0O!
0M!
0e
0$!
0F!
0H!
0K!
0G
06
1v
1R
1J
0/
0F
0E
0A
0<!
0,!
08!
0.!
00!
0#!
1}
0z
0g
0d
1'!
0o
#292500
1&
1?
1@
#295000
0&
0?
0@
#297500
1&
1?
1@
#300000
0&
0?
0@
#302500
1&
1?
1@
#305000
0&
0?
0@
#307500
1&
1?
1@
#310000
1%
0&
1B
0?
1C
0@
#312500
1&
1?
1@
1E!
1(!
1~
1m
1`
1O!
0)!
1!!
1n
0a
11!
1>!
1+!
0D
1A
1y
1u
1k
1j
1c
1Q
0*!
1#!
1o
1d
0R
1z
0}
0o
0d
1g
#315000
0&
0?
0@
#317500
1&
1?
1@
1F!
0E!
1$!
0~
1{
1h
0O!
1N!
0%!
0!!
1|
0i
01!
1<!
1,!
0>!
0+!
1D
0u
0c
0Q
0'!
1}
0l
0}
#320000
0&
0?
0@
#322500
1&
1?
1@
1G!
0F!
0(!
0m
1O!
1)!
0n
11!
1:!
1-!
0<!
0,!
1E
0D
0A
0k
1*!
1o
#325000
0&
0?
0@
#327500
1&
1?
1@
1H!
0G!
1E!
1p
1M!
0O!
0N!
0q
01!
18!
1.!
0:!
0-!
1>!
1+!
1D
1&!
0z
0v
1'!
1}
#330000
0&
0?
0@
#332500
1&
1?
1@
1I!
0H!
1F!
1(!
1~
0{
1O!
0)!
1!!
0|
11!
16!
08!
0.!
1<!
1,!
0D
1A
0y
0*!
0#!
0}
#335000
0&
0?
0@
#337500
1&
1?
1@
1J!
0I!
1G!
0E!
0$!
0~
0O!
1N!
1%!
0!!
01!
12!
14!
1/!
06!
1:!
1-!
0>!
0+!
1D
02!
0'!
1#!
#340000
0&
0?
0@
#342500
1&
1?
1@
1K!
0J!
1H!
0F!
0(!
1$!
1O!
1)!
0%!
11!
0J
10!
04!
0/!
18!
1.!
0<!
0,!
1F
12!
1*!
1'!
#345000
0&
0?
0@
#347500
1&
1?
1@
0K!
1I!
0G!
1E!
1(!
1@!
0?!
19!
05!
13!
1G
16
17
08
1:
0=
1>
0)!
01!
1'
0(
1+
0-
1.
1/
00!
16!
0:!
0-!
1>!
1+!
02!
0*!
#350000
0&
0?
0@
#352500
1&
1?
1@
#355000
0&
0?
0@
#357500
1&
1?
1@
#360000
0$
0&
0U
0?
0@
1Z
1W
1C!
0D!
#362500
1&
1?
1@
#365000
0&
0?
0@
#367500
1&
1?
1@
#370000
0&
0?
0@
#372500
1&
1?
1@
#375000
0&
0?
0@
#377500
1&
1?
1@
#380000
1$
0&
1U
0?
0@
0Z
0W
#382500
1&
1?
1@
#385000
0&
0?
0@
#387500
1&
1?
1@
#390000
0&
0?
0@
#392500
1&
1?
1@
#395000
0&
0?
0@
#397500
1&
1?
1@
#400000
0&
0?
0@
#402500
1&
1?
1@
#405000
0&
0?
0@
#407500
1&
1?
1@
#410000
0&
0?
0@
#412500
1&
1?
1@
#415000
0&
0?
0@
#417500
1&
1?
1@
#420000
0&
0?
0@
#422500
1&
1?
1@
#425000
0&
0?
0@
#427500
1&
1?
1@
#430000
0&
0?
0@
#432500
1&
1?
1@
#435000
0&
0?
0@
#437500
1&
1?
1@
#440000
0&
0?
0@
#442500
1&
1?
1@
#445000
0&
0?
0@
#447500
1&
1?
1@
#450000
b1010001 !
b10001 !
0&
0r
0O
0?
0@
#452500
1&
1?
1@
#455000
0&
0?
0@
#457500
1&
1?
1@
#460000
0&
0?
0@
#462500
1&
1?
1@
#465000
0&
0?
0@
#467500
1&
1?
1@
#470000
0&
0?
0@
#472500
1&
1?
1@
#475000
0&
0?
0@
#477500
1&
1?
1@
#480000
0%
0&
0B
0?
0C
0@
1)!
1q
1^
0"!
1\
0Y
0P
0&!
1*!
1z
0#!
0g
0N!
0O!
0M!
0`
0h
0p
0$!
0(!
0E!
0H!
0I!
0G
06
1v
1J
0/
0F
0E
0A
0>!
0+!
08!
0.!
06!
1}
0z
0'!
#482500
1&
1?
1@
#485000
0&
0?
0@
#487500
1&
1?
1@
#490000
0&
0?
0@
#492500
1&
1?
1@
#495000
0&
0?
0@
#497500
1&
1?
1@
#500000
1%
0&
1B
0?
1C
0@
#502500
1&
1?
1@
1E!
1~
1p
1`
1]
1O!
1!!
0q
1a
0^
11!
1>!
1+!
0D
1A
1&!
0j
1#!
1z
1d
0_
0v
1R
1'!
0o
0}
0z
1g
0d
#505000
0&
0?
0@
#507500
1&
1?
1@
1F!
1(!
1$!
0~
0p
1h
0`
0O!
1N!
0)!
1%!
0!!
1q
1i
0a
01!
1<!
1,!
1D
0&!
1j
0*!
0'!
0#!
1z
1l
1d
1v
0R
1'!
1o
1#!
1}
0z
0g
0d
#510000
0&
0?
0@
#512500
1&
1?
1@
1G!
0E!
1~
1p
1m
0h
1O!
1!!
0q
1n
0i
11!
1:!
1-!
0>!
0+!
1E
0D
0A
1&!
1y
1u
1k
0#!
1z
0o
0l
0v
0'!
0z
0}
1#!
#515000
0&
0?
0@
#517500
1&
1?
1@
1H!
0F!
0(!
0~
0p
0m
1M!
0O!
0N!
1)!
0!!
1q
0n
01!
18!
1.!
0<!
0,!
1D
0&!
0y
0u
0k
1*!
0#!
1z
1o
1v
1'!
1#!
1}
0z
#520000
0&
0?
0@
#522500
1&
1?
1@
1I!
0G!
1E!
1(!
1~
1p
1O!
0)!
1!!
0q
11!
16!
0:!
0-!
1>!
1+!
0D
1A
1&!
1y
1u
0*!
0#!
1z
0v
0'!
0z
0}
1#!
#525000
0&
0?
0@
#527500
1&
1?
1@
1J!
0H!
1F!
0E!
0(!
0~
0O!
1N!
1)!
0!!
01!
12!
14!
1/!
08!
0.!
1<!
1,!
0>!
0+!
1D
0y
0u
02!
1*!
0#!
#530000
0&
0?
0@
#532500
1&
1?
1@
1K!
0I!
1G!
0F!
1E!
0$!
1O!
0%!
11!
0J
10!
06!
1:!
1-!
0<!
0,!
1>!
1+!
1F
12!
1'!
#535000
0&
0?
0@
#537500
1&
1?
1@
0J!
1H!
0G!
1F!
1(!
1?!
09!
15!
1G
16
18
0:
1=
0)!
01!
1(
0+
1-
1/
04!
0/!
18!
1.!
0:!
0-!
1<!
1,!
02!
0*!
#540000
0&
0?
0@
#542500
1&
1?
1@
#545000
0&
0?
0@
#547500
1&
1?
1@
#550000
0&
0?
0@
#552500
1&
1?
1@
#555000
0&
0?
0@
#557500
1&
1?
1@
#560000
0&
0?
0@
#562500
1&
1?
1@
#565000
0&
0?
0@
#567500
1&
1?
1@
#570000
0&
0?
0@
#572500
1&
1?
1@
#575000
0&
0?
0@
#577500
1&
1?
1@
#580000
0&
0?
0@
#582500
1&
1?
1@
#585000
0&
0?
0@
#587500
1&
1?
1@
#590000
0&
0?
0@
#592500
1&
1?
1@
#595000
0&
0?
0@
#597500
1&
1?
1@
#600000
0&
0?
0@
#602500
1&
1?
1@
#605000
0&
0?
0@
#607500
1&
1?
1@
#610000
0&
0?
0@
#612500
1&
1?
1@
#615000
0&
0?
0@
#617500
1&
1?
1@
#620000
0&
0?
0@
#622500
1&
1?
1@
#625000
0&
0?
0@
#627500
1&
1?
1@
#630000
0&
0?
0@
#632500
1&
1?
1@
#635000
0&
0?
0@
#637500
1&
1?
1@
#640000
0&
0?
0@
#642500
1&
1?
1@
#645000
0&
0?
0@
#647500
1&
1?
1@
#650000
0&
0?
0@
#652500
1&
1?
1@
#655000
0&
0?
0@
#657500
1&
1?
1@
#660000
0&
0?
0@
#662500
1&
1?
1@
#665000
0&
0?
0@
#667500
1&
1?
1@
#670000
0&
0?
0@
#672500
1&
1?
1@
#675000
0&
0?
0@
#677500
1&
1?
1@
#680000
0&
0?
0@
#682500
1&
1?
1@
#685000
0&
0?
0@
#687500
1&
1?
1@
#690000
0&
0?
0@
#692500
1&
1?
1@
#695000
0&
0?
0@
#697500
1&
1?
1@
#700000
0&
0?
0@
#702500
1&
1?
1@
#705000
0&
0?
0@
#707500
1&
1?
1@
#710000
0&
0?
0@
#712500
1&
1?
1@
#715000
0&
0?
0@
#717500
1&
1?
1@
#720000
0&
0?
0@
#722500
1&
1?
1@
#725000
0&
0?
0@
#727500
1&
1?
1@
#730000
0&
0?
0@
#732500
1&
1?
1@
#735000
0&
0?
0@
#737500
1&
1?
1@
#740000
0&
0?
0@
#742500
1&
1?
1@
#745000
0&
0?
0@
#747500
1&
1?
1@
#750000
0&
0?
0@
#752500
1&
1?
1@
#755000
0&
0?
0@
#757500
1&
1?
1@
#760000
0&
0?
0@
#762500
1&
1?
1@
#765000
0&
0?
0@
#767500
1&
1?
1@
#770000
0&
0?
0@
#772500
1&
1?
1@
#775000
0&
0?
0@
#777500
1&
1?
1@
#780000
0&
0?
0@
#782500
1&
1?
1@
#785000
0&
0?
0@
#787500
1&
1?
1@
#790000
0&
0?
0@
#792500
1&
1?
1@
#795000
0&
0?
0@
#797500
1&
1?
1@
#800000
0&
0?
0@
#802500
1&
1?
1@
#805000
0&
0?
0@
#807500
1&
1?
1@
#810000
0&
0?
0@
#812500
1&
1?
1@
#815000
0&
0?
0@
#817500
1&
1?
1@
#820000
0&
0?
0@
#822500
1&
1?
1@
#825000
0&
0?
0@
#827500
1&
1?
1@
#830000
0&
0?
0@
#832500
1&
1?
1@
#835000
0&
0?
0@
#837500
1&
1?
1@
#840000
0&
0?
0@
#842500
1&
1?
1@
#845000
0&
0?
0@
#847500
1&
1?
1@
#850000
0&
0?
0@
#852500
1&
1?
1@
#855000
0&
0?
0@
#857500
1&
1?
1@
#860000
0&
0?
0@
#862500
1&
1?
1@
#865000
0&
0?
0@
#867500
1&
1?
1@
#870000
0&
0?
0@
#872500
1&
1?
1@
#875000
0&
0?
0@
#877500
1&
1?
1@
#880000
0&
0?
0@
#882500
1&
1?
1@
#885000
0&
0?
0@
#887500
1&
1?
1@
#890000
0&
0?
0@
#892500
1&
1?
1@
#895000
0&
0?
0@
#897500
1&
1?
1@
#900000
0&
0?
0@
#902500
1&
1?
1@
#905000
0&
0?
0@
#907500
1&
1?
1@
#910000
0&
0?
0@
#912500
1&
1?
1@
#915000
0&
0?
0@
#917500
1&
1?
1@
#920000
0&
0?
0@
#922500
1&
1?
1@
#925000
0&
0?
0@
#927500
1&
1?
1@
#930000
0&
0?
0@
#932500
1&
1?
1@
#935000
0&
0?
0@
#937500
1&
1?
1@
#940000
0&
0?
0@
#942500
1&
1?
1@
#945000
0&
0?
0@
#947500
1&
1?
1@
#950000
0&
0?
0@
#952500
1&
1?
1@
#955000
0&
0?
0@
#957500
1&
1?
1@
#960000
0&
0?
0@
#962500
1&
1?
1@
#965000
0&
0?
0@
#967500
1&
1?
1@
#970000
0&
0?
0@
#972500
1&
1?
1@
#975000
0&
0?
0@
#977500
1&
1?
1@
#980000
0&
0?
0@
#982500
1&
1?
1@
#985000
0&
0?
0@
#987500
1&
1?
1@
#990000
0&
0?
0@
#992500
1&
1?
1@
#995000
0&
0?
0@
#997500
1&
1?
1@
