VHDL/HW2/ej1/simulation/qsim/ej1.msim.vcd
$comment
	File created using the following command:
		vcd file ej1.msim.vcd -direction
$end
$date
	Mon Apr 19 16:49:21 2021
$end
$version
	ModelSim Version 2020.1
$end
$timescale
	1ps
$end

$scope module ej1_vlg_vec_tst $end
$var reg 3 ! d [2:0] $end
$var wire 1 " q [1] $end
$var wire 1 # q [0] $end

$scope module i1 $end
$var wire 1 $ gnd $end
$var wire 1 % vcc $end
$var wire 1 & unknown $end
$var tri1 1 ' devclrn $end
$var tri1 1 ( devpor $end
$var tri1 1 ) devoe $end
$var wire 1 * q[0]~output_o $end
$var wire 1 + q[1]~output_o $end
$var wire 1 , d[2]~input_o $end
$var wire 1 - d[1]~input_o $end
$var wire 1 . d[0]~input_o $end
$var wire 1 / num_bits~0_combout $end
$var wire 1 0 num_bits~1_combout $end
$upscope $end
$upscope $end
$enddefinitions $end
#0
$dumpvars
b0 !
x#
x"
0$
1%
x&
1'
1(
1)
x*
x+
0,
0-
0.
x/
x0
$end
#3315
0/
#3416
00
#6330
0+
0"
#7793
0*
0#
#50000
b1 !
#50516
1.
#53136
1/
#57539
1*
1#
#100000
b11 !
b10 !
#100516
1-
#100681
0.
#150000
b11 !
#150516
1.
#153126
0/
#153135
10
#156068
1+
1"
#157604
0*
0#
#200000
b111 !
b101 !
b100 !
#200516
1,
#200681
0-
0.
#203995
00
#203997
1/
#206909
0+
0"
#208400
1*
1#
#250000
b101 !
#250516
1.
#253126
0/
#253135
10
#256068
1+
1"
#257604
0*
0#
#300000
b111 !
b110 !
#300516
1-
#300681
0.
#350000
b111 !
#350516
1.
#353136
1/
#357539
1*
1#
#400000
b11 !
b1 !
b0 !
#400681
0,
0-
0.
#403542
0/
#404097
00
#407011
0+
0"
#408020
0*
0#
#450000
b1 !
#450516
1.
#453136
1/
#457539
1*
1#
#500000
b11 !
b10 !
#500516
1-
#500681
0.
#550000
b11 !
#550516
1.
#553126
0/
#553135
10
#556068
1+
1"
#557604
0*
0#
#600000
b111 !
b101 !
b100 !
#600516
1,
#600681
0-
0.
#603995
00
#603997
1/
#606909
0+
0"
#608400
1*
1#
#650000
b101 !
#650516
1.
#653126
0/
#653135
10
#656068
1+
1"
#657604
0*
0#
#700000
b111 !
b110 !
#700516
1-
#700681
0.
#750000
b111 !
#750516
1.
#753136
1/
#757539
1*
1#
#800000
b11 !
b1 !
b0 !
#800681
0,
0-
0.
#803542
0/
#804097
00
#807011
0+
0"
#808020
0*
0#
#850000
b1 !
#850516
1.
#853136
1/
#857539
1*
1#
#900000
b11 !
b10 !
#900516
1-
#900681
0.
#950000
b11 !
#950516
1.
#953126
0/
#953135
10
#956068
1+
1"
#957604
0*
0#
