VHDL/Proyecto_4/codigo/simulation/qsim/mcd.msim.vcd
$comment
	File created using the following command:
		vcd file mcd.msim.vcd -direction
$end
$date
	Sun Jun 13 21:24:21 2021
$end
$version
	ModelSim Version 2020.1
$end
$timescale
	1ps
$end

$scope module mcd_vlg_vec_tst $end
$var reg 8 ! dato [7:0] $end
$var reg 1 " nreset $end
$var reg 1 # pulsoa $end
$var reg 1 $ pulsob $end
$var reg 1 % reloj $end
$var wire 1 & fin $end

$scope module i1 $end
$var wire 1 ' gnd $end
$var wire 1 ( vcc $end
$var wire 1 ) unknown $end
$var tri1 1 * devclrn $end
$var tri1 1 + devpor $end
$var tri1 1 , devoe $end
$var wire 1 - fin~output_o $end
$var wire 1 . reloj~input_o $end
$var wire 1 / reloj~inputclkctrl_outclk $end
$var wire 1 0 pulsoa~input_o $end
$var wire 1 1 Selector15~0_combout $end
$var wire 1 2 a[0]~1_combout $end
$var wire 1 3 nreset~input_o $end
$var wire 1 4 nreset~inputclkctrl_outclk $end
$var wire 1 5 estado.ereset~q $end
$var wire 1 6 WideOr0~0_combout $end
$var wire 1 7 pulsob~input_o $end
$var wire 1 8 Selector9~0_combout $end
$var wire 1 9 estado.e1~q $end
$var wire 1 : Selector8~1_combout $end
$var wire 1 ; Selector10~0_combout $end
$var wire 1 < estado.e2~q $end
$var wire 1 = estado~20_combout $end
$var wire 1 > Selector14~15_combout $end
$var wire 1 ? Selector14~8_combout $end
$var wire 1 @ dato[7]~input_o $end
$var wire 1 A Selector0~0_combout $end
$var wire 1 B a[0]~0_combout $end
$var wire 1 C Add0~15_combout $end
$var wire 1 D Add0~14_combout $end
$var wire 1 E dato[6]~input_o $end
$var wire 1 F Selector17~0_combout $end
$var wire 1 G b[7]~0_combout $end
$var wire 1 H Add0~12_combout $end
$var wire 1 I dato[5]~input_o $end
$var wire 1 J Selector2~0_combout $end
$var wire 1 K Add0~11_combout $end
$var wire 1 L dato[4]~input_o $end
$var wire 1 M Selector19~0_combout $end
$var wire 1 N Add0~8_combout $end
$var wire 1 O Add0~7_combout $end
$var wire 1 P dato[2]~input_o $end
$var wire 1 Q Selector5~0_combout $end
$var wire 1 R Add0~5_combout $end
$var wire 1 S dato[1]~input_o $end
$var wire 1 T Selector6~0_combout $end
$var wire 1 U Add0~3_combout $end
$var wire 1 V dato[0]~input_o $end
$var wire 1 W Selector23~0_combout $end
$var wire 1 X Add0~0_combout $end
$var wire 1 Y r[0]~8_combout $end
$var wire 1 Z Selector7~0_combout $end
$var wire 1 [ Add0~1_combout $end
$var wire 1 \ r[0]~9 $end
$var wire 1 ] r[1]~10_combout $end
$var wire 1 ^ Selector22~0_combout $end
$var wire 1 _ Add0~2_combout $end
$var wire 1 ` r[1]~11 $end
$var wire 1 a r[2]~12_combout $end
$var wire 1 b Selector21~0_combout $end
$var wire 1 c Add0~4_combout $end
$var wire 1 d r[2]~13 $end
$var wire 1 e r[3]~14_combout $end
$var wire 1 f dato[3]~input_o $end
$var wire 1 g Selector20~0_combout $end
$var wire 1 h Add0~6_combout $end
$var wire 1 i r[3]~15 $end
$var wire 1 j r[4]~16_combout $end
$var wire 1 k Selector3~0_combout $end
$var wire 1 l Add0~9_combout $end
$var wire 1 m r[4]~17 $end
$var wire 1 n r[5]~18_combout $end
$var wire 1 o Selector18~0_combout $end
$var wire 1 p Add0~10_combout $end
$var wire 1 q r[5]~19 $end
$var wire 1 r r[6]~20_combout $end
$var wire 1 s Selector1~0_combout $end
$var wire 1 t Add0~13_combout $end
$var wire 1 u r[6]~21 $end
$var wire 1 v r[7]~22_combout $end
$var wire 1 w Selector16~0_combout $end
$var wire 1 x LessThan0~1_cout $end
$var wire 1 y LessThan0~3_cout $end
$var wire 1 z LessThan0~5_cout $end
$var wire 1 { LessThan0~7_cout $end
$var wire 1 | LessThan0~9_cout $end
$var wire 1 } LessThan0~11_cout $end
$var wire 1 ~ LessThan0~13_cout $end
$var wire 1 !! LessThan0~14_combout $end
$var wire 1 "! Equal2~0_combout $end
$var wire 1 #! Equal2~2_combout $end
$var wire 1 $! Equal2~3_combout $end
$var wire 1 %! Equal2~1_combout $end
$var wire 1 &! Equal2~4_combout $end
$var wire 1 '! Selector14~9_combout $end
$var wire 1 (! LessThan2~1_cout $end
$var wire 1 )! LessThan2~3_cout $end
$var wire 1 *! LessThan2~5_cout $end
$var wire 1 +! LessThan2~7_cout $end
$var wire 1 ,! LessThan2~9_cout $end
$var wire 1 -! LessThan2~11_cout $end
$var wire 1 .! LessThan2~13_cout $end
$var wire 1 /! LessThan2~14_combout $end
$var wire 1 0! Selector14~10_combout $end
$var wire 1 1! LessThan1~1_cout $end
$var wire 1 2! LessThan1~3_cout $end
$var wire 1 3! LessThan1~5_cout $end
$var wire 1 4! LessThan1~7_cout $end
$var wire 1 5! LessThan1~9_cout $end
$var wire 1 6! LessThan1~11_cout $end
$var wire 1 7! LessThan1~13_cout $end
$var wire 1 8! LessThan1~14_combout $end
$var wire 1 9! Equal1~3_combout $end
$var wire 1 :! Equal1~2_combout $end
$var wire 1 ;! Equal1~0_combout $end
$var wire 1 <! Equal1~1_combout $end
$var wire 1 =! Equal1~4_combout $end
$var wire 1 >! Selector14~11_combout $end
$var wire 1 ?! Selector14~12_combout $end
$var wire 1 @! Selector14~13_combout $end
$var wire 1 A! Selector14~14_combout $end
$var wire 1 B! estado.ebmayor~q $end
$var wire 1 C! estado.e4~q $end
$var wire 1 D! Selector13~4_combout $end
$var wire 1 E! Selector13~5_combout $end
$var wire 1 F! Selector13~6_combout $end
$var wire 1 G! Selector13~7_combout $end
$var wire 1 H! Selector13~8_combout $end
$var wire 1 I! estado.eamayor~q $end
$var wire 1 J! estado.e3~q $end
$var wire 1 K! Selector4~0_combout $end
$var wire 1 L! Equal0~1_combout $end
$var wire 1 M! Equal0~0_combout $end
$var wire 1 N! Equal0~3_combout $end
$var wire 1 O! Equal0~2_combout $end
$var wire 1 P! Equal0~4_combout $end
$var wire 1 Q! Selector15~1_combout $end
$var wire 1 R! Selector15~2_combout $end
$var wire 1 S! estado.efin~q $end
$var wire 1 T! fin~0_combout $end
$var wire 1 U! fin~reg0_q $end
$var wire 1 V! a [7] $end
$var wire 1 W! a [6] $end
$var wire 1 X! a [5] $end
$var wire 1 Y! a [4] $end
$var wire 1 Z! a [3] $end
$var wire 1 [! a [2] $end
$var wire 1 \! a [1] $end
$var wire 1 ]! a [0] $end
$var wire 1 ^! b [7] $end
$var wire 1 _! b [6] $end
$var wire 1 `! b [5] $end
$var wire 1 a! b [4] $end
$var wire 1 b! b [3] $end
$var wire 1 c! b [2] $end
$var wire 1 d! b [1] $end
$var wire 1 e! b [0] $end
$var wire 1 f! r [7] $end
$var wire 1 g! r [6] $end
$var wire 1 h! r [5] $end
$var wire 1 i! r [4] $end
$var wire 1 j! r [3] $end
$var wire 1 k! r [2] $end
$var wire 1 l! r [1] $end
$var wire 1 m! r [0] $end
$upscope $end
$upscope $end
$enddefinitions $end
#0
$dumpvars
b0 !
1"
0#
0$
0%
0&
0'
1(
x)
1*
1+
1,
0-
0.
0/
00
01
12
13
14
05
06
07
18
09
0:
0;
0<
0=
1>
0?
0@
0A
1B
0C
0D
0E
0F
0G
0H
0I
0J
0K
0L
0M
0N
0O
0P
0Q
0R
0S
0T
0U
0V
0W
0X
0Y
0Z
0[
1\
0]
0^
0_
0`
0a
0b
0c
1d
0e
0f
0g
0h
0i
0j
0k
0l
1m
0n
0o
0p
0q
0r
0s
0t
1u
0v
0w
0x
1y
0z
1{
0|
1}
0~
0!!
1"!
1#!
1$!
1%!
1&!
0'!
0(!
1)!
0*!
1+!
0,!
1-!
0.!
0/!
00!
01!
12!
03!
14!
05!
16!
07!
08!
19!
1:!
1;!
1<!
1=!
1>!
1?!
0@!
0A!
0B!
0C!
0D!
1E!
1F!
0G!
0H!
0I!
0J!
0K!
1L!
1M!
1N!
1O!
1P!
0Q!
0R!
0S!
0T!
0U!
0]!
0\!
0[!
0Z!
0Y!
0X!
0W!
0V!
0e!
0d!
0c!
0b!
0a!
0`!
0_!
0^!
0m!
0l!
0k!
0j!
0i!
0h!
0g!
0f!
$end
#2500
1%
1.
1/
19
15
1G
0B
16
1;
08
#5000
0%
0.
0/
#7500
1%
1.
1/
1<
09
1'!
0>
0G
1R!
0;
0F!
0E!
0?!
0>!
1G!
1@!
0G!
0@!
1H!
1A!
0H!
0A!
#10000
0%
0.
0/
#12500
1%
1.
1/
1S!
0<
1B
06
0'!
1>
0R!
1E!
1>!
1G!
18
1F!
1?!
1H!
0G!
0H!
#15000
0%
0.
0/
#17500
1%
1.
1/
0S!
19
0B
16
1G
1;
08
#20000
0%
0.
0/
#22500
1%
1.
1/
1<
09
1'!
0>
0G
1R!
0;
0F!
0E!
0?!
0>!
1G!
1@!
0G!
0@!
1H!
1A!
0H!
0A!
#25000
0%
0.
0/
#27500
1%
1.
1/
1S!
0<
1B
06
0'!
1>
0R!
1E!
1>!
1G!
18
1F!
1?!
1H!
0G!
0H!
#30000
0%
0.
0/
#32500
1%
1.
1/
0S!
19
0B
16
1G
1;
08
#35000
0%
0.
0/
#37500
1%
1.
1/
1<
09
1'!
0>
0G
1R!
0;
0F!
0E!
0?!
0>!
1G!
1@!
0G!
0@!
1H!
1A!
0H!
0A!
#40000
0%
0.
0/
#42500
1%
1.
1/
1S!
0<
1B
06
0'!
1>
0R!
1E!
1>!
1G!
18
1F!
1?!
1H!
0G!
0H!
#45000
0%
0.
0/
#47500
1%
1.
1/
0S!
19
0B
16
1G
1;
08
#50000
0%
0.
0/
#52500
1%
1.
1/
1<
09
1'!
0>
0G
1R!
0;
0F!
0E!
0?!
0>!
1G!
1@!
0G!
0@!
1H!
1A!
0H!
0A!
#55000
0%
0.
0/
#57500
1%
1.
1/
1S!
0<
1B
06
0'!
1>
0R!
1E!
1>!
1G!
18
1F!
1?!
1H!
0G!
0H!
#60000
0%
0.
0/
#62500
1%
1.
1/
0S!
19
0B
16
1G
1;
08
#65000
0%
0.
0/
#67500
1%
1.
1/
1<
09
1'!
0>
0G
1R!
0;
0F!
0E!
0?!
0>!
1G!
1@!
0G!
0@!
1H!
1A!
0H!
0A!
#70000
0%
0.
0/
#72500
1%
1.
1/
1S!
0<
1B
06
0'!
1>
0R!
1E!
1>!
1G!
18
1F!
1?!
1H!
0G!
0H!
#75000
0%
0.
0/
#77500
1%
1.
1/
0S!
19
0B
16
1G
1;
08
#80000
0%
0.
0/
#82500
1%
1.
1/
1<
09
1'!
0>
0G
1R!
0;
0F!
0E!
0?!
0>!
1G!
1@!
0G!
0@!
1H!
1A!
0H!
0A!
#85000
0%
0.
0/
#87500
1%
1.
1/
1S!
0<
1B
06
0'!
1>
0R!
1E!
1>!
1G!
18
1F!
1?!
1H!
0G!
0H!
#90000
0%
0.
0/
#92500
1%
1.
1/
0S!
19
0B
16
1G
1;
08
#95000
0%
0.
0/
#97500
1%
1.
1/
1<
09
1'!
0>
0G
1R!
0;
0F!
0E!
0?!
0>!
1G!
1@!
0G!
0@!
1H!
1A!
0H!
0A!
#100000
0%
0.
0/
#102500
1%
1.
1/
1S!
0<
1B
06
0'!
1>
0R!
1E!
1>!
1G!
18
1F!
1?!
1H!
0G!
0H!
#105000
0%
0.
0/
#107500
1%
1.
1/
0S!
19
0B
16
1G
1;
08
#110000
0%
0.
0/
#112500
1%
1.
1/
1<
09
1'!
0>
0G
1R!
0;
0F!
0E!
0?!
0>!
1G!
1@!
0G!
0@!
1H!
1A!
0H!
0A!
#115000
0%
0.
0/
#117500
1%
1.
1/
1S!
0<
1B
06
0'!
1>
0R!
1E!
1>!
1G!
18
1F!
1?!
1H!
0G!
0H!
#120000
0%
0.
0/
#122500
1%
1.
1/
0S!
19
0B
16
1G
1;
08
#125000
0%
0.
0/
#127500
1%
1.
1/
1<
09
1'!
0>
0G
1R!
0;
0F!
0E!
0?!
0>!
1G!
1@!
0G!
0@!
1H!
1A!
0H!
0A!
#130000
0%
0.
0/
#132500
1%
1.
1/
1S!
0<
1B
06
0'!
1>
0R!
1E!
1>!
1G!
18
1F!
1?!
1H!
0G!
0H!
#135000
0%
0.
0/
#137500
1%
1.
1/
0S!
19
0B
16
1G
1;
08
#140000
0%
0.
0/
#142500
1%
1.
1/
1<
09
1'!
0>
0G
1R!
0;
0F!
0E!
0?!
0>!
1G!
1@!
0G!
0@!
1H!
1A!
0H!
0A!
#145000
0%
0.
0/
#147500
1%
1.
1/
1S!
0<
1B
06
0'!
1>
0R!
1E!
1>!
1G!
18
1F!
1?!
1H!
0G!
0H!
#150000
0%
0.
0/
#152500
1%
1.
1/
0S!
19
0B
16
1G
1;
08
#155000
0%
0.
0/
#157500
1%
1.
1/
1<
09
1'!
0>
0G
1R!
0;
0F!
0E!
0?!
0>!
1G!
1@!
0G!
0@!
1H!
1A!
0H!
0A!
#160000
0%
0.
0/
#162500
1%
1.
1/
1S!
0<
1B
06
0'!
1>
0R!
1E!
1>!
1G!
18
1F!
1?!
1H!
0G!
0H!
#165000
0%
0.
0/
#167500
1%
1.
1/
0S!
19
0B
16
1G
1;
08
#170000
0%
0.
0/
#172500
1%
1.
1/
1<
09
1'!
0>
0G
1R!
0;
0F!
0E!
0?!
0>!
1G!
1@!
0G!
0@!
1H!
1A!
0H!
0A!
#175000
0%
0.
0/
#177500
1%
1.
1/
1S!
0<
1B
06
0'!
1>
0R!
1E!
1>!
1G!
18
1F!
1?!
1H!
0G!
0H!
#180000
0%
0.
0/
#182500
1%
1.
1/
0S!
19
0B
16
1G
1;
08
#185000
0%
0.
0/
#187500
1%
1.
1/
1<
09
1'!
0>
0G
1R!
0;
0F!
0E!
0?!
0>!
1G!
1@!
0G!
0@!
1H!
1A!
0H!
0A!
#190000
0%
0.
0/
#192500
1%
1.
1/
1S!
0<
1B
06
0'!
1>
0R!
1E!
1>!
1G!
18
1F!
1?!
1H!
0G!
0H!
#195000
0%
0.
0/
#197500
1%
1.
1/
0S!
19
0B
16
1G
1;
08
#200000
0%
0.
0/
#202500
1%
1.
1/
1<
09
1'!
0>
0G
1R!
0;
0F!
0E!
0?!
0>!
1G!
1@!
0G!
0@!
1H!
1A!
0H!
0A!
#205000
0%
0.
0/
#207500
1%
1.
1/
1S!
0<
1B
06
0'!
1>
0R!
1E!
1>!
1G!
18
1F!
1?!
1H!
0G!
0H!
#210000
0%
0.
0/
#212500
1%
1.
1/
0S!
19
0B
16
1G
1;
08
#215000
0%
0.
0/
#217500
1%
1.
1/
1<
09
1'!
0>
0G
1R!
0;
0F!
0E!
0?!
0>!
1G!
1@!
0G!
0@!
1H!
1A!
0H!
0A!
#220000
0%
0.
0/
#222500
1%
1.
1/
1S!
0<
1B
06
0'!
1>
0R!
1E!
1>!
1G!
18
1F!
1?!
1H!
0G!
0H!
#225000
0%
0.
0/
#227500
1%
1.
1/
0S!
19
0B
16
1G
1;
08
#230000
0%
0.
0/
#232500
1%
1.
1/
1<
09
1'!
0>
0G
1R!
0;
0F!
0E!
0?!
0>!
1G!
1@!
0G!
0@!
1H!
1A!
0H!
0A!
#235000
0%
0.
0/
#237500
1%
1.
1/
1S!
0<
1B
06
0'!
1>
0R!
1E!
1>!
1G!
18
1F!
1?!
1H!
0G!
0H!
#240000
0%
0.
0/
#242500
1%
1.
1/
0S!
19
0B
16
1G
1;
08
#245000
0%
0.
0/
#247500
1%
1.
1/
1<
09
1'!
0>
0G
1R!
0;
0F!
0E!
0?!
0>!
1G!
1@!
0G!
0@!
1H!
1A!
0H!
0A!
#250000
0%
0.
0/
#252500
1%
1.
1/
1S!
0<
1B
06
0'!
1>
0R!
1E!
1>!
1G!
18
1F!
1?!
1H!
0G!
0H!
#255000
0%
0.
0/
#257500
1%
1.
1/
0S!
19
0B
16
1G
1;
08
#260000
0%
0.
0/
#262500
1%
1.
1/
1<
09
1'!
0>
0G
1R!
0;
0F!
0E!
0?!
0>!
1G!
1@!
0G!
0@!
1H!
1A!
0H!
0A!
#265000
0%
0.
0/
#267500
1%
1.
1/
1S!
0<
1B
06
0'!
1>
0R!
1E!
1>!
1G!
18
1F!
1?!
1H!
0G!
0H!
#270000
0%
0.
0/
#272500
1%
1.
1/
0S!
19
0B
16
1G
1;
08
#275000
0%
0.
0/
#277500
1%
1.
1/
1<
09
1'!
0>
0G
1R!
0;
0F!
0E!
0?!
0>!
1G!
1@!
0G!
0@!
1H!
1A!
0H!
0A!
#280000
0%
0.
0/
#282500
1%
1.
1/
1S!
0<
1B
06
0'!
1>
0R!
1E!
1>!
1G!
18
1F!
1?!
1H!
0G!
0H!
#285000
0%
0.
0/
#287500
1%
1.
1/
0S!
19
0B
16
1G
1;
08
#290000
0%
0.
0/
#292500
1%
1.
1/
1<
09
1'!
0>
0G
1R!
0;
0F!
0E!
0?!
0>!
1G!
1@!
0G!
0@!
1H!
1A!
0H!
0A!
#295000
0%
0.
0/
#297500
1%
1.
1/
1S!
0<
1B
06
0'!
1>
0R!
1E!
1>!
1G!
18
1F!
1?!
1H!
0G!
0H!
#300000
0%
0.
0/
#302500
1%
1.
1/
0S!
19
0B
16
1G
1;
08
#305000
0%
0.
0/
#307500
1%
1.
1/
1<
09
1'!
0>
0G
1R!
0;
0F!
0E!
0?!
0>!
1G!
1@!
0G!
0@!
1H!
1A!
0H!
0A!
#310000
0%
0.
0/
#312500
1%
1.
1/
1S!
0<
1B
06
0'!
1>
0R!
1E!
1>!
1G!
18
1F!
1?!
1H!
0G!
0H!
#315000
0%
0.
0/
#317500
1%
1.
1/
0S!
19
0B
16
1G
1;
08
#320000
0%
0.
0/
#322500
1%
1.
1/
1<
09
1'!
0>
0G
1R!
0;
0F!
0E!
0?!
0>!
1G!
1@!
0G!
0@!
1H!
1A!
0H!
0A!
#325000
0%
0.
0/
#327500
1%
1.
1/
1S!
0<
1B
06
0'!
1>
0R!
1E!
1>!
1G!
18
1F!
1?!
1H!
0G!
0H!
#330000
0%
0.
0/
#332500
1%
1.
1/
0S!
19
0B
16
1G
1;
08
#335000
0%
0.
0/
#337500
1%
1.
1/
1<
09
1'!
0>
0G
1R!
0;
0F!
0E!
0?!
0>!
1G!
1@!
0G!
0@!
1H!
1A!
0H!
0A!
#340000
0%
0.
0/
#342500
1%
1.
1/
1S!
0<
1B
06
0'!
1>
0R!
1E!
1>!
1G!
18
1F!
1?!
1H!
0G!
0H!
#345000
0%
0.
0/
#347500
1%
1.
1/
0S!
19
0B
16
1G
1;
08
#350000
0%
0.
0/
#352500
1%
1.
1/
1<
09
1'!
0>
0G
1R!
0;
0F!
0E!
0?!
0>!
1G!
1@!
0G!
0@!
1H!
1A!
0H!
0A!
#355000
0%
0.
0/
#357500
1%
1.
1/
1S!
0<
1B
06
0'!
1>
0R!
1E!
1>!
1G!
18
1F!
1?!
1H!
0G!
0H!
#360000
0%
0.
0/
#362500
1%
1.
1/
0S!
19
0B
16
1G
1;
08
#365000
0%
0.
0/
#367500
1%
1.
1/
1<
09
1'!
0>
0G
1R!
0;
0F!
0E!
0?!
0>!
1G!
1@!
0G!
0@!
1H!
1A!
0H!
0A!
#370000
0%
0.
0/
#372500
1%
1.
1/
1S!
0<
1B
06
0'!
1>
0R!
1E!
1>!
1G!
18
1F!
1?!
1H!
0G!
0H!
#375000
0%
0.
0/
#377500
1%
1.
1/
0S!
19
0B
16
1G
1;
08
#380000
0%
0.
0/
#382500
1%
1.
1/
1<
09
1'!
0>
0G
1R!
0;
0F!
0E!
0?!
0>!
1G!
1@!
0G!
0@!
1H!
1A!
0H!
0A!
#385000
0%
0.
0/
#387500
1%
1.
1/
1S!
0<
1B
06
0'!
1>
0R!
1E!
1>!
1G!
18
1F!
1?!
1H!
0G!
0H!
#390000
0%
0.
0/
#392500
1%
1.
1/
0S!
19
0B
16
1G
1;
08
#395000
0%
0.
0/
#397500
1%
1.
1/
1<
09
1'!
0>
0G
1R!
0;
0F!
0E!
0?!
0>!
1G!
1@!
0G!
0@!
1H!
1A!
0H!
0A!
#400000
0%
0.
0/
#402500
1%
1.
1/
1S!
0<
1B
06
0'!
1>
0R!
1E!
1>!
1G!
18
1F!
1?!
1H!
0G!
0H!
#405000
0%
0.
0/
#407500
1%
1.
1/
0S!
19
0B
16
1G
1;
08
#410000
0%
0.
0/
#412500
1%
1.
1/
1<
09
1'!
0>
0G
1R!
0;
0F!
0E!
0?!
0>!
1G!
1@!
0G!
0@!
1H!
1A!
0H!
0A!
#415000
0%
0.
0/
#417500
1%
1.
1/
1S!
0<
1B
06
0'!
1>
0R!
1E!
1>!
1G!
18
1F!
1?!
1H!
0G!
0H!
#420000
0%
0.
0/
#422500
1%
1.
1/
0S!
19
0B
16
1G
1;
08
#425000
0%
0.
0/
#427500
1%
1.
1/
1<
09
1'!
0>
0G
1R!
0;
0F!
0E!
0?!
0>!
1G!
1@!
0G!
0@!
1H!
1A!
0H!
0A!
#430000
0%
0.
0/
#432500
1%
1.
1/
1S!
0<
1B
06
0'!
1>
0R!
1E!
1>!
1G!
18
1F!
1?!
1H!
0G!
0H!
#435000
0%
0.
0/
#437500
1%
1.
1/
0S!
19
0B
16
1G
1;
08
#440000
0%
0.
0/
#442500
1%
1.
1/
1<
09
1'!
0>
0G
1R!
0;
0F!
0E!
0?!
0>!
1G!
1@!
0G!
0@!
1H!
1A!
0H!
0A!
#445000
0%
0.
0/
#447500
1%
1.
1/
1S!
0<
1B
06
0'!
1>
0R!
1E!
1>!
1G!
18
1F!
1?!
1H!
0G!
0H!
#450000
0%
0.
0/
#452500
1%
1.
1/
0S!
19
0B
16
1G
1;
08
#455000
0%
0.
0/
#457500
1%
1.
1/
1<
09
1'!
0>
0G
1R!
0;
0F!
0E!
0?!
0>!
1G!
1@!
0G!
0@!
1H!
1A!
0H!
0A!
#460000
0%
0.
0/
#462500
1%
1.
1/
1S!
0<
1B
06
0'!
1>
0R!
1E!
1>!
1G!
18
1F!
1?!
1H!
0G!
0H!
#465000
0%
0.
0/
#467500
1%
1.
1/
0S!
19
0B
16
1G
1;
08
#470000
0%
0.
0/
#472500
1%
1.
1/
1<
09
1'!
0>
0G
1R!
0;
0F!
0E!
0?!
0>!
1G!
1@!
0G!
0@!
1H!
1A!
0H!
0A!
#475000
0%
0.
0/
#477500
1%
1.
1/
1S!
0<
1B
06
0'!
1>
0R!
1E!
1>!
1G!
18
1F!
1?!
1H!
0G!
0H!
#480000
0%
0.
0/
#482500
1%
1.
1/
0S!
19
0B
16
1G
1;
08
#485000
0%
0.
0/
#487500
1%
1.
1/
1<
09
1'!
0>
0G
1R!
0;
0F!
0E!
0?!
0>!
1G!
1@!
0G!
0@!
1H!
1A!
0H!
0A!
#490000
0%
0.
0/
#492500
1%
1.
1/
1S!
0<
1B
06
0'!
1>
0R!
1E!
1>!
1G!
18
1F!
1?!
1H!
0G!
0H!
#495000
0%
0.
0/
#497500
1%
1.
1/
0S!
19
0B
16
1G
1;
08
#500000
0%
0.
0/
#502500
1%
1.
1/
1<
09
1'!
0>
0G
1R!
0;
0F!
0E!
0?!
0>!
1G!
1@!
0G!
0@!
1H!
1A!
0H!
0A!
#505000
0%
0.
0/
#507500
1%
1.
1/
1S!
0<
1B
06
0'!
1>
0R!
1E!
1>!
1G!
18
1F!
1?!
1H!
0G!
0H!
#510000
0%
0.
0/
#512500
1%
1.
1/
0S!
19
0B
16
1G
1;
08
#515000
0%
0.
0/
#517500
1%
1.
1/
1<
09
1'!
0>
0G
1R!
0;
0F!
0E!
0?!
0>!
1G!
1@!
0G!
0@!
1H!
1A!
0H!
0A!
#520000
0%
0.
0/
#522500
1%
1.
1/
1S!
0<
1B
06
0'!
1>
0R!
1E!
1>!
1G!
18
1F!
1?!
1H!
0G!
0H!
#525000
0%
0.
0/
#527500
1%
1.
1/
0S!
19
0B
16
1G
1;
08
#530000
0%
0.
0/
#532500
1%
1.
1/
1<
09
1'!
0>
0G
1R!
0;
0F!
0E!
0?!
0>!
1G!
1@!
0G!
0@!
1H!
1A!
0H!
0A!
#535000
0%
0.
0/
#537500
1%
1.
1/
1S!
0<
1B
06
0'!
1>
0R!
1E!
1>!
1G!
18
1F!
1?!
1H!
0G!
0H!
#540000
0%
0.
0/
#542500
1%
1.
1/
0S!
19
0B
16
1G
1;
08
#545000
0%
0.
0/
#547500
1%
1.
1/
1<
09
1'!
0>
0G
1R!
0;
0F!
0E!
0?!
0>!
1G!
1@!
0G!
0@!
1H!
1A!
0H!
0A!
#550000
0%
0.
0/
#552500
1%
1.
1/
1S!
0<
1B
06
0'!
1>
0R!
1E!
1>!
1G!
18
1F!
1?!
1H!
0G!
0H!
#555000
0%
0.
0/
#557500
1%
1.
1/
0S!
19
0B
16
1G
1;
08
#560000
0%
0.
0/
#562500
1%
1.
1/
1<
09
1'!
0>
0G
1R!
0;
0F!
0E!
0?!
0>!
1G!
1@!
0G!
0@!
1H!
1A!
0H!
0A!
#565000
0%
0.
0/
#567500
1%
1.
1/
1S!
0<
1B
06
0'!
1>
0R!
1E!
1>!
1G!
18
1F!
1?!
1H!
0G!
0H!
#570000
0%
0.
0/
#572500
1%
1.
1/
0S!
19
0B
16
1G
1;
08
#575000
0%
0.
0/
#577500
1%
1.
1/
1<
09
1'!
0>
0G
1R!
0;
0F!
0E!
0?!
0>!
1G!
1@!
0G!
0@!
1H!
1A!
0H!
0A!
#580000
0%
0.
0/
#582500
1%
1.
1/
1S!
0<
1B
06
0'!
1>
0R!
1E!
1>!
1G!
18
1F!
1?!
1H!
0G!
0H!
#585000
0%
0.
0/
#587500
1%
1.
1/
0S!
19
0B
16
1G
1;
08
#590000
0%
0.
0/
#592500
1%
1.
1/
1<
09
1'!
0>
0G
1R!
0;
0F!
0E!
0?!
0>!
1G!
1@!
0G!
0@!
1H!
1A!
0H!
0A!
#595000
0%
0.
0/
#597500
1%
1.
1/
1S!
0<
1B
06
0'!
1>
0R!
1E!
1>!
1G!
18
1F!
1?!
1H!
0G!
0H!
#600000
0%
0.
0/
#602500
1%
1.
1/
0S!
19
0B
16
1G
1;
08
#605000
0%
0.
0/
#607500
1%
1.
1/
1<
09
1'!
0>
0G
1R!
0;
0F!
0E!
0?!
0>!
1G!
1@!
0G!
0@!
1H!
1A!
0H!
0A!
#610000
0%
0.
0/
#612500
1%
1.
1/
1S!
0<
1B
06
0'!
1>
0R!
1E!
1>!
1G!
18
1F!
1?!
1H!
0G!
0H!
#615000
0%
0.
0/
#617500
1%
1.
1/
0S!
19
0B
16
1G
1;
08
#620000
0%
0.
0/
#622500
1%
1.
1/
1<
09
1'!
0>
0G
1R!
0;
0F!
0E!
0?!
0>!
1G!
1@!
0G!
0@!
1H!
1A!
0H!
0A!
#625000
0%
0.
0/
#627500
1%
1.
1/
1S!
0<
1B
06
0'!
1>
0R!
1E!
1>!
1G!
18
1F!
1?!
1H!
0G!
0H!
#630000
0%
0.
0/
#632500
1%
1.
1/
0S!
19
0B
16
1G
1;
08
#635000
0%
0.
0/
#637500
1%
1.
1/
1<
09
1'!
0>
0G
1R!
0;
0F!
0E!
0?!
0>!
1G!
1@!
0G!
0@!
1H!
1A!
0H!
0A!
#640000
0%
0.
0/
#642500
1%
1.
1/
1S!
0<
1B
06
0'!
1>
0R!
1E!
1>!
1G!
18
1F!
1?!
1H!
0G!
0H!
#645000
0%
0.
0/
#647500
1%
1.
1/
0S!
19
0B
16
1G
1;
08
#650000
0%
0.
0/
#652500
1%
1.
1/
1<
09
1'!
0>
0G
1R!
0;
0F!
0E!
0?!
0>!
1G!
1@!
0G!
0@!
1H!
1A!
0H!
0A!
#655000
0%
0.
0/
#657500
1%
1.
1/
1S!
0<
1B
06
0'!
1>
0R!
1E!
1>!
1G!
18
1F!
1?!
1H!
0G!
0H!
#660000
0%
0.
0/
#662500
1%
1.
1/
0S!
19
0B
16
1G
1;
08
#665000
0%
0.
0/
#667500
1%
1.
1/
1<
09
1'!
0>
0G
1R!
0;
0F!
0E!
0?!
0>!
1G!
1@!
0G!
0@!
1H!
1A!
0H!
0A!
#670000
0%
0.
0/
#672500
1%
1.
1/
1S!
0<
1B
06
0'!
1>
0R!
1E!
1>!
1G!
18
1F!
1?!
1H!
0G!
0H!
#675000
0%
0.
0/
#677500
1%
1.
1/
0S!
19
0B
16
1G
1;
08
#680000
0%
0.
0/
#682500
1%
1.
1/
1<
09
1'!
0>
0G
1R!
0;
0F!
0E!
0?!
0>!
1G!
1@!
0G!
0@!
1H!
1A!
0H!
0A!
#685000
0%
0.
0/
#687500
1%
1.
1/
1S!
0<
1B
06
0'!
1>
0R!
1E!
1>!
1G!
18
1F!
1?!
1H!
0G!
0H!
#690000
0%
0.
0/
#692500
1%
1.
1/
0S!
19
0B
16
1G
1;
08
#695000
0%
0.
0/
#697500
1%
1.
1/
1<
09
1'!
0>
0G
1R!
0;
0F!
0E!
0?!
0>!
1G!
1@!
0G!
0@!
1H!
1A!
0H!
0A!
#700000
0%
0.
0/
#702500
1%
1.
1/
1S!
0<
1B
06
0'!
1>
0R!
1E!
1>!
1G!
18
1F!
1?!
1H!
0G!
0H!
#705000
0%
0.
0/
#707500
1%
1.
1/
0S!
19
0B
16
1G
1;
08
#710000
0%
0.
0/
#712500
1%
1.
1/
1<
09
1'!
0>
0G
1R!
0;
0F!
0E!
0?!
0>!
1G!
1@!
0G!
0@!
1H!
1A!
0H!
0A!
#715000
0%
0.
0/
#717500
1%
1.
1/
1S!
0<
1B
06
0'!
1>
0R!
1E!
1>!
1G!
18
1F!
1?!
1H!
0G!
0H!
#720000
0%
0.
0/
#722500
1%
1.
1/
0S!
19
0B
16
1G
1;
08
#725000
0%
0.
0/
#727500
1%
1.
1/
1<
09
1'!
0>
0G
1R!
0;
0F!
0E!
0?!
0>!
1G!
1@!
0G!
0@!
1H!
1A!
0H!
0A!
