VHDL/HW2/ej5/simulation/qsim/ej5.msim.vcd
$comment
	File created using the following command:
		vcd file ej5.msim.vcd -direction
$end
$date
	Mon Apr 26 13:06:20 2021
$end
$version
	ModelSim Version 2020.1
$end
$timescale
	1ps
$end

$scope module ej5_vlg_vec_tst $end
$var reg 1 ! high $end
$var reg 1 " low $end
$var reg 1 # mid $end
$var wire 1 $ q [31] $end
$var wire 1 % q [30] $end
$var wire 1 & q [29] $end
$var wire 1 ' q [28] $end
$var wire 1 ( q [27] $end
$var wire 1 ) q [26] $end
$var wire 1 * q [25] $end
$var wire 1 + q [24] $end
$var wire 1 , q [23] $end
$var wire 1 - q [22] $end
$var wire 1 . q [21] $end
$var wire 1 / q [20] $end
$var wire 1 0 q [19] $end
$var wire 1 1 q [18] $end
$var wire 1 2 q [17] $end
$var wire 1 3 q [16] $end
$var wire 1 4 q [15] $end
$var wire 1 5 q [14] $end
$var wire 1 6 q [13] $end
$var wire 1 7 q [12] $end
$var wire 1 8 q [11] $end
$var wire 1 9 q [10] $end
$var wire 1 : q [9] $end
$var wire 1 ; q [8] $end
$var wire 1 < q [7] $end
$var wire 1 = q [6] $end
$var wire 1 > q [5] $end
$var wire 1 ? q [4] $end
$var wire 1 @ q [3] $end
$var wire 1 A q [2] $end
$var wire 1 B q [1] $end
$var wire 1 C q [0] $end

$scope module i1 $end
$var wire 1 D gnd $end
$var wire 1 E vcc $end
$var wire 1 F unknown $end
$var tri1 1 G devclrn $end
$var tri1 1 H devpor $end
$var tri1 1 I devoe $end
$var wire 1 J q[0]~output_o $end
$var wire 1 K q[1]~output_o $end
$var wire 1 L q[2]~output_o $end
$var wire 1 M q[3]~output_o $end
$var wire 1 N q[4]~output_o $end
$var wire 1 O q[5]~output_o $end
$var wire 1 P q[6]~output_o $end
$var wire 1 Q q[7]~output_o $end
$var wire 1 R q[8]~output_o $end
$var wire 1 S q[9]~output_o $end
$var wire 1 T q[10]~output_o $end
$var wire 1 U q[11]~output_o $end
$var wire 1 V q[12]~output_o $end
$var wire 1 W q[13]~output_o $end
$var wire 1 X q[14]~output_o $end
$var wire 1 Y q[15]~output_o $end
$var wire 1 Z q[16]~output_o $end
$var wire 1 [ q[17]~output_o $end
$var wire 1 \ q[18]~output_o $end
$var wire 1 ] q[19]~output_o $end
$var wire 1 ^ q[20]~output_o $end
$var wire 1 _ q[21]~output_o $end
$var wire 1 ` q[22]~output_o $end
$var wire 1 a q[23]~output_o $end
$var wire 1 b q[24]~output_o $end
$var wire 1 c q[25]~output_o $end
$var wire 1 d q[26]~output_o $end
$var wire 1 e q[27]~output_o $end
$var wire 1 f q[28]~output_o $end
$var wire 1 g q[29]~output_o $end
$var wire 1 h q[30]~output_o $end
$var wire 1 i q[31]~output_o $end
$var wire 1 j low~input_o $end
$var wire 1 k mid~input_o $end
$var wire 1 l high~input_o $end
$var wire 1 m q~0_combout $end
$var wire 1 n q~1_combout $end
$upscope $end
$upscope $end
$enddefinitions $end
#0
$dumpvars
0!
0"
0#
0C
0B
0A
0@
0?
0>
0=
0<
0;
0:
09
08
07
06
05
04
03
02
01
00
0/
0.
0-
0,
0+
0*
0)
0(
0'
0&
0%
0$
0D
1E
xF
1G
1H
1I
0J
0K
0L
0M
0N
0O
0P
0Q
0R
0S
0T
0U
0V
0W
0X
0Y
0Z
0[
0\
0]
0^
0_
0`
0a
0b
0c
0d
0e
0f
0g
0h
0i
0j
0k
0l
0m
0n
$end
#25000
1!
1l
1n
1m
1J
1K
1B
1C
#50000
1#
0!
1k
0l
0m
0J
0C
#75000
1!
1l
1m
1J
1C
#100000
1"
0#
0!
1j
0k
0l
0n
0K
0B
#125000
1!
1l
1n
1K
1B
#150000
1#
0!
1k
0l
0m
0J
0C
#175000
1!
1l
1m
1J
1C
#200000
0"
0#
0!
0j
0k
0l
0m
0n
0K
0J
0C
0B
#225000
1!
1l
1n
1m
1J
1K
1B
1C
#250000
1#
0!
1k
0l
0m
0J
0C
#275000
1!
1l
1m
1J
1C
#300000
1"
0#
0!
1j
0k
0l
0n
0K
0B
#325000
1!
1l
1n
1K
1B
#350000
1#
0!
1k
0l
0m
0J
0C
#375000
1!
1l
1m
1J
1C
#400000
0"
0#
0!
0j
0k
0l
0m
0n
0K
0J
0C
0B
#425000
1!
1l
1n
1m
1J
1K
1B
1C
#450000
1#
0!
1k
0l
0m
0J
0C
#475000
1!
1l
1m
1J
1C
#500000
1"
0#
0!
1j
0k
0l
0n
0K
0B
#525000
1!
1l
1n
1K
1B
#550000
1#
0!
1k
0l
0m
0J
0C
#575000
1!
1l
1m
1J
1C
#600000
0"
0#
0!
0j
0k
0l
0m
0n
0K
0J
0C
0B
#625000
1!
1l
1n
1m
1J
1K
1B
1C
#650000
1#
0!
1k
0l
0m
0J
0C
#675000
1!
1l
1m
1J
1C
#700000
1"
0#
0!
1j
0k
0l
0n
0K
0B
#725000
1!
1l
1n
1K
1B
#750000
1#
0!
1k
0l
0m
0J
0C
#775000
1!
1l
1m
1J
1C
#800000
0"
0#
0!
0j
0k
0l
0m
0n
0K
0J
0C
0B
#825000
1!
1l
1n
1m
1J
1K
1B
1C
#850000
1#
0!
1k
0l
0m
0J
0C
#875000
1!
1l
1m
1J
1C
#900000
1"
0#
0!
1j
0k
0l
0n
0K
0B
#925000
1!
1l
1n
1K
1B
#950000
1#
0!
1k
0l
0m
0J
0C
#975000
1!
1l
1m
1J
1C
