VHDL/HW3/ej4/ej4b/simulation/qsim/ej4b.msim.vcd
$comment
	File created using the following command:
		vcd file ej4b.msim.vcd -direction
$end
$date
	Sat May  1 14:45:58 2021
$end
$version
	ModelSim Version 2020.1
$end
$timescale
	1ps
$end

$scope module ej4b_vlg_vec_tst $end
$var reg 3 ! a [2:0] $end
$var wire 1 " y [7] $end
$var wire 1 # y [6] $end
$var wire 1 $ y [5] $end
$var wire 1 % y [4] $end
$var wire 1 & y [3] $end
$var wire 1 ' y [2] $end
$var wire 1 ( y [1] $end
$var wire 1 ) y [0] $end

$scope module i1 $end
$var wire 1 * gnd $end
$var wire 1 + vcc $end
$var wire 1 , unknown $end
$var tri1 1 - devclrn $end
$var tri1 1 . devpor $end
$var tri1 1 / devoe $end
$var wire 1 0 y[0]~output_o $end
$var wire 1 1 y[1]~output_o $end
$var wire 1 2 y[2]~output_o $end
$var wire 1 3 y[3]~output_o $end
$var wire 1 4 y[4]~output_o $end
$var wire 1 5 y[5]~output_o $end
$var wire 1 6 y[6]~output_o $end
$var wire 1 7 y[7]~output_o $end
$var wire 1 8 a[0]~input_o $end
$var wire 1 9 a[1]~input_o $end
$var wire 1 : a[2]~input_o $end
$var wire 1 ; Mux7~0_combout $end
$var wire 1 < Mux7~1_combout $end
$var wire 1 = Mux7~2_combout $end
$var wire 1 > Mux7~3_combout $end
$var wire 1 ? Mux7~4_combout $end
$var wire 1 @ Mux7~5_combout $end
$var wire 1 A Mux7~6_combout $end
$var wire 1 B Mux7~7_combout $end
$upscope $end
$upscope $end
$enddefinitions $end
#0
$dumpvars
b0 !
1)
0(
0'
0&
0%
0$
0#
0"
0*
1+
x,
1-
1.
1/
10
01
02
03
04
05
06
07
08
09
0:
1;
0<
0=
0>
0?
0@
0A
0B
$end
#50000
b1 !
18
1<
0;
00
11
1(
0)
#100000
b11 !
b10 !
08
19
1=
0<
01
12
1'
0(
#150000
b11 !
18
1>
0=
02
13
1&
0'
#200000
b111 !
b101 !
b100 !
08
09
1:
1?
0>
03
14
1%
0&
#250000
b101 !
18
1@
0?
04
15
1$
0%
#300000
b111 !
b110 !
08
19
1A
0@
05
16
1#
0$
#350000
b111 !
18
1B
0A
06
17
1"
0#
#400000
b11 !
b1 !
b0 !
08
09
0:
0B
1;
10
07
0"
1)
#450000
b1 !
18
1<
0;
00
11
1(
0)
#500000
b11 !
b10 !
08
19
1=
0<
01
12
1'
0(
#550000
b11 !
18
1>
0=
02
13
1&
0'
#600000
b111 !
b101 !
b100 !
08
09
1:
1?
0>
03
14
1%
0&
#650000
b101 !
18
1@
0?
04
15
1$
0%
#700000
b111 !
b110 !
08
19
1A
0@
05
16
1#
0$
#750000
b111 !
18
1B
0A
06
17
1"
0#
#800000
b11 !
b1 !
b0 !
08
09
0:
0B
1;
10
07
0"
1)
#850000
b1 !
18
1<
0;
00
11
1(
0)
#900000
b11 !
b10 !
08
19
1=
0<
01
12
1'
0(
#950000
b11 !
18
1>
0=
02
13
1&
0'
