VHDL/Proyecto_1/codigo/simulation/qsim/counter7segments.msim.vcd
$comment
	File created using the following command:
		vcd file counter7segments.msim.vcd -direction
$end
$date
	Tue Jun 15 16:18:32 2021
$end
$version
	ModelSim Version 2020.1
$end
$timescale
	1ps
$end

$scope module counter7segments_vlg_vec_tst $end
$var reg 1 ! borrar $end
$var reg 1 " reloj $end
$var wire 1 # sal $end
$var wire 1 $ saldecenas [3] $end
$var wire 1 % saldecenas [2] $end
$var wire 1 & saldecenas [1] $end
$var wire 1 ' saldecenas [0] $end
$var wire 1 ( salida7d [6] $end
$var wire 1 ) salida7d [5] $end
$var wire 1 * salida7d [4] $end
$var wire 1 + salida7d [3] $end
$var wire 1 , salida7d [2] $end
$var wire 1 - salida7d [1] $end
$var wire 1 . salida7d [0] $end
$var wire 1 / salida7u [6] $end
$var wire 1 0 salida7u [5] $end
$var wire 1 1 salida7u [4] $end
$var wire 1 2 salida7u [3] $end
$var wire 1 3 salida7u [2] $end
$var wire 1 4 salida7u [1] $end
$var wire 1 5 salida7u [0] $end
$var wire 1 6 salunidades [3] $end
$var wire 1 7 salunidades [2] $end
$var wire 1 8 salunidades [1] $end
$var wire 1 9 salunidades [0] $end

$scope module i1 $end
$var wire 1 : gnd $end
$var wire 1 ; vcc $end
$var wire 1 < unknown $end
$var tri1 1 = devclrn $end
$var tri1 1 > devpor $end
$var tri1 1 ? devoe $end
$var wire 1 @ salida7u[0]~output_o $end
$var wire 1 A salida7u[1]~output_o $end
$var wire 1 B salida7u[2]~output_o $end
$var wire 1 C salida7u[3]~output_o $end
$var wire 1 D salida7u[4]~output_o $end
$var wire 1 E salida7u[5]~output_o $end
$var wire 1 F salida7u[6]~output_o $end
$var wire 1 G salida7d[0]~output_o $end
$var wire 1 H salida7d[1]~output_o $end
$var wire 1 I salida7d[2]~output_o $end
$var wire 1 J salida7d[3]~output_o $end
$var wire 1 K salida7d[4]~output_o $end
$var wire 1 L salida7d[5]~output_o $end
$var wire 1 M salida7d[6]~output_o $end
$var wire 1 N salunidades[0]~output_o $end
$var wire 1 O salunidades[1]~output_o $end
$var wire 1 P salunidades[2]~output_o $end
$var wire 1 Q salunidades[3]~output_o $end
$var wire 1 R saldecenas[0]~output_o $end
$var wire 1 S saldecenas[1]~output_o $end
$var wire 1 T saldecenas[2]~output_o $end
$var wire 1 U saldecenas[3]~output_o $end
$var wire 1 V sal~output_o $end
$var wire 1 W reloj~input_o $end
$var wire 1 X reloj~inputclkctrl_outclk $end
$var wire 1 Y Add0~0_combout $end
$var wire 1 Z borrar~input_o $end
$var wire 1 [ borrar~inputclkctrl_outclk $end
$var wire 1 \ Add0~1 $end
$var wire 1 ] Add0~2_combout $end
$var wire 1 ^ cuentaunhertz~1_combout $end
$var wire 1 _ Add0~3 $end
$var wire 1 ` Add0~4_combout $end
$var wire 1 a Add0~5 $end
$var wire 1 b Add0~6_combout $end
$var wire 1 c cuentaunhertz~0_combout $end
$var wire 1 d Add0~7 $end
$var wire 1 e Add0~8_combout $end
$var wire 1 f Add0~9 $end
$var wire 1 g Add0~10_combout $end
$var wire 1 h Add0~11 $end
$var wire 1 i Add0~12_combout $end
$var wire 1 j Add0~13 $end
$var wire 1 k Add0~14_combout $end
$var wire 1 l Add0~15 $end
$var wire 1 m Add0~16_combout $end
$var wire 1 n Add0~17 $end
$var wire 1 o Add0~18_combout $end
$var wire 1 p Add0~19 $end
$var wire 1 q Add0~20_combout $end
$var wire 1 r Add0~21 $end
$var wire 1 s Add0~22_combout $end
$var wire 1 t Add0~23 $end
$var wire 1 u Add0~24_combout $end
$var wire 1 v Add0~25 $end
$var wire 1 w Add0~26_combout $end
$var wire 1 x Add0~27 $end
$var wire 1 y Add0~28_combout $end
$var wire 1 z Add0~29 $end
$var wire 1 { Add0~30_combout $end
$var wire 1 | Equal0~1_combout $end
$var wire 1 } Add0~31 $end
$var wire 1 ~ Add0~32_combout $end
$var wire 1 !! Add0~33 $end
$var wire 1 "! Add0~34_combout $end
$var wire 1 #! Add0~35 $end
$var wire 1 $! Add0~36_combout $end
$var wire 1 %! Add0~37 $end
$var wire 1 &! Add0~38_combout $end
$var wire 1 '! Add0~39 $end
$var wire 1 (! Add0~40_combout $end
$var wire 1 )! Add0~41 $end
$var wire 1 *! Add0~42_combout $end
$var wire 1 +! Add0~43 $end
$var wire 1 ,! Add0~44_combout $end
$var wire 1 -! Add0~45 $end
$var wire 1 .! Add0~46_combout $end
$var wire 1 /! Add0~47 $end
$var wire 1 0! Add0~48_combout $end
$var wire 1 1! Add0~49 $end
$var wire 1 2! Add0~50_combout $end
$var wire 1 3! Equal0~0_combout $end
$var wire 1 4! Equal0~2_combout $end
$var wire 1 5! Equal0~3_combout $end
$var wire 1 6! Equal0~4_combout $end
$var wire 1 7! Equal0~5_combout $end
$var wire 1 8! Equal0~6_combout $end
$var wire 1 9! Equal0~7_combout $end
$var wire 1 :! Equal0~8_combout $end
$var wire 1 ;! unhertz~feeder_combout $end
$var wire 1 <! unhertz~q $end
$var wire 1 =! cuentau[0]~3_combout $end
$var wire 1 >! cuentau~0_combout $end
$var wire 1 ?! cuentau~2_combout $end
$var wire 1 @! cuentau[2]~1_combout $end
$var wire 1 A! sietesal~0_combout $end
$var wire 1 B! sietesal~1_combout $end
$var wire 1 C! sietesal~2_combout $end
$var wire 1 D! sietesal~3_combout $end
$var wire 1 E! sietesal~4_combout $end
$var wire 1 F! sietesal~5_combout $end
$var wire 1 G! sietesal~6_combout $end
$var wire 1 H! Equal11~0_combout $end
$var wire 1 I! process_2~0_combout $end
$var wire 1 J! cuentad[0]~7_combout $end
$var wire 1 K! cuentad~6_combout $end
$var wire 1 L! cuentad~5_combout $end
$var wire 1 M! cuentad[2]~4_combout $end
$var wire 1 N! salida7d~17_combout $end
$var wire 1 O! salida7d~14_combout $end
$var wire 1 P! salida7d~18_combout $end
$var wire 1 Q! salida7d~16_combout $end
$var wire 1 R! salida7d~15_combout $end
$var wire 1 S! salida7d~19_combout $end
$var wire 1 T! salida7d~20_combout $end
$var wire 1 U! cuentaunhertz [25] $end
$var wire 1 V! cuentaunhertz [24] $end
$var wire 1 W! cuentaunhertz [23] $end
$var wire 1 X! cuentaunhertz [22] $end
$var wire 1 Y! cuentaunhertz [21] $end
$var wire 1 Z! cuentaunhertz [20] $end
$var wire 1 [! cuentaunhertz [19] $end
$var wire 1 \! cuentaunhertz [18] $end
$var wire 1 ]! cuentaunhertz [17] $end
$var wire 1 ^! cuentaunhertz [16] $end
$var wire 1 _! cuentaunhertz [15] $end
$var wire 1 `! cuentaunhertz [14] $end
$var wire 1 a! cuentaunhertz [13] $end
$var wire 1 b! cuentaunhertz [12] $end
$var wire 1 c! cuentaunhertz [11] $end
$var wire 1 d! cuentaunhertz [10] $end
$var wire 1 e! cuentaunhertz [9] $end
$var wire 1 f! cuentaunhertz [8] $end
$var wire 1 g! cuentaunhertz [7] $end
$var wire 1 h! cuentaunhertz [6] $end
$var wire 1 i! cuentaunhertz [5] $end
$var wire 1 j! cuentaunhertz [4] $end
$var wire 1 k! cuentaunhertz [3] $end
$var wire 1 l! cuentaunhertz [2] $end
$var wire 1 m! cuentaunhertz [1] $end
$var wire 1 n! cuentaunhertz [0] $end
$var wire 1 o! cuentad [3] $end
$var wire 1 p! cuentad [2] $end
$var wire 1 q! cuentad [1] $end
$var wire 1 r! cuentad [0] $end
$var wire 1 s! cuentau [3] $end
$var wire 1 t! cuentau [2] $end
$var wire 1 u! cuentau [1] $end
$var wire 1 v! cuentau [0] $end
$upscope $end
$upscope $end
$enddefinitions $end
#0
$dumpvars
0!
0"
0#
0'
0&
0%
0$
1.
1-
1,
1+
1*
1)
1(
05
04
03
02
01
00
1/
09
08
07
06
0:
1;
x<
1=
1>
1?
0@
0A
0B
0C
0D
0E
1F
1G
1H
1I
1J
1K
1L
1M
0N
0O
0P
0Q
0R
0S
0T
0U
0V
0W
0X
1Y
0Z
0[
0\
0]
0^
1_
0`
0a
0b
0c
1d
0e
0f
0g
1h
0i
0j
0k
1l
0m
0n
0o
1p
0q
0r
0s
1t
0u
0v
0w
1x
0y
0z
0{
0|
1}
0~
0!!
0"!
1#!
0$!
0%!
0&!
1'!
0(!
0)!
0*!
1+!
0,!
0-!
0.!
1/!
00!
01!
02!
13!
04!
15!
06!
17!
18!
19!
0:!
0;!
0<!
1=!
0>!
0?!
0@!
0A!
0B!
1C!
0D!
0E!
0F!
1G!
0H!
0I!
1J!
0K!
0L!
0M!
1N!
0O!
1P!
0Q!
1R!
1S!
1T!
0n!
0m!
0l!
0k!
0j!
0i!
0h!
0g!
0f!
0e!
0d!
0c!
0b!
0a!
0`!
0_!
0^!
0]!
0\!
0[!
0Z!
0Y!
0X!
0W!
0V!
0U!
0r!
0q!
0p!
0o!
0v!
0u!
0t!
0s!
$end
#2500
1"
1W
1X
#5000
0"
0W
0X
#7500
1"
1W
1X
#10000
1!
0"
1Z
0W
1[
0X
#12500
1"
1W
1X
1n!
1|
1\
0Y
1]
1^
#15000
0"
0W
0X
#17500
1"
1W
1X
1m!
0n!
05!
0_
0]
0|
0\
1Y
1_
1]
1`
0^
0`
1^
#20000
0"
0W
0X
#22500
1"
1W
1X
1n!
1|
1\
0Y
0_
0]
1`
0^
#25000
0"
0W
0X
#27500
1"
1W
1X
1l!
0m!
0n!
1a
15!
1_
1]
0|
0\
0`
1Y
1b
0a
0]
1`
1^
0b
1c
0^
0c
#30000
0"
0W
0X
#32500
1"
1W
1X
1n!
1|
1\
0Y
1]
1^
#35000
0"
0W
0X
#37500
1"
1W
1X
1m!
0n!
05!
0_
0]
0|
0\
1Y
1a
1_
1]
0`
0^
1b
0a
1`
1^
0b
1c
0c
#40000
0"
0W
0X
#42500
1"
1W
1X
1n!
1|
1\
0Y
0_
0]
1a
0`
0^
1b
1c
#45000
0"
0W
0X
#47500
1"
1W
1X
1k!
0l!
0m!
0n!
14!
0d
0b
0a
15!
1_
1]
0|
0\
1`
1Y
16!
1d
1b
0]
1e
0c
0`
1^
0e
1c
0^
#50000
0"
0W
0X
#52500
1"
1W
1X
1n!
1|
1\
0Y
1:!
1]
1;!
0c
#55000
0"
0W
0X
#57500
1"
1W
1X
0k!
0n!
1<!
1V
04!
0b
0|
0\
1#
1Y
06!
0:!
0]
0;!
#60000
0"
0W
0X
#62500
1"
1W
1X
1n!
1v!
0<!
0V
1N
1|
1\
19
0#
0Y
1F!
1E!
1D!
1A!
1?!
0=!
1@
1C
1D
1E
1]
10
11
12
15
1^
#65000
0"
0W
0X
#67500
1"
1W
1X
1m!
0n!
05!
0_
0]
0|
0\
1Y
1_
1]
1`
0^
0`
1^
#70000
0"
0W
0X
#72500
1"
1W
1X
1n!
1|
1\
0Y
0_
0]
1`
0^
#75000
0"
0W
0X
#77500
1"
1W
1X
1l!
0m!
0n!
1a
15!
1_
1]
0|
0\
0`
1Y
1b
0a
0]
1`
1^
0b
1c
0^
0c
#80000
0"
0W
0X
#82500
1"
1W
1X
1n!
1|
1\
0Y
1]
1^
#85000
0"
0W
0X
#87500
1"
1W
1X
1m!
0n!
05!
0_
0]
0|
0\
1Y
1a
1_
1]
0`
0^
1b
0a
1`
1^
0b
1c
0c
#90000
0"
0W
0X
#92500
1"
1W
1X
1n!
1|
1\
0Y
0_
0]
1a
0`
0^
1b
1c
#95000
0"
0W
0X
#97500
1"
1W
1X
1k!
0l!
0m!
0n!
14!
0d
0b
0a
15!
1_
1]
0|
0\
1`
1Y
16!
1d
1b
0]
1e
0c
0`
1^
0e
1c
0^
#100000
0"
0W
0X
#102500
1"
1W
1X
1n!
1|
1\
0Y
1:!
1]
1;!
0c
#105000
0"
0W
0X
#107500
1"
1W
1X
0k!
0n!
1<!
1V
04!
0b
0|
0\
1#
1Y
06!
0:!
0]
0;!
#110000
0"
0W
0X
#112500
1"
1W
1X
1n!
1u!
0v!
0<!
0V
0N
1O
1|
1\
0C!
18
09
0#
0Y
0G!
0E!
0D!
0A!
1=!
0@
0C
0D
0F
1B
1]
13
0/
01
02
05
1^
#115000
0"
0W
0X
#117500
1"
1W
1X
1m!
0n!
05!
0_
0]
0|
0\
1Y
1_
1]
1`
0^
0`
1^
#120000
0"
0W
0X
#122500
1"
1W
1X
1n!
1|
1\
0Y
0_
0]
1`
0^
#125000
0"
0W
0X
#127500
1"
1W
1X
1l!
0m!
0n!
1a
15!
1_
1]
0|
0\
0`
1Y
1b
0a
0]
1`
1^
0b
1c
0^
0c
#130000
0"
0W
0X
#132500
1"
1W
1X
1n!
1|
1\
0Y
1]
1^
#135000
0"
0W
0X
#137500
1"
1W
1X
1m!
0n!
05!
0_
0]
0|
0\
1Y
1a
1_
1]
0`
0^
1b
0a
1`
1^
0b
1c
0c
#140000
0"
0W
0X
#142500
1"
1W
1X
1n!
1|
1\
0Y
0_
0]
1a
0`
0^
1b
1c
#145000
0"
0W
0X
#147500
1"
1W
1X
1k!
0l!
0m!
0n!
14!
0d
0b
0a
15!
1_
1]
0|
0\
1`
1Y
16!
1d
1b
0]
1e
0c
0`
1^
0e
1c
0^
#150000
0"
0W
0X
#152500
1"
1W
1X
1n!
1|
1\
0Y
1:!
1]
1;!
0c
#155000
0"
0W
0X
#157500
1"
1W
1X
0k!
0n!
1<!
1V
04!
0b
0|
0\
1#
1Y
06!
0:!
0]
0;!
#160000
0"
0W
0X
#162500
1"
1W
1X
1n!
1v!
0<!
0V
1N
1|
1\
1C!
19
0#
0Y
1E!
0?!
0=!
1D
0B
1]
03
11
1^
#165000
0"
0W
0X
#167500
1"
1W
1X
1m!
0n!
05!
0_
0]
0|
0\
1Y
1_
1]
1`
0^
0`
1^
#170000
0"
0W
0X
#172500
1"
1W
1X
1n!
1|
1\
0Y
0_
0]
1`
0^
#175000
0"
0W
0X
#177500
1"
1W
1X
1l!
0m!
0n!
1a
15!
1_
1]
0|
0\
0`
1Y
1b
0a
0]
1`
1^
0b
1c
0^
0c
#180000
0"
0W
0X
#182500
1"
1W
1X
1n!
1|
1\
0Y
1]
1^
#185000
0"
0W
0X
#187500
1"
1W
1X
1m!
0n!
05!
0_
0]
0|
0\
1Y
1a
1_
1]
0`
0^
1b
0a
1`
1^
0b
1c
0c
#190000
0"
0W
0X
#192500
1"
1W
1X
1n!
1|
1\
0Y
0_
0]
1a
0`
0^
1b
1c
#195000
0"
0W
0X
#197500
1"
1W
1X
1k!
0l!
0m!
0n!
14!
0d
0b
0a
15!
1_
1]
0|
0\
1`
1Y
16!
1d
1b
0]
1e
0c
0`
1^
0e
1c
0^
#200000
0"
0W
0X
#202500
1"
1W
1X
1n!
1|
1\
0Y
1:!
1]
1;!
0c
#205000
0"
0W
0X
#207500
1"
1W
1X
0k!
0n!
1<!
1V
04!
0b
0|
0\
1#
1Y
1@!
06!
0:!
0]
0;!
#210000
0"
0W
0X
#212500
1"
1W
1X
1n!
1t!
0u!
0v!
0<!
0V
0N
0O
1P
1|
1\
17
08
09
0#
0Y
0F!
1D!
1A!
1=!
1@
1C
0E
1]
00
12
15
1^
#215000
0"
0W
0X
#217500
1"
1W
1X
1m!
0n!
05!
0_
0]
0|
0\
1Y
1_
1]
1`
0^
0`
1^
#220000
0"
0W
0X
#222500
1"
1W
1X
1n!
1|
1\
0Y
0_
0]
1`
0^
#225000
0"
0W
0X
#227500
1"
1W
1X
1l!
0m!
0n!
1a
15!
1_
1]
0|
0\
0`
1Y
1b
0a
0]
1`
1^
0b
1c
0^
0c
#230000
0"
0W
0X
#232500
1"
1W
1X
1n!
1|
1\
0Y
1]
1^
#235000
0"
0W
0X
#237500
1"
1W
1X
1m!
0n!
05!
0_
0]
0|
0\
1Y
1a
1_
1]
0`
0^
1b
0a
1`
1^
0b
1c
0c
#240000
0"
0W
0X
#242500
1"
1W
1X
1n!
1|
1\
0Y
0_
0]
1a
0`
0^
1b
1c
#245000
0"
0W
0X
#247500
1"
1W
1X
1k!
0l!
0m!
0n!
14!
0d
0b
0a
15!
1_
1]
0|
0\
1`
1Y
16!
1d
1b
0]
1e
0c
0`
1^
0e
1c
0^
#250000
0"
0W
0X
#252500
1"
1W
1X
1n!
1|
1\
0Y
1:!
1]
1;!
0c
#255000
0"
0W
0X
#257500
1"
1W
1X
0k!
0n!
1<!
1V
04!
0b
0|
0\
1#
1Y
06!
0:!
0]
0;!
#260000
0"
0W
0X
#262500
1"
1W
1X
1n!
1v!
0<!
0V
1N
1|
1\
19
0#
0Y
0D!
1B!
0A!
1?!
0=!
0@
1A
0C
1]
02
14
05
1^
#265000
0"
0W
0X
#267500
1"
1W
1X
1m!
0n!
05!
0_
0]
0|
0\
1Y
1_
1]
1`
0^
0`
1^
#270000
0"
0W
0X
#272500
1"
1W
1X
1n!
1|
1\
0Y
0_
0]
1`
0^
#275000
0"
0W
0X
#277500
1"
1W
1X
1l!
0m!
0n!
1a
15!
1_
1]
0|
0\
0`
1Y
1b
0a
0]
1`
1^
0b
1c
0^
0c
#280000
0"
0W
0X
#282500
1"
1W
1X
1n!
1|
1\
0Y
1]
1^
#285000
0"
0W
0X
#287500
1"
1W
1X
1m!
0n!
05!
0_
0]
0|
0\
1Y
1a
1_
1]
0`
0^
1b
0a
1`
1^
0b
1c
0c
#290000
0"
0W
0X
#292500
1"
1W
1X
1n!
1|
1\
0Y
0_
0]
1a
0`
0^
1b
1c
#295000
0"
0W
0X
#297500
1"
1W
1X
1k!
0l!
0m!
0n!
14!
0d
0b
0a
15!
1_
1]
0|
0\
1`
1Y
16!
1d
1b
0]
1e
0c
0`
1^
0e
1c
0^
#300000
0"
0W
0X
#302500
1"
1W
1X
1n!
1|
1\
0Y
1:!
1]
1;!
0c
#305000
0"
0W
0X
#307500
1"
1W
1X
0k!
0n!
1<!
1V
04!
0b
0|
0\
1#
1Y
06!
0:!
0]
0;!
#310000
0"
0W
0X
#312500
1"
1W
1X
1n!
1u!
0v!
0<!
0V
0N
1O
1|
1\
18
09
0#
0Y
0E!
1=!
0D
1]
01
1^
#315000
0"
0W
0X
#317500
1"
1W
1X
1m!
0n!
05!
0_
0]
0|
0\
1Y
1_
1]
1`
0^
0`
1^
#320000
0"
0W
0X
#322500
1"
1W
1X
1n!
1|
1\
0Y
0_
0]
1`
0^
#325000
0"
0W
0X
#327500
1"
1W
1X
1l!
0m!
0n!
1a
15!
1_
1]
0|
0\
0`
1Y
1b
0a
0]
1`
1^
0b
1c
0^
0c
#330000
0"
0W
0X
#332500
1"
1W
1X
1n!
1|
1\
0Y
1]
1^
#335000
0"
0W
0X
#337500
1"
1W
1X
1m!
0n!
05!
0_
0]
0|
0\
1Y
1a
1_
1]
0`
0^
1b
0a
1`
1^
0b
1c
0c
#340000
0"
0W
0X
#342500
1"
1W
1X
1n!
1|
1\
0Y
0_
0]
1a
0`
0^
1b
1c
#345000
0"
0W
0X
#347500
1"
1W
1X
1k!
0l!
0m!
0n!
14!
0d
0b
0a
15!
1_
1]
0|
0\
1`
1Y
16!
1d
1b
0]
1e
0c
0`
1^
0e
1c
0^
#350000
0"
0W
0X
#352500
1"
1W
1X
1n!
1|
1\
0Y
1:!
1]
1;!
0c
#355000
0"
0W
0X
#357500
1"
1W
1X
0k!
0n!
1<!
1V
04!
0b
0|
0\
1#
1Y
06!
0:!
0]
0;!
#360000
0"
0W
0X
#362500
1"
1W
1X
1n!
1v!
0<!
0V
1N
1|
1\
19
0#
0Y
1G!
1F!
1E!
1D!
0B!
0?!
1>!
0=!
0A
1C
1D
1E
1F
1]
1/
10
11
12
04
1^
#365000
0"
0W
0X
#367500
1"
1W
1X
1m!
0n!
05!
0_
0]
0|
0\
1Y
1_
1]
1`
0^
0`
1^
#370000
0"
0W
0X
#372500
1"
1W
1X
1n!
1|
1\
0Y
0_
0]
1`
0^
#375000
0"
0W
0X
#377500
1"
1W
1X
1l!
0m!
0n!
1a
15!
1_
1]
0|
0\
0`
1Y
1b
0a
0]
1`
1^
0b
1c
0^
0c
#380000
0"
0W
0X
#382500
1"
1W
1X
1n!
1|
1\
0Y
1]
1^
#385000
0"
0W
0X
#387500
1"
1W
1X
1m!
0n!
05!
0_
0]
0|
0\
1Y
1a
1_
1]
0`
0^
1b
0a
1`
1^
0b
1c
0c
#390000
0"
0W
0X
#392500
1"
1W
1X
1n!
1|
1\
0Y
0_
0]
1a
0`
0^
1b
1c
#395000
0"
0W
0X
#397500
1"
1W
1X
1k!
0l!
0m!
0n!
14!
0d
0b
0a
15!
1_
1]
0|
0\
1`
1Y
16!
1d
1b
0]
1e
0c
0`
1^
0e
1c
0^
#400000
0"
0W
0X
#402500
1"
1W
1X
1n!
1|
1\
0Y
1:!
1]
1;!
0c
#405000
0"
0W
0X
#407500
1"
1W
1X
0k!
0n!
1<!
1V
04!
0b
0|
0\
1#
1Y
0@!
06!
0:!
0]
0;!
#410000
0"
0W
0X
#412500
1"
1W
1X
1n!
0t!
0u!
1s!
0v!
0<!
0V
0N
1Q
0O
0P
1|
1\
07
08
16
09
0#
0Y
0G!
0F!
0E!
0D!
1=!
0C
0D
0E
0F
1]
0/
00
01
02
1^
#415000
0"
0W
0X
#417500
1"
1W
1X
1m!
0n!
05!
0_
0]
0|
0\
1Y
1_
1]
1`
0^
0`
1^
#420000
0"
0W
0X
#422500
1"
1W
1X
1n!
1|
1\
0Y
0_
0]
1`
0^
#425000
0"
0W
0X
#427500
1"
1W
1X
1l!
0m!
0n!
1a
15!
1_
1]
0|
0\
0`
1Y
1b
0a
0]
1`
1^
0b
1c
0^
0c
#430000
0"
0W
0X
#432500
1"
1W
1X
1n!
1|
1\
0Y
1]
1^
#435000
0"
0W
0X
#437500
1"
1W
1X
1m!
0n!
05!
0_
0]
0|
0\
1Y
1a
1_
1]
0`
0^
1b
0a
1`
1^
0b
1c
0c
#440000
0"
0W
0X
#442500
1"
1W
1X
1n!
1|
1\
0Y
0_
0]
1a
0`
0^
1b
1c
#445000
0"
0W
0X
#447500
1"
1W
1X
1k!
0l!
0m!
0n!
14!
0d
0b
0a
15!
1_
1]
0|
0\
1`
1Y
16!
1d
1b
0]
1e
0c
0`
1^
0e
1c
0^
#450000
0"
0W
0X
#452500
1"
1W
1X
1n!
1|
1\
0Y
1:!
1]
1;!
0c
#455000
0"
0W
0X
#457500
1"
1W
1X
0k!
0n!
1<!
1V
04!
0b
0|
0\
1#
1Y
06!
0:!
0]
0;!
#460000
0"
0W
0X
#462500
1"
1W
1X
1n!
1v!
0<!
0V
1N
1|
1\
1H!
19
0#
0Y
1E!
1D!
0>!
0=!
1C
1D
1]
11
12
1^
#465000
0"
0W
0X
#467500
1"
1W
1X
1m!
0n!
05!
0_
0]
0|
0\
1Y
1_
1]
1`
0^
0`
1^
#470000
0"
0W
0X
#472500
1"
1W
1X
1n!
1|
1\
0Y
0_
0]
1`
0^
#475000
0"
0W
0X
#477500
1"
1W
1X
1l!
0m!
0n!
1a
15!
1_
1]
0|
0\
0`
1Y
1b
0a
0]
1`
1^
0b
1c
0^
0c
#480000
0"
0W
0X
#482500
1"
1W
1X
1n!
1|
1\
0Y
1]
1^
#485000
0"
0W
0X
#487500
1"
1W
1X
1m!
0n!
05!
0_
0]
0|
0\
1Y
1a
1_
1]
0`
0^
1b
0a
1`
1^
0b
1c
0c
#490000
0"
0W
0X
#492500
1"
1W
1X
1n!
1|
1\
0Y
0_
0]
1a
0`
0^
1b
1c
#495000
0"
0W
0X
#497500
1"
1W
1X
1k!
0l!
0m!
0n!
14!
0d
0b
0a
15!
1_
1]
0|
0\
1`
1Y
16!
1d
1b
0]
1e
0c
0`
1^
0e
1c
0^
#500000
0"
0W
0X
#502500
1"
1W
1X
1n!
1|
1\
0Y
1:!
1]
1;!
0c
#505000
0"
0W
0X
#507500
1"
1W
1X
0k!
0n!
1<!
1V
04!
0b
0|
0\
1I!
1#
1Y
06!
0:!
0]
0;!
#510000
0"
0W
0X
#512500
1"
1W
1X
1n!
1r!
0s!
0v!
0<!
0V
0N
0Q
1R
1|
1\
1O!
0H!
0I!
1'
06
09
0#
0Y
0P!
1L!
0J!
1G!
0E!
0D!
1=!
0C
0D
1F
0I
0H
1]
0-
0,
1/
01
02
1^
#515000
0"
0W
0X
#517500
1"
1W
1X
1m!
0n!
05!
0_
0]
0|
0\
1Y
1_
1]
1`
0^
0`
1^
#520000
0"
0W
0X
#522500
1"
1W
1X
1n!
1|
1\
0Y
0_
0]
1`
0^
#525000
0"
0W
0X
#527500
1"
1W
1X
1l!
0m!
0n!
1a
15!
1_
1]
0|
0\
0`
1Y
1b
0a
0]
1`
1^
0b
1c
0^
0c
#530000
0"
0W
0X
#532500
1"
1W
1X
1n!
1|
1\
0Y
1]
1^
#535000
0"
0W
0X
#537500
1"
1W
1X
1m!
0n!
05!
0_
0]
0|
0\
1Y
1a
1_
1]
0`
0^
1b
0a
1`
1^
0b
1c
0c
#540000
0"
0W
0X
#542500
1"
1W
1X
1n!
1|
1\
0Y
0_
0]
1a
0`
0^
1b
1c
#545000
0"
0W
0X
#547500
1"
1W
1X
1k!
0l!
0m!
0n!
14!
0d
0b
0a
15!
1_
1]
0|
0\
1`
1Y
16!
1d
1b
0]
1e
0c
0`
1^
0e
1c
0^
#550000
0"
0W
0X
#552500
1"
1W
1X
1n!
1|
1\
0Y
1:!
1]
1;!
0c
#555000
0"
0W
0X
#557500
1"
1W
1X
0k!
0n!
1<!
1V
04!
0b
0|
0\
1#
1Y
06!
0:!
0]
0;!
#560000
0"
0W
0X
#562500
1"
1W
1X
1n!
1v!
0<!
0V
1N
1|
1\
19
0#
0Y
1F!
1E!
1D!
1A!
1?!
0=!
1@
1C
1D
1E
1]
10
11
12
15
1^
#565000
0"
0W
0X
#567500
1"
1W
1X
1m!
0n!
05!
0_
0]
0|
0\
1Y
1_
1]
1`
0^
0`
1^
#570000
0"
0W
0X
#572500
1"
1W
1X
1n!
1|
1\
0Y
0_
0]
1`
0^
#575000
0"
0W
0X
#577500
1"
1W
1X
1l!
0m!
0n!
1a
15!
1_
1]
0|
0\
0`
1Y
1b
0a
0]
1`
1^
0b
1c
0^
0c
#580000
0"
0W
0X
#582500
1"
1W
1X
1n!
1|
1\
0Y
1]
1^
#585000
0"
0W
0X
#587500
1"
1W
1X
1m!
0n!
05!
0_
0]
0|
0\
1Y
1a
1_
1]
0`
0^
1b
0a
1`
1^
0b
1c
0c
#590000
0"
0W
0X
#592500
1"
1W
1X
1n!
1|
1\
0Y
0_
0]
1a
0`
0^
1b
1c
#595000
0"
0W
0X
#597500
1"
1W
1X
1k!
0l!
0m!
0n!
14!
0d
0b
0a
15!
1_
1]
0|
0\
1`
1Y
16!
1d
1b
0]
1e
0c
0`
1^
0e
1c
0^
#600000
0"
0W
0X
#602500
1"
1W
1X
1n!
1|
1\
0Y
1:!
1]
1;!
0c
#605000
0"
0W
0X
#607500
1"
1W
1X
0k!
0n!
1<!
1V
04!
0b
0|
0\
1#
1Y
06!
0:!
0]
0;!
#610000
0"
0W
0X
#612500
1"
1W
1X
1n!
1u!
0v!
0<!
0V
0N
1O
1|
1\
0C!
18
09
0#
0Y
0G!
0E!
0D!
0A!
1=!
0@
0C
0D
0F
1B
1]
13
0/
01
02
05
1^
#615000
0"
0W
0X
#617500
1"
1W
1X
1m!
0n!
05!
0_
0]
0|
0\
1Y
1_
1]
1`
0^
0`
1^
#620000
0"
0W
0X
#622500
1"
1W
1X
1n!
1|
1\
0Y
0_
0]
1`
0^
#625000
0"
0W
0X
#627500
1"
1W
1X
1l!
0m!
0n!
1a
15!
1_
1]
0|
0\
0`
1Y
1b
0a
0]
1`
1^
0b
1c
0^
0c
#630000
0"
0W
0X
#632500
1"
1W
1X
1n!
1|
1\
0Y
1]
1^
#635000
0"
0W
0X
#637500
1"
1W
1X
1m!
0n!
05!
0_
0]
0|
0\
1Y
1a
1_
1]
0`
0^
1b
0a
1`
1^
0b
1c
0c
#640000
0"
0W
0X
#642500
1"
1W
1X
1n!
1|
1\
0Y
0_
0]
1a
0`
0^
1b
1c
#645000
0"
0W
0X
#647500
1"
1W
1X
1k!
0l!
0m!
0n!
14!
0d
0b
0a
15!
1_
1]
0|
0\
1`
1Y
16!
1d
1b
0]
1e
0c
0`
1^
0e
1c
0^
#650000
0"
0W
0X
#652500
1"
1W
1X
1n!
1|
1\
0Y
1:!
1]
1;!
0c
#655000
0"
0W
0X
#657500
1"
1W
1X
0k!
0n!
1<!
1V
04!
0b
0|
0\
1#
1Y
06!
0:!
0]
0;!
#660000
0"
0W
0X
#662500
1"
1W
1X
1n!
1v!
0<!
0V
1N
1|
1\
1C!
19
0#
0Y
1E!
0?!
0=!
1D
0B
1]
03
11
1^
#665000
0"
0W
0X
#667500
1"
1W
1X
1m!
0n!
05!
0_
0]
0|
0\
1Y
1_
1]
1`
0^
0`
1^
#670000
0"
0W
0X
#672500
1"
1W
1X
1n!
1|
1\
0Y
0_
0]
1`
0^
#675000
0"
0W
0X
#677500
1"
1W
1X
1l!
0m!
0n!
1a
15!
1_
1]
0|
0\
0`
1Y
1b
0a
0]
1`
1^
0b
1c
0^
0c
#680000
0"
0W
0X
#682500
1"
1W
1X
1n!
1|
1\
0Y
1]
1^
#685000
0"
0W
0X
#687500
1"
1W
1X
1m!
0n!
05!
0_
0]
0|
0\
1Y
1a
1_
1]
0`
0^
1b
0a
1`
1^
0b
1c
0c
#690000
0"
0W
0X
#692500
1"
1W
1X
1n!
1|
1\
0Y
0_
0]
1a
0`
0^
1b
1c
#695000
0"
0W
0X
#697500
1"
1W
1X
1k!
0l!
0m!
0n!
14!
0d
0b
0a
15!
1_
1]
0|
0\
1`
1Y
16!
1d
1b
0]
1e
0c
0`
1^
0e
1c
0^
#700000
0"
0W
0X
#702500
1"
1W
1X
1n!
1|
1\
0Y
1:!
1]
1;!
0c
#705000
0"
0W
0X
