VHDL/Proyecto_1/codigo/simulation/qsim/counter7segments.msim.vcd
$comment
	File created using the following command:
		vcd file counter7segments.msim.vcd -direction
$end
$date
	Fri May 28 20:15:15 2021
$end
$version
	ModelSim Version 2020.1
$end
$timescale
	1ps
$end

$scope module counter7segments_vlg_vec_tst $end
$var reg 1 ! borrar $end
$var reg 1 " reloj $end
$var wire 1 # sal $end
$var wire 1 $ saldecenas [3] $end
$var wire 1 % saldecenas [2] $end
$var wire 1 & saldecenas [1] $end
$var wire 1 ' saldecenas [0] $end
$var wire 1 ( salida7d [7] $end
$var wire 1 ) salida7d [6] $end
$var wire 1 * salida7d [5] $end
$var wire 1 + salida7d [4] $end
$var wire 1 , salida7d [3] $end
$var wire 1 - salida7d [2] $end
$var wire 1 . salida7d [1] $end
$var wire 1 / salida7d [0] $end
$var wire 1 0 salida7u [7] $end
$var wire 1 1 salida7u [6] $end
$var wire 1 2 salida7u [5] $end
$var wire 1 3 salida7u [4] $end
$var wire 1 4 salida7u [3] $end
$var wire 1 5 salida7u [2] $end
$var wire 1 6 salida7u [1] $end
$var wire 1 7 salida7u [0] $end
$var wire 1 8 salunidades [3] $end
$var wire 1 9 salunidades [2] $end
$var wire 1 : salunidades [1] $end
$var wire 1 ; salunidades [0] $end

$scope module i1 $end
$var wire 1 < gnd $end
$var wire 1 = vcc $end
$var wire 1 > unknown $end
$var tri1 1 ? devclrn $end
$var tri1 1 @ devpor $end
$var tri1 1 A devoe $end
$var wire 1 B salida7u[0]~output_o $end
$var wire 1 C salida7u[1]~output_o $end
$var wire 1 D salida7u[2]~output_o $end
$var wire 1 E salida7u[3]~output_o $end
$var wire 1 F salida7u[4]~output_o $end
$var wire 1 G salida7u[5]~output_o $end
$var wire 1 H salida7u[6]~output_o $end
$var wire 1 I salida7u[7]~output_o $end
$var wire 1 J salida7d[0]~output_o $end
$var wire 1 K salida7d[1]~output_o $end
$var wire 1 L salida7d[2]~output_o $end
$var wire 1 M salida7d[3]~output_o $end
$var wire 1 N salida7d[4]~output_o $end
$var wire 1 O salida7d[5]~output_o $end
$var wire 1 P salida7d[6]~output_o $end
$var wire 1 Q salida7d[7]~output_o $end
$var wire 1 R salunidades[0]~output_o $end
$var wire 1 S salunidades[1]~output_o $end
$var wire 1 T salunidades[2]~output_o $end
$var wire 1 U salunidades[3]~output_o $end
$var wire 1 V saldecenas[0]~output_o $end
$var wire 1 W saldecenas[1]~output_o $end
$var wire 1 X saldecenas[2]~output_o $end
$var wire 1 Y saldecenas[3]~output_o $end
$var wire 1 Z sal~output_o $end
$var wire 1 [ reloj~input_o $end
$var wire 1 \ reloj~inputclkctrl_outclk $end
$var wire 1 ] cuentau[0]~3_combout $end
$var wire 1 ^ borrar~input_o $end
$var wire 1 _ borrar~inputclkctrl_outclk $end
$var wire 1 ` Add0~0_combout $end
$var wire 1 a Add0~1 $end
$var wire 1 b Add0~2_combout $end
$var wire 1 c cuentaunhertz~1_combout $end
$var wire 1 d Equal0~7_combout $end
$var wire 1 e Add0~3 $end
$var wire 1 f Add0~4_combout $end
$var wire 1 g Add0~5 $end
$var wire 1 h Add0~6_combout $end
$var wire 1 i cuentaunhertz~0_combout $end
$var wire 1 j Add0~7 $end
$var wire 1 k Add0~8_combout $end
$var wire 1 l Add0~9 $end
$var wire 1 m Add0~10_combout $end
$var wire 1 n Add0~11 $end
$var wire 1 o Add0~12_combout $end
$var wire 1 p Add0~13 $end
$var wire 1 q Add0~14_combout $end
$var wire 1 r Add0~15 $end
$var wire 1 s Add0~16_combout $end
$var wire 1 t Add0~17 $end
$var wire 1 u Add0~18_combout $end
$var wire 1 v Equal0~5_combout $end
$var wire 1 w Equal0~6_combout $end
$var wire 1 x Add0~19 $end
$var wire 1 y Add0~20_combout $end
$var wire 1 z Add0~21 $end
$var wire 1 { Add0~22_combout $end
$var wire 1 | Add0~23 $end
$var wire 1 } Add0~24_combout $end
$var wire 1 ~ Add0~25 $end
$var wire 1 !! Add0~26_combout $end
$var wire 1 "! Equal0~3_combout $end
$var wire 1 #! Add0~27 $end
$var wire 1 $! Add0~28_combout $end
$var wire 1 %! Add0~29 $end
$var wire 1 &! Add0~30_combout $end
$var wire 1 '! Add0~31 $end
$var wire 1 (! Add0~32_combout $end
$var wire 1 )! Add0~33 $end
$var wire 1 *! Add0~34_combout $end
$var wire 1 +! Add0~35 $end
$var wire 1 ,! Add0~36_combout $end
$var wire 1 -! Add0~37 $end
$var wire 1 .! Add0~38_combout $end
$var wire 1 /! Add0~39 $end
$var wire 1 0! Add0~40_combout $end
$var wire 1 1! Add0~41 $end
$var wire 1 2! Add0~42_combout $end
$var wire 1 3! Add0~43 $end
$var wire 1 4! Add0~44_combout $end
$var wire 1 5! Add0~45 $end
$var wire 1 6! Add0~46_combout $end
$var wire 1 7! Add0~47 $end
$var wire 1 8! Add0~48_combout $end
$var wire 1 9! Add0~49 $end
$var wire 1 :! Add0~50_combout $end
$var wire 1 ;! Equal0~0_combout $end
$var wire 1 <! Equal0~2_combout $end
$var wire 1 =! Equal0~1_combout $end
$var wire 1 >! Equal0~4_combout $end
$var wire 1 ?! Equal0~8_combout $end
$var wire 1 @! unhertz~q $end
$var wire 1 A! cuentau[2]~1_combout $end
$var wire 1 B! cuentau~0_combout $end
$var wire 1 C! cuentau~2_combout $end
$var wire 1 D! sietesal~0_combout $end
$var wire 1 E! sietesal~1_combout $end
$var wire 1 F! sietesal~2_combout $end
$var wire 1 G! sietesal~3_combout $end
$var wire 1 H! sietesal~4_combout $end
$var wire 1 I! sietesal~5_combout $end
$var wire 1 J! sietesal~6_combout $end
$var wire 1 K! cuentad[0]~7_combout $end
$var wire 1 L! Equal11~0_combout $end
$var wire 1 M! process_2~0_combout $end
$var wire 1 N! cuentad[2]~4_combout $end
$var wire 1 O! cuentad~6_combout $end
$var wire 1 P! cuentad~5_combout $end
$var wire 1 Q! salida7d~20_combout $end
$var wire 1 R! salida7d~18_combout $end
$var wire 1 S! salida7d~21_combout $end
$var wire 1 T! salida7d~19_combout $end
$var wire 1 U! salida7d~15_combout $end
$var wire 1 V! salida7d~17_combout $end
$var wire 1 W! salida7d~16_combout $end
$var wire 1 X! cuentaunhertz [25] $end
$var wire 1 Y! cuentaunhertz [24] $end
$var wire 1 Z! cuentaunhertz [23] $end
$var wire 1 [! cuentaunhertz [22] $end
$var wire 1 \! cuentaunhertz [21] $end
$var wire 1 ]! cuentaunhertz [20] $end
$var wire 1 ^! cuentaunhertz [19] $end
$var wire 1 _! cuentaunhertz [18] $end
$var wire 1 `! cuentaunhertz [17] $end
$var wire 1 a! cuentaunhertz [16] $end
$var wire 1 b! cuentaunhertz [15] $end
$var wire 1 c! cuentaunhertz [14] $end
$var wire 1 d! cuentaunhertz [13] $end
$var wire 1 e! cuentaunhertz [12] $end
$var wire 1 f! cuentaunhertz [11] $end
$var wire 1 g! cuentaunhertz [10] $end
$var wire 1 h! cuentaunhertz [9] $end
$var wire 1 i! cuentaunhertz [8] $end
$var wire 1 j! cuentaunhertz [7] $end
$var wire 1 k! cuentaunhertz [6] $end
$var wire 1 l! cuentaunhertz [5] $end
$var wire 1 m! cuentaunhertz [4] $end
$var wire 1 n! cuentaunhertz [3] $end
$var wire 1 o! cuentaunhertz [2] $end
$var wire 1 p! cuentaunhertz [1] $end
$var wire 1 q! cuentaunhertz [0] $end
$var wire 1 r! cuentad [3] $end
$var wire 1 s! cuentad [2] $end
$var wire 1 t! cuentad [1] $end
$var wire 1 u! cuentad [0] $end
$var wire 1 v! cuentau [3] $end
$var wire 1 w! cuentau [2] $end
$var wire 1 x! cuentau [1] $end
$var wire 1 y! cuentau [0] $end
$upscope $end
$upscope $end
$enddefinitions $end
#0
$dumpvars
0!
0"
0#
0'
0&
0%
0$
1/
1.
1-
1,
1+
1*
1)
1(
17
16
05
04
03
02
01
00
0;
0:
09
08
0<
1=
x>
1?
1@
1A
1B
1C
0D
0E
0F
0G
0H
0I
1J
1K
1L
1M
1N
1O
1P
1Q
0R
0S
0T
0U
0V
0W
0X
0Y
0Z
0[
0\
1]
0^
0_
1`
0a
0b
0c
0d
1e
0f
0g
0h
0i
1j
0k
0l
0m
1n
0o
0p
0q
1r
0s
0t
0u
1v
0w
1x
0y
0z
0{
1|
0}
0~
0!!
1"!
1#!
0$!
0%!
0&!
1'!
0(!
0)!
0*!
1+!
0,!
0-!
0.!
1/!
00!
01!
02!
13!
04!
05!
06!
17!
08!
09!
0:!
1;!
1<!
1=!
1>!
0?!
0@!
0A!
0B!
0C!
1D!
0E!
0F!
0G!
0H!
1I!
0J!
1K!
0L!
0M!
0N!
0O!
0P!
1Q!
1R!
1S!
1T!
0U!
1V!
0W!
0q!
0p!
0o!
0n!
0m!
0l!
0k!
0j!
0i!
0h!
0g!
0f!
0e!
0d!
0c!
0b!
0a!
0`!
0_!
0^!
0]!
0\!
0[!
0Z!
0Y!
0X!
0u!
0t!
0s!
0r!
0y!
0x!
0w!
0v!
$end
#2500
1"
1[
1\
#5000
0"
0[
0\
#7500
1"
1[
1\
#10000
1!
0"
1^
0[
1_
0\
#12500
1"
1[
1\
1q!
1d
1a
0`
1b
1c
#15000
0"
0[
0\
#17500
1"
1[
1\
1p!
0q!
0d
0e
0b
0a
1`
1e
1b
1f
0c
0f
1c
#20000
0"
0[
0\
#22500
1"
1[
1\
1q!
1a
0`
0e
0b
1f
0c
#25000
0"
0[
0\
#27500
1"
1[
1\
1o!
0p!
0q!
1g
1e
1b
0a
0f
1`
1h
0g
0b
1f
1c
0h
1i
0c
0i
#30000
0"
0[
0\
#32500
1"
1[
1\
1q!
1d
1a
0`
1b
1c
#35000
0"
0[
0\
#37500
1"
1[
1\
1p!
0q!
0d
0e
0b
0a
1`
1g
1e
1b
0f
0c
1h
0g
1f
1c
0h
1i
0i
#40000
0"
0[
0\
#42500
1"
1[
1\
1q!
1a
0`
0e
0b
1g
0f
0c
1h
1i
#45000
0"
0[
0\
#47500
1"
1[
1\
1n!
0o!
0p!
0q!
1w
0j
0h
0g
1e
1b
0a
1f
1`
1j
1h
0b
1k
0i
0f
1c
0k
1i
0c
#50000
0"
0[
0\
#52500
1"
1[
1\
1q!
1d
1a
0`
1b
1?!
0i
#55000
0"
0[
0\
#57500
1"
1[
1\
0n!
0q!
1@!
1Z
0w
0h
0d
0a
1#
1`
0b
0?!
#60000
0"
0[
0\
#62500
1"
1[
1\
1q!
1y!
0@!
0Z
1R
1d
1a
1;
0#
0`
1H!
1G!
1F!
1E!
1C!
0]
1D
1E
1F
1G
1b
12
13
14
15
1c
#65000
0"
0[
0\
#67500
1"
1[
1\
1p!
0q!
0d
0e
0b
0a
1`
1e
1b
1f
0c
0f
1c
#70000
0"
0[
0\
#72500
1"
1[
1\
1q!
1a
0`
0e
0b
1f
0c
#75000
0"
0[
0\
#77500
1"
1[
1\
1o!
0p!
0q!
1g
1e
1b
0a
0f
1`
1h
0g
0b
1f
1c
0h
1i
0c
0i
#80000
0"
0[
0\
#82500
1"
1[
1\
1q!
1d
1a
0`
1b
1c
#85000
0"
0[
0\
#87500
1"
1[
1\
1p!
0q!
0d
0e
0b
0a
1`
1g
1e
1b
0f
0c
1h
0g
1f
1c
0h
1i
0i
#90000
0"
0[
0\
#92500
1"
1[
1\
1q!
1a
0`
0e
0b
1g
0f
0c
1h
1i
#95000
0"
0[
0\
#97500
1"
1[
1\
1n!
0o!
0p!
0q!
1w
0j
0h
0g
1e
1b
0a
1f
1`
1j
1h
0b
1k
0i
0f
1c
0k
1i
0c
#100000
0"
0[
0\
#102500
1"
1[
1\
1q!
1d
1a
0`
1b
1?!
0i
#105000
0"
0[
0\
#107500
1"
1[
1\
0n!
0q!
1@!
1Z
0w
0h
0d
0a
1#
1`
0b
0?!
#110000
0"
0[
0\
#112500
1"
1[
1\
1q!
1x!
0y!
0@!
0Z
0R
1S
1d
1a
0I!
1:
0;
0#
0`
0H!
0G!
0E!
0D!
1]
0C
0D
0F
0G
1H
1b
11
02
03
05
06
1c
#115000
0"
0[
0\
#117500
1"
1[
1\
1p!
0q!
0d
0e
0b
0a
1`
1e
1b
1f
0c
0f
1c
#120000
0"
0[
0\
#122500
1"
1[
1\
1q!
1a
0`
0e
0b
1f
0c
#125000
0"
0[
0\
#127500
1"
1[
1\
1o!
0p!
0q!
1g
1e
1b
0a
0f
1`
1h
0g
0b
1f
1c
0h
1i
0c
0i
#130000
0"
0[
0\
#132500
1"
1[
1\
1q!
1d
1a
0`
1b
1c
#135000
0"
0[
0\
#137500
1"
1[
1\
1p!
0q!
0d
0e
0b
0a
1`
1g
1e
1b
0f
0c
1h
0g
1f
1c
0h
1i
0i
#140000
0"
0[
0\
#142500
1"
1[
1\
1q!
1a
0`
0e
0b
1g
0f
0c
1h
1i
#145000
0"
0[
0\
#147500
1"
1[
1\
1n!
0o!
0p!
0q!
1w
0j
0h
0g
1e
1b
0a
1f
1`
1j
1h
0b
1k
0i
0f
1c
0k
1i
0c
#150000
0"
0[
0\
#152500
1"
1[
1\
1q!
1d
1a
0`
1b
1?!
0i
#155000
0"
0[
0\
#157500
1"
1[
1\
0n!
0q!
1@!
1Z
0w
0h
0d
0a
1#
1`
0b
0?!
#160000
0"
0[
0\
#162500
1"
1[
1\
1q!
1y!
0@!
0Z
1R
1d
1a
1I!
1;
0#
0`
1G!
0C!
0]
1F
0H
1b
01
13
1c
#165000
0"
0[
0\
#167500
1"
1[
1\
1p!
0q!
0d
0e
0b
0a
1`
1e
1b
1f
0c
0f
1c
#170000
0"
0[
0\
#172500
1"
1[
1\
1q!
1a
0`
0e
0b
1f
0c
#175000
0"
0[
0\
#177500
1"
1[
1\
1o!
0p!
0q!
1g
1e
1b
0a
0f
1`
1h
0g
0b
1f
1c
0h
1i
0c
0i
#180000
0"
0[
0\
#182500
1"
1[
1\
1q!
1d
1a
0`
1b
1c
#185000
0"
0[
0\
#187500
1"
1[
1\
1p!
0q!
0d
0e
0b
0a
1`
1g
1e
1b
0f
0c
1h
0g
1f
1c
0h
1i
0i
#190000
0"
0[
0\
#192500
1"
1[
1\
1q!
1a
0`
0e
0b
1g
0f
0c
1h
1i
#195000
0"
0[
0\
#197500
1"
1[
1\
1n!
0o!
0p!
0q!
1w
0j
0h
0g
1e
1b
0a
1f
1`
1j
1h
0b
1k
0i
0f
1c
0k
1i
0c
#200000
0"
0[
0\
#202500
1"
1[
1\
1q!
1d
1a
0`
1b
1?!
0i
#205000
0"
0[
0\
#207500
1"
1[
1\
0n!
0q!
1@!
1Z
0w
0h
0d
0a
1#
1`
1A!
0b
0?!
#210000
0"
0[
0\
#212500
1"
1[
1\
1q!
0x!
1w!
0y!
0@!
0Z
0R
1T
0S
1d
1a
0:
19
0;
0#
0`
1H!
0F!
1E!
1]
1D
0E
1G
1b
12
04
15
1c
#215000
0"
0[
0\
#217500
1"
1[
1\
1p!
0q!
0d
0e
0b
0a
1`
1e
1b
1f
0c
0f
1c
#220000
0"
0[
0\
#222500
1"
1[
1\
1q!
1a
0`
0e
0b
1f
0c
#225000
0"
0[
0\
#227500
1"
1[
1\
1o!
0p!
0q!
1g
1e
1b
0a
0f
1`
1h
0g
0b
1f
1c
0h
1i
0c
0i
#230000
0"
0[
0\
#232500
1"
1[
1\
1q!
1d
1a
0`
1b
1c
#235000
0"
0[
0\
#237500
1"
1[
1\
1p!
0q!
0d
0e
0b
0a
1`
1g
1e
1b
0f
0c
1h
0g
1f
1c
0h
1i
0i
#240000
0"
0[
0\
#242500
1"
1[
1\
1q!
1a
0`
0e
0b
1g
0f
0c
1h
1i
#245000
0"
0[
0\
#247500
1"
1[
1\
1n!
0o!
0p!
0q!
1w
0j
0h
0g
1e
1b
0a
1f
1`
1j
1h
0b
1k
0i
0f
1c
0k
1i
0c
#250000
0"
0[
0\
#252500
1"
1[
1\
1q!
1d
1a
0`
1b
1?!
0i
#255000
0"
0[
0\
#257500
1"
1[
1\
0n!
0q!
1@!
1Z
0w
0h
0d
0a
1#
1`
0b
0?!
#260000
0"
0[
0\
#262500
1"
1[
1\
1q!
1y!
0@!
0Z
1R
1d
1a
1;
0#
0`
1J!
0H!
0E!
1C!
0]
0D
0G
1I
1b
10
02
05
1c
#265000
0"
0[
0\
#267500
1"
1[
1\
1p!
0q!
0d
0e
0b
0a
1`
1e
1b
1f
0c
0f
1c
#270000
0"
0[
0\
#272500
1"
1[
1\
1q!
1a
0`
0e
0b
1f
0c
#275000
0"
0[
0\
#277500
1"
1[
1\
1o!
0p!
0q!
1g
1e
1b
0a
0f
1`
1h
0g
0b
1f
1c
0h
1i
0c
0i
#280000
0"
0[
0\
#282500
1"
1[
1\
1q!
1d
1a
0`
1b
1c
#285000
0"
0[
0\
#287500
1"
1[
1\
1p!
0q!
0d
0e
0b
0a
1`
1g
1e
1b
0f
0c
1h
0g
1f
1c
0h
1i
0i
#290000
0"
0[
0\
#292500
1"
1[
1\
1q!
1a
0`
0e
0b
1g
0f
0c
1h
1i
#295000
0"
0[
0\
#297500
1"
1[
1\
1n!
0o!
0p!
0q!
1w
0j
0h
0g
1e
1b
0a
1f
1`
1j
1h
0b
1k
0i
0f
1c
0k
1i
0c
#300000
0"
0[
0\
#302500
1"
1[
1\
1q!
1d
1a
0`
1b
1?!
0i
#305000
0"
0[
0\
#307500
1"
1[
1\
0n!
0q!
1@!
1Z
0w
0h
0d
0a
1#
1`
0b
0?!
#310000
0"
0[
0\
#312500
1"
1[
1\
1q!
1x!
0y!
0@!
0Z
0R
1S
1d
1a
1:
0;
0#
0`
0G!
1]
0F
1b
03
1c
#315000
0"
0[
0\
#317500
1"
1[
1\
1p!
0q!
0d
0e
0b
0a
1`
1e
1b
1f
0c
0f
1c
#320000
0"
0[
0\
#322500
1"
1[
1\
1q!
1a
0`
0e
0b
1f
0c
#325000
0"
0[
0\
#327500
1"
1[
1\
1o!
0p!
0q!
1g
1e
1b
0a
0f
1`
1h
0g
0b
1f
1c
0h
1i
0c
0i
#330000
0"
0[
0\
#332500
1"
1[
1\
1q!
1d
1a
0`
1b
1c
#335000
0"
0[
0\
#337500
1"
1[
1\
1p!
0q!
0d
0e
0b
0a
1`
1g
1e
1b
0f
0c
1h
0g
1f
1c
0h
1i
0i
#340000
0"
0[
0\
#342500
1"
1[
1\
1q!
1a
0`
0e
0b
1g
0f
0c
1h
1i
#345000
0"
0[
0\
#347500
1"
1[
1\
1n!
0o!
0p!
0q!
1w
0j
0h
0g
1e
1b
0a
1f
1`
1j
1h
0b
1k
0i
0f
1c
0k
1i
0c
#350000
0"
0[
0\
#352500
1"
1[
1\
1q!
1d
1a
0`
1b
1?!
0i
#355000
0"
0[
0\
#357500
1"
1[
1\
0n!
0q!
1@!
1Z
0w
0h
0d
0a
1#
1`
0b
0?!
#360000
0"
0[
0\
#362500
1"
1[
1\
1q!
1y!
0@!
0Z
1R
1d
1a
1;
0#
0`
0J!
1H!
1G!
1F!
1D!
0C!
1B!
0]
1C
1E
1F
1G
0I
1b
00
12
13
14
16
1c
#365000
0"
0[
0\
#367500
1"
1[
1\
1p!
0q!
0d
0e
0b
0a
1`
1e
1b
1f
0c
0f
1c
#370000
0"
0[
0\
#372500
1"
1[
1\
1q!
1a
0`
0e
0b
1f
0c
#375000
0"
0[
0\
#377500
1"
1[
1\
1o!
0p!
0q!
1g
1e
1b
0a
0f
1`
1h
0g
0b
1f
1c
0h
1i
0c
0i
#380000
0"
0[
0\
#382500
1"
1[
1\
1q!
1d
1a
0`
1b
1c
#385000
0"
0[
0\
#387500
1"
1[
1\
1p!
0q!
0d
0e
0b
0a
1`
1g
1e
1b
0f
0c
1h
0g
1f
1c
0h
1i
0i
#390000
0"
0[
0\
#392500
1"
1[
1\
1q!
1a
0`
0e
0b
1g
0f
0c
1h
1i
#395000
0"
0[
0\
#397500
1"
1[
1\
1n!
0o!
0p!
0q!
1w
0j
0h
0g
1e
1b
0a
1f
1`
1j
1h
0b
1k
0i
0f
1c
0k
1i
0c
#400000
0"
0[
0\
#402500
1"
1[
1\
1q!
1d
1a
0`
1b
1?!
0i
#405000
0"
0[
0\
#407500
1"
1[
1\
0n!
0q!
1@!
1Z
0w
0h
0d
0a
1#
1`
0A!
0b
0?!
#410000
0"
0[
0\
#412500
1"
1[
1\
1q!
0x!
1v!
0w!
0y!
0@!
0Z
0R
0T
1U
0S
1d
1a
0:
18
09
0;
0#
0`
0H!
0G!
0F!
0D!
1]
0C
0E
0F
0G
1b
02
03
04
06
1c
#415000
0"
0[
0\
#417500
1"
1[
1\
1p!
0q!
0d
0e
0b
0a
1`
1e
1b
1f
0c
0f
1c
#420000
0"
0[
0\
#422500
1"
1[
1\
1q!
1a
0`
0e
0b
1f
0c
#425000
0"
0[
0\
#427500
1"
1[
1\
1o!
0p!
0q!
1g
1e
1b
0a
0f
1`
1h
0g
0b
1f
1c
0h
1i
0c
0i
#430000
0"
0[
0\
#432500
1"
1[
1\
1q!
1d
1a
0`
1b
1c
#435000
0"
0[
0\
#437500
1"
1[
1\
1p!
0q!
0d
0e
0b
0a
1`
1g
1e
1b
0f
0c
1h
0g
1f
1c
0h
1i
0i
#440000
0"
0[
0\
#442500
1"
1[
1\
1q!
1a
0`
0e
0b
1g
0f
0c
1h
1i
#445000
0"
0[
0\
#447500
1"
1[
1\
1n!
0o!
0p!
0q!
1w
0j
0h
0g
1e
1b
0a
1f
1`
1j
1h
0b
1k
0i
0f
1c
0k
1i
0c
#450000
0"
0[
0\
#452500
1"
1[
1\
1q!
1d
1a
0`
1b
1?!
0i
#455000
0"
0[
0\
#457500
1"
1[
1\
0n!
0q!
1@!
1Z
0w
0h
0d
0a
1#
1`
0b
0?!
#460000
0"
0[
0\
#462500
1"
1[
1\
1q!
1y!
0@!
0Z
1R
1d
1a
1L!
1;
0#
0`
1H!
1G!
0B!
0]
1F
1G
1b
12
13
1c
#465000
0"
0[
0\
#467500
1"
1[
1\
1p!
0q!
0d
0e
0b
0a
1`
1e
1b
1f
0c
0f
1c
#470000
0"
0[
0\
#472500
1"
1[
1\
1q!
1a
0`
0e
0b
1f
0c
#475000
0"
0[
0\
#477500
1"
1[
1\
1o!
0p!
0q!
1g
1e
1b
0a
0f
1`
1h
0g
0b
1f
1c
0h
1i
0c
0i
#480000
0"
0[
0\
#482500
1"
1[
1\
1q!
1d
1a
0`
1b
1c
#485000
0"
0[
0\
#487500
1"
1[
1\
1p!
0q!
0d
0e
0b
0a
1`
1g
1e
1b
0f
0c
1h
0g
1f
1c
0h
1i
0i
#490000
0"
0[
0\
#492500
1"
1[
1\
1q!
1a
0`
0e
0b
1g
0f
0c
1h
1i
#495000
0"
0[
0\
#497500
1"
1[
1\
1n!
0o!
0p!
0q!
1w
0j
0h
0g
1e
1b
0a
1f
1`
1j
1h
0b
1k
0i
0f
1c
0k
1i
0c
#500000
0"
0[
0\
#502500
1"
1[
1\
1q!
1d
1a
0`
1b
1?!
0i
#505000
0"
0[
0\
#507500
1"
1[
1\
0n!
0q!
1@!
1Z
0w
0h
0d
0a
1M!
1#
1`
0b
0?!
#510000
0"
0[
0\
#512500
1"
1[
1\
1q!
1u!
0v!
0y!
0@!
0Z
0R
0U
1V
1d
1a
1W!
0L!
0M!
1'
08
0;
0#
0`
0V!
1P!
0K!
0H!
0G!
1D!
1]
1C
0F
0G
0P
0Q
1b
0(
0)
02
03
16
1c
#515000
0"
0[
0\
#517500
1"
1[
1\
1p!
0q!
0d
0e
0b
0a
1`
1e
1b
1f
0c
0f
1c
#520000
0"
0[
0\
#522500
1"
1[
1\
1q!
1a
0`
0e
0b
1f
0c
#525000
0"
0[
0\
#527500
1"
1[
1\
1o!
0p!
0q!
1g
1e
1b
0a
0f
1`
1h
0g
0b
1f
1c
0h
1i
0c
0i
#530000
0"
0[
0\
#532500
1"
1[
1\
1q!
1d
1a
0`
1b
1c
#535000
0"
0[
0\
#537500
1"
1[
1\
1p!
0q!
0d
0e
0b
0a
1`
1g
1e
1b
0f
0c
1h
0g
1f
1c
0h
1i
0i
#540000
0"
0[
0\
#542500
1"
1[
1\
1q!
1a
0`
0e
0b
1g
0f
0c
1h
1i
#545000
0"
0[
0\
#547500
1"
1[
1\
1n!
0o!
0p!
0q!
1w
0j
0h
0g
1e
1b
0a
1f
1`
1j
1h
0b
1k
0i
0f
1c
0k
1i
0c
#550000
0"
0[
0\
#552500
1"
1[
1\
1q!
1d
1a
0`
1b
1?!
0i
#555000
0"
0[
0\
#557500
1"
1[
1\
0n!
0q!
1@!
1Z
0w
0h
0d
0a
1#
1`
0b
0?!
#560000
0"
0[
0\
#562500
1"
1[
1\
1q!
1y!
0@!
0Z
1R
1d
1a
1;
0#
0`
1H!
1G!
1F!
1E!
1C!
0]
1D
1E
1F
1G
1b
12
13
14
15
1c
#565000
0"
0[
0\
#567500
1"
1[
1\
1p!
0q!
0d
0e
0b
0a
1`
1e
1b
1f
0c
0f
1c
#570000
0"
0[
0\
#572500
1"
1[
1\
1q!
1a
0`
0e
0b
1f
0c
#575000
0"
0[
0\
#577500
1"
1[
1\
1o!
0p!
0q!
1g
1e
1b
0a
0f
1`
1h
0g
0b
1f
1c
0h
1i
0c
0i
#580000
0"
0[
0\
#582500
1"
1[
1\
1q!
1d
1a
0`
1b
1c
#585000
0"
0[
0\
#587500
1"
1[
1\
1p!
0q!
0d
0e
0b
0a
1`
1g
1e
1b
0f
0c
1h
0g
1f
1c
0h
1i
0i
#590000
0"
0[
0\
#592500
1"
1[
1\
1q!
1a
0`
0e
0b
1g
0f
0c
1h
1i
#595000
0"
0[
0\
#597500
1"
1[
1\
1n!
0o!
0p!
0q!
1w
0j
0h
0g
1e
1b
0a
1f
1`
1j
1h
0b
1k
0i
0f
1c
0k
1i
0c
#600000
0"
0[
0\
#602500
1"
1[
1\
1q!
1d
1a
0`
1b
1?!
0i
#605000
0"
0[
0\
#607500
1"
1[
1\
0n!
0q!
1@!
1Z
0w
0h
0d
0a
1#
1`
0b
0?!
#610000
0"
0[
0\
#612500
1"
1[
1\
1q!
1x!
0y!
0@!
0Z
0R
1S
1d
1a
0I!
1:
0;
0#
0`
0H!
0G!
0E!
0D!
1]
0C
0D
0F
0G
1H
1b
11
02
03
05
06
1c
#615000
0"
0[
0\
#617500
1"
1[
1\
1p!
0q!
0d
0e
0b
0a
1`
1e
1b
1f
0c
0f
1c
#620000
0"
0[
0\
#622500
1"
1[
1\
1q!
1a
0`
0e
0b
1f
0c
#625000
0"
0[
0\
#627500
1"
1[
1\
1o!
0p!
0q!
1g
1e
1b
0a
0f
1`
1h
0g
0b
1f
1c
0h
1i
0c
0i
#630000
0"
0[
0\
#632500
1"
1[
1\
1q!
1d
1a
0`
1b
1c
#635000
0"
0[
0\
#637500
1"
1[
1\
1p!
0q!
0d
0e
0b
0a
1`
1g
1e
1b
0f
0c
1h
0g
1f
1c
0h
1i
0i
#640000
0"
0[
0\
#642500
1"
1[
1\
1q!
1a
0`
0e
0b
1g
0f
0c
1h
1i
#645000
0"
0[
0\
#647500
1"
1[
1\
1n!
0o!
0p!
0q!
1w
0j
0h
0g
1e
1b
0a
1f
1`
1j
1h
0b
1k
0i
0f
1c
0k
1i
0c
#650000
0"
0[
0\
#652500
1"
1[
1\
1q!
1d
1a
0`
1b
1?!
0i
#655000
0"
0[
0\
#657500
1"
1[
1\
0n!
0q!
1@!
1Z
0w
0h
0d
0a
1#
1`
0b
0?!
#660000
0"
0[
0\
#662500
1"
1[
1\
1q!
1y!
0@!
0Z
1R
1d
1a
1I!
1;
0#
0`
1G!
0C!
0]
1F
0H
1b
01
13
1c
#665000
0"
0[
0\
#667500
1"
1[
1\
1p!
0q!
0d
0e
0b
0a
1`
1e
1b
1f
0c
0f
1c
#670000
0"
0[
0\
#672500
1"
1[
1\
1q!
1a
0`
0e
0b
1f
0c
#675000
0"
0[
0\
#677500
1"
1[
1\
1o!
0p!
0q!
1g
1e
1b
0a
0f
1`
1h
0g
0b
1f
1c
0h
1i
0c
0i
#680000
0"
0[
0\
#682500
1"
1[
1\
1q!
1d
1a
0`
1b
1c
#685000
0"
0[
0\
#687500
1"
1[
1\
1p!
0q!
0d
0e
0b
0a
1`
1g
1e
1b
0f
0c
1h
0g
1f
1c
0h
1i
0i
#690000
0"
0[
0\
#692500
1"
1[
1\
1q!
1a
0`
0e
0b
1g
0f
0c
1h
1i
#695000
0"
0[
0\
#697500
1"
1[
1\
1n!
0o!
0p!
0q!
1w
0j
0h
0g
1e
1b
0a
1f
1`
1j
1h
0b
1k
0i
0f
1c
0k
1i
0c
#700000
0"
0[
0\
#702500
1"
1[
1\
1q!
1d
1a
0`
1b
1?!
0i
#705000
0"
0[
0\
#707500
1"
1[
1\
0n!
0q!
1@!
1Z
0w
0h
0d
0a
1#
1`
1A!
0b
0?!
#710000
0"
0[
0\
#712500
1"
1[
1\
1q!
0x!
1w!
0y!
0@!
0Z
0R
1T
0S
1d
1a
0:
19
0;
0#
0`
1H!
0F!
1E!
1]
1D
0E
1G
1b
12
04
15
1c
#715000
0"
0[
0\
#717500
1"
1[
1\
1p!
0q!
0d
0e
0b
0a
1`
1e
1b
1f
0c
0f
1c
#720000
0"
0[
0\
#722500
1"
1[
1\
1q!
1a
0`
0e
0b
1f
0c
#725000
0"
0[
0\
#727500
1"
1[
1\
1o!
0p!
0q!
1g
1e
1b
0a
0f
1`
1h
0g
0b
1f
1c
0h
1i
0c
0i
#730000
0"
0[
0\
#732500
1"
1[
1\
1q!
1d
1a
0`
1b
1c
#735000
0"
0[
0\
#737500
1"
1[
1\
1p!
0q!
0d
0e
0b
0a
1`
1g
1e
1b
0f
0c
1h
0g
1f
1c
0h
1i
0i
#740000
0"
0[
0\
#742500
1"
1[
1\
1q!
1a
0`
0e
0b
1g
0f
0c
1h
1i
#745000
0"
0[
0\
